{"failedCount":1,"prefixedPath":"classpath:reqResApp\/feature\/02_getUsers.feature","packageQualifiedName":"reqResApp.feature.02_getUsers","loopIndex":-1,"relativePath":"reqResApp\/feature\/02_getUsers.feature","scenarioResults":[{"sectionIndex":0,"stepResults":[{"result":{"nanos":2034079900,"millis":2034.0799,"status":"passed"},"step":{"background":true,"line":4,"prefix":"*","index":0,"text":"def createUser = call read('classpath:reqResApp\/feature\/01_createUser.feature')"},"callResults":[{"failedCount":0,"prefixedPath":"classpath:reqResApp\/feature\/01_createUser.feature","packageQualifiedName":"reqResApp.feature.01_createUser","loopIndex":-1,"relativePath":"reqResApp\/feature\/01_createUser.feature","scenarioResults":[{"sectionIndex":0,"stepResults":[{"result":{"nanos":1435600,"millis":1.4356,"status":"passed"},"step":{"background":true,"line":4,"prefix":"*","index":0,"text":"def baseURL = 'https:\/\/reqres.in\/api'"},"stepLog":"12:27:49.741 karate.env system property was: null \n"},{"result":{"nanos":73372900,"millis":73.3729,"status":"passed"},"step":{"background":true,"line":5,"prefix":"*","index":1,"text":"def createUser = read('classpath:reqResApp\/testData\/createUserPayload.json')"}},{"result":{"nanos":14051800,"millis":14.0518,"status":"passed"},"step":{"line":8,"prefix":"Given","index":0,"text":"url baseURL +'\/register'"}},{"result":{"nanos":31823600,"millis":31.8236,"status":"passed"},"step":{"comments":["#And request {\"username\": \"eve.holt@reqres.in\", \"email\": \"eve.holt@reqres.in\", \"password\": \"cityslicka\"}","#And request","#\"\"\"","#    {","#        \"username\": \"eve.holt@reqres.in\",","#        \"email\": \"eve.holt@reqres.in\",","#        \"password\": \"cityslicka\"","#    }","#\"\"\""],"line":18,"prefix":"And","index":1,"text":"request createUser.users[1]"}},{"result":{"nanos":83926800,"millis":83.9268,"status":"passed"},"step":{"line":19,"prefix":"And","index":2,"text":"header Accept = 'application\/json'"}},{"result":{"nanos":1673159700,"millis":1673.1597,"status":"passed"},"step":{"line":20,"prefix":"When","index":3,"text":"method post"},"stepLog":"12:27:50.729 request:\n1 > POST https:\/\/reqres.in\/api\/register\n1 > Accept: application\/json\n1 > Content-Type: application\/json; charset=UTF-8\n1 > Content-Length: 94\n1 > Host: reqres.in\n1 > Connection: Keep-Alive\n1 > User-Agent: Apache-HttpClient\/4.5.14 (Java\/20)\n1 > Accept-Encoding: gzip,deflate\n{\"username\":\"tracey.ramos@reqres.in\",\"email\":\"tracey.ramos@reqres.in\",\"password\":\"cityslicka\"}\n\n12:27:51.757 response time in milliseconds: 1028\n1 < 200\n1 < Date: Mon, 17 Apr 2023 02:27:52 GMT\n1 < Content-Type: application\/json; charset=utf-8\n1 < Content-Length: 36\n1 < Connection: keep-alive\n1 < X-Powered-By: Express\n1 < Access-Control-Allow-Origin: *\n1 < Etag: W\/\"24-qkmwtZYcaqJ\/9W5ty0Q1n1B5zOE\"\n1 < Via: 1.1 vegur\n1 < CF-Cache-Status: DYNAMIC\n1 < Report-To: {\"endpoints\":[{\"url\":\"https:\\\/\\\/a.nel.cloudflare.com\\\/report\\\/v3?s=bRe5ACczLbRAIjJ%2F%2Fiitsyhvr2oa%2BmPEL6wdc%2FGiq1bIQ6IQFc8gzwP2Hocw4XBmh%2BIzewBa3UhVQuvkq4PNgFvU%2FWrCrTs3N0LkCylKWBQdN8GcpuWUsxYIMg%3D%3D\"}],\"group\":\"cf-nel\",\"max_age\":604800}\n1 < NEL: {\"success_fraction\":0,\"report_to\":\"cf-nel\",\"max_age\":604800}\n1 < Server: cloudflare\n1 < CF-RAY: 7b913b374c7f2b36-MEL\n{\"id\":6,\"token\":\"QpwL5tke4Pnpja7X6\"}\n\n"},{"result":{"nanos":25070700,"millis":25.0707,"status":"passed"},"step":{"line":21,"prefix":"Then","index":4,"text":"status 200"}},{"result":{"nanos":62040500,"millis":62.0405,"status":"passed"},"step":{"line":22,"prefix":"*","index":5,"text":"match response.id == '#notnull'"}},{"result":{"nanos":4239500,"millis":4.2395,"status":"passed"},"step":{"line":23,"prefix":"*","index":6,"text":"match response.token == '#notnull'"}},{"result":{"nanos":1460100,"millis":1.4601,"status":"passed"},"step":{"line":24,"prefix":"*","index":7,"text":"match response == {\"id\": \"#number\", \"token\": \"#string\"}"}},{"result":{"nanos":1987500,"millis":1.9875,"status":"passed"},"step":{"line":25,"prefix":"*","index":8,"text":"def myToken = response.token"}},{"result":{"nanos":3131700,"millis":3.1317,"status":"passed"},"step":{"line":26,"prefix":"*","index":9,"text":"print 'My token is: ' + myToken"},"stepLog":"12:27:51.892 [print] My token is: QpwL5tke4Pnpja7X6 \n"}],"executorName":"pool-1-thread-1","line":7,"name":"Token generation","description":"","durationMillis":1975.7004,"startTime":1681698469882,"failed":false,"refId":"[1:7]","endTime":1681698471892,"exampleIndex":-1}],"callDepth":1,"name":"Creating user","description":"","resultDate":"2023-04-17 12:27:52 PM","durationMillis":1975.7004,"passedCount":1}]},{"result":{"nanos":2888900,"millis":2.8889,"status":"passed"},"step":{"line":8,"prefix":"Given","index":0,"text":"url 'https:\/\/reqres.in\/api\/users'"}},{"result":{"nanos":114471800,"millis":114.4718,"status":"passed"},"step":{"line":9,"prefix":"When","index":1,"text":"method get"},"stepLog":"12:27:51.903 request:\n1 > GET https:\/\/reqres.in\/api\/users\n1 > Host: reqres.in\n1 > Connection: Keep-Alive\n1 > User-Agent: Apache-HttpClient\/4.5.14 (Java\/20)\n1 > Accept-Encoding: gzip,deflate\n\n\n12:27:52.012 response time in milliseconds: 107\n1 < 200\n1 < Date: Mon, 17 Apr 2023 02:27:52 GMT\n1 < Content-Type: application\/json; charset=utf-8\n1 < Transfer-Encoding: chunked\n1 < Connection: keep-alive\n1 < X-Powered-By: Express\n1 < Access-Control-Allow-Origin: *\n1 < Etag: W\/\"3e4-2RLXvr5wTg9YQ6aH95CkYoFNuO8\"\n1 < Via: 1.1 vegur\n1 < Cache-Control: max-age=14400\n1 < CF-Cache-Status: HIT\n1 < Age: 5505\n1 < Report-To: {\"endpoints\":[{\"url\":\"https:\\\/\\\/a.nel.cloudflare.com\\\/report\\\/v3?s=1KVXb5tjTNyie9P2spFbWMrEFCIS41ofndBhgxZxl5CX6jO8xJPHGpc%2BeqCTSNYfxl4uK2hnWEQ5R7zLk1uCYqaQ75LKvm%2FneGokFTrmOTxX0EB4U0gimRf9XQ%3D%3D\"}],\"group\":\"cf-nel\",\"max_age\":604800}\n1 < NEL: {\"success_fraction\":0,\"report_to\":\"cf-nel\",\"max_age\":604800}\n1 < Vary: Accept-Encoding\n1 < Server: cloudflare\n1 < CF-RAY: 7b913b3ca937299f-MEL\n{\"page\":1,\"per_page\":6,\"total\":12,\"total_pages\":2,\"data\":[{\"id\":1,\"email\":\"george.bluth@reqres.in\",\"first_name\":\"George\",\"last_name\":\"Bluth\",\"avatar\":\"https:\/\/reqres.in\/img\/faces\/1-image.jpg\"},{\"id\":2,\"email\":\"janet.weaver@reqres.in\",\"first_name\":\"Janet\",\"last_name\":\"Weaver\",\"avatar\":\"https:\/\/reqres.in\/img\/faces\/2-image.jpg\"},{\"id\":3,\"email\":\"emma.wong@reqres.in\",\"first_name\":\"Emma\",\"last_name\":\"Wong\",\"avatar\":\"https:\/\/reqres.in\/img\/faces\/3-image.jpg\"},{\"id\":4,\"email\":\"eve.holt@reqres.in\",\"first_name\":\"Eve\",\"last_name\":\"Holt\",\"avatar\":\"https:\/\/reqres.in\/img\/faces\/4-image.jpg\"},{\"id\":5,\"email\":\"charles.morris@reqres.in\",\"first_name\":\"Charles\",\"last_name\":\"Morris\",\"avatar\":\"https:\/\/reqres.in\/img\/faces\/5-image.jpg\"},{\"id\":6,\"email\":\"tracey.ramos@reqres.in\",\"first_name\":\"Tracey\",\"last_name\":\"Ramos\",\"avatar\":\"https:\/\/reqres.in\/img\/faces\/6-image.jpg\"}],\"support\":{\"url\":\"https:\/\/reqres.in\/#support-heading\",\"text\":\"To keep ReqRes free, contributions towards server costs are appreciated!\"}}\n\n"},{"result":{"nanos":22700,"millis":0.0227,"status":"passed"},"step":{"line":10,"prefix":"Then","index":2,"text":"status 200"}},{"result":{"nanos":2714400,"errorMessage":"match failed: CONTAINS\n  $ | data types don't match (MAP:STRING)\n  {\"page\":1,\"per_page\":6,\"total\":12,\"total_pages\":2,\"data\":[{\"id\":1,\"email\":\"george.bluth@reqres.in\",\"first_name\":\"George\",\"last_name\":\"Bluth\",\"avatar\":\"https:\/\/reqres.in\/img\/faces\/1-image.jpg\"},{\"id\":2,\"email\":\"janet.weaver@reqres.in\",\"first_name\":\"Janet\",\"last_name\":\"Weaver\",\"avatar\":\"https:\/\/reqres.in\/img\/faces\/2-image.jpg\"},{\"id\":3,\"email\":\"emma.wong@reqres.in\",\"first_name\":\"Emma\",\"last_name\":\"Wong\",\"avatar\":\"https:\/\/reqres.in\/img\/faces\/3-image.jpg\"},{\"id\":4,\"email\":\"eve.holt@reqres.in\",\"first_name\":\"Eve\",\"last_name\":\"Holt\",\"avatar\":\"https:\/\/reqres.in\/img\/faces\/4-image.jpg\"},{\"id\":5,\"email\":\"charles.morris@reqres.in\",\"first_name\":\"Charles\",\"last_name\":\"Morris\",\"avatar\":\"https:\/\/reqres.in\/img\/faces\/5-image.jpg\"},{\"id\":6,\"email\":\"tracey.ramos@reqres.in\",\"first_name\":\"Tracey\",\"last_name\":\"Ramos\",\"avatar\":\"https:\/\/reqres.in\/img\/faces\/6-image.jpg\"}],\"support\":{\"url\":\"https:\/\/reqres.in\/#support-heading\",\"text\":\"To keep ReqRes free, contributions towards server costs are appreciated!\"}}\n  'tracey.ramos@reqres.in'\n\n\nclasspath:reqResApp\/feature\/02_getUsers.feature:11","millis":2.7144,"status":"failed"},"step":{"line":11,"prefix":"*","index":3,"text":"match response contains 'tracey.ramos@reqres.in'"},"stepLog":"12:27:52.037 classpath:reqResApp\/feature\/02_getUsers.feature:11\n* match response contains 'tracey.ramos@reqres.in'\nmatch failed: CONTAINS\n  $ | data types don't match (MAP:STRING)\n  {\"page\":1,\"per_page\":6,\"total\":12,\"total_pages\":2,\"data\":[{\"id\":1,\"email\":\"george.bluth@reqres.in\",\"first_name\":\"George\",\"last_name\":\"Bluth\",\"avatar\":\"https:\/\/reqres.in\/img\/faces\/1-image.jpg\"},{\"id\":2,\"email\":\"janet.weaver@reqres.in\",\"first_name\":\"Janet\",\"last_name\":\"Weaver\",\"avatar\":\"https:\/\/reqres.in\/img\/faces\/2-image.jpg\"},{\"id\":3,\"email\":\"emma.wong@reqres.in\",\"first_name\":\"Emma\",\"last_name\":\"Wong\",\"avatar\":\"https:\/\/reqres.in\/img\/faces\/3-image.jpg\"},{\"id\":4,\"email\":\"eve.holt@reqres.in\",\"first_name\":\"Eve\",\"last_name\":\"Holt\",\"avatar\":\"https:\/\/reqres.in\/img\/faces\/4-image.jpg\"},{\"id\":5,\"email\":\"charles.morris@reqres.in\",\"first_name\":\"Charles\",\"last_name\":\"Morris\",\"avatar\":\"https:\/\/reqres.in\/img\/faces\/5-image.jpg\"},{\"id\":6,\"email\":\"tracey.ramos@reqres.in\",\"first_name\":\"Tracey\",\"last_name\":\"Ramos\",\"avatar\":\"https:\/\/reqres.in\/img\/faces\/6-image.jpg\"}],\"support\":{\"url\":\"https:\/\/reqres.in\/#support-heading\",\"text\":\"To keep ReqRes free, contributions towards server costs are appreciated!\"}}\n  'tracey.ramos@reqres.in'\n\n\nclasspath:reqResApp\/feature\/02_getUsers.feature:11\n"}],"line":7,"description":"","durationMillis":2154.1777,"failed":true,"error":"match failed: CONTAINS\n  $ | data types don't match (MAP:STRING)\n  {\"page\":1,\"per_page\":6,\"total\":12,\"total_pages\":2,\"data\":[{\"id\":1,\"email\":\"george.bluth@reqres.in\",\"first_name\":\"George\",\"last_name\":\"Bluth\",\"avatar\":\"https:\/\/reqres.in\/img\/faces\/1-image.jpg\"},{\"id\":2,\"email\":\"janet.weaver@reqres.in\",\"first_name\":\"Janet\",\"last_name\":\"Weaver\",\"avatar\":\"https:\/\/reqres.in\/img\/faces\/2-image.jpg\"},{\"id\":3,\"email\":\"emma.wong@reqres.in\",\"first_name\":\"Emma\",\"last_name\":\"Wong\",\"avatar\":\"https:\/\/reqres.in\/img\/faces\/3-image.jpg\"},{\"id\":4,\"email\":\"eve.holt@reqres.in\",\"first_name\":\"Eve\",\"last_name\":\"Holt\",\"avatar\":\"https:\/\/reqres.in\/img\/faces\/4-image.jpg\"},{\"id\":5,\"email\":\"charles.morris@reqres.in\",\"first_name\":\"Charles\",\"last_name\":\"Morris\",\"avatar\":\"https:\/\/reqres.in\/img\/faces\/5-image.jpg\"},{\"id\":6,\"email\":\"tracey.ramos@reqres.in\",\"first_name\":\"Tracey\",\"last_name\":\"Ramos\",\"avatar\":\"https:\/\/reqres.in\/img\/faces\/6-image.jpg\"}],\"support\":{\"url\":\"https:\/\/reqres.in\/#support-heading\",\"text\":\"To keep ReqRes free, contributions towards server costs are appreciated!\"}}\n  'tracey.ramos@reqres.in'\n\n\nclasspath:reqResApp\/feature\/02_getUsers.feature:11","tags":["justCreateUser"],"executorName":"pool-1-thread-1","name":"Get all users","startTime":1681698469682,"refId":"[1:7]","endTime":1681698472037,"exampleIndex":-1}],"callDepth":0,"name":"Test to get all the users","description":"","resultDate":"2023-04-17 12:27:52 PM","durationMillis":2154.1777,"passedCount":0}