{"failedCount":0,"prefixedPath":"classpath:reqResApp\/feature\/02_getUsers.feature","packageQualifiedName":"reqResApp.feature.02_getUsers","loopIndex":-1,"relativePath":"reqResApp\/feature\/02_getUsers.feature","scenarioResults":[{"sectionIndex":0,"stepResults":[{"result":{"nanos":3108839800,"millis":3108.8398,"status":"passed"},"step":{"background":true,"line":4,"prefix":"*","index":0,"text":"def createUser = call read('classpath:reqResApp\/feature\/01_createUser.feature')"},"callResults":[{"failedCount":0,"prefixedPath":"classpath:reqResApp\/feature\/01_createUser.feature","packageQualifiedName":"reqResApp.feature.01_createUser","loopIndex":-1,"relativePath":"reqResApp\/feature\/01_createUser.feature","scenarioResults":[{"sectionIndex":0,"stepResults":[{"result":{"nanos":1395300,"millis":1.3953,"status":"passed"},"step":{"background":true,"line":4,"prefix":"*","index":0,"text":"def baseURL = 'https:\/\/reqres.in\/api'"},"stepLog":"16:03:16.650 karate.env system property was: null \n"},{"result":{"nanos":310417900,"millis":310.4179,"status":"passed"},"step":{"background":true,"line":5,"prefix":"*","index":1,"text":"def createUserData = read('classpath:reqResApp\/testData\/createUserPayload.json')"}},{"result":{"nanos":20184800,"millis":20.1848,"status":"passed"},"step":{"line":9,"prefix":"Given","index":0,"text":"url baseURL +'\/register'"}},{"result":{"nanos":9600900,"millis":9.6009,"status":"passed"},"step":{"line":10,"prefix":"And","index":1,"text":"request createUserData.users[1]"}},{"result":{"nanos":724300,"millis":0.7243,"status":"passed"},"step":{"line":11,"prefix":"And","index":2,"text":"header Accept = 'application\/json'"}},{"result":{"nanos":2581231700,"millis":2581.2317,"status":"passed"},"step":{"line":12,"prefix":"When","index":3,"text":"method post"},"stepLog":"16:03:17.782 request:\n1 > POST https:\/\/reqres.in\/api\/register\n1 > Accept: application\/json\n1 > Content-Type: application\/json; charset=UTF-8\n1 > Content-Length: 94\n1 > Host: reqres.in\n1 > Connection: Keep-Alive\n1 > User-Agent: Apache-HttpClient\/4.5.14 (Java\/20)\n1 > Accept-Encoding: gzip,deflate\n{\"username\":\"tracey.ramos@reqres.in\",\"email\":\"tracey.ramos@reqres.in\",\"password\":\"cityslicka\"}\n\n16:03:19.628 response time in milliseconds: 1839\n1 < 200\n1 < Date: Mon, 17 Apr 2023 06:03:20 GMT\n1 < Content-Type: application\/json; charset=utf-8\n1 < Content-Length: 36\n1 < Connection: keep-alive\n1 < X-Powered-By: Express\n1 < Access-Control-Allow-Origin: *\n1 < Etag: W\/\"24-qkmwtZYcaqJ\/9W5ty0Q1n1B5zOE\"\n1 < Via: 1.1 vegur\n1 < CF-Cache-Status: DYNAMIC\n1 < Report-To: {\"endpoints\":[{\"url\":\"https:\\\/\\\/a.nel.cloudflare.com\\\/report\\\/v3?s=e%2FAyJp33QUGY5MgGJmE%2FHhekW8yzSTFLYHybbuZlDI4wjg6y5aQsNb93nViIHWN2KI8Rvk%2FyrVdtPIDetqgOmoX8pLCSvSBp%2BSVfNl0YR9geeZgzPLlctjZSbw%3D%3D\"}],\"group\":\"cf-nel\",\"max_age\":604800}\n1 < NEL: {\"success_fraction\":0,\"report_to\":\"cf-nel\",\"max_age\":604800}\n1 < Server: cloudflare\n1 < CF-RAY: 7b9276d7af013777-MEL\n{\"id\":6,\"token\":\"QpwL5tke4Pnpja7X6\"}\n\n"},{"result":{"nanos":9018600,"millis":9.0186,"status":"passed"},"step":{"line":13,"prefix":"Then","index":4,"text":"status 200"}},{"result":{"nanos":56970100,"millis":56.9701,"status":"passed"},"step":{"line":14,"prefix":"*","index":5,"text":"match response.id == '#notnull'"}},{"result":{"nanos":27832200,"millis":27.8322,"status":"passed"},"step":{"line":15,"prefix":"*","index":6,"text":"match response.token == '#notnull'"}},{"result":{"nanos":885800,"millis":0.8858,"status":"passed"},"step":{"line":16,"prefix":"*","index":7,"text":"match response == {\"id\": \"#number\", \"token\": \"#string\"}"}},{"result":{"nanos":3619500,"millis":3.6195,"status":"passed"},"step":{"line":17,"prefix":"*","index":8,"text":"def myToken = response.token"}},{"result":{"nanos":32870600,"millis":32.8706,"status":"passed"},"step":{"line":18,"prefix":"*","index":9,"text":"print 'My token is: ' + myToken"},"stepLog":"16:03:19.771 [print] My token is: QpwL5tke4Pnpja7X6 \n"}],"line":8,"description":"","durationMillis":3054.7517,"failed":false,"tags":["Regression","Shakeout","tokenGeneration"],"executorName":"pool-1-thread-2","name":"Create user and retrieve a dummy token","startTime":1681711396709,"refId":"[1:8]","endTime":1681711399772,"exampleIndex":-1}],"callDepth":1,"name":"Creating user","description":"","resultDate":"2023-04-17 04:03:21 PM","durationMillis":3054.7517,"passedCount":1}]},{"result":{"nanos":791400,"millis":0.7914,"status":"passed"},"step":{"line":8,"prefix":"Given","index":0,"text":"url 'https:\/\/reqres.in\/api\/users'"}},{"result":{"nanos":83947900,"millis":83.9479,"status":"passed"},"step":{"line":9,"prefix":"When","index":1,"text":"method get"},"stepLog":"16:03:19.776 request:\n1 > GET https:\/\/reqres.in\/api\/users\n1 > Host: reqres.in\n1 > Connection: Keep-Alive\n1 > User-Agent: Apache-HttpClient\/4.5.14 (Java\/20)\n1 > Accept-Encoding: gzip,deflate\n\n\n16:03:19.856 response time in milliseconds: 75\n1 < 200\n1 < Date: Mon, 17 Apr 2023 06:03:20 GMT\n1 < Content-Type: application\/json; charset=utf-8\n1 < Transfer-Encoding: chunked\n1 < Connection: keep-alive\n1 < X-Powered-By: Express\n1 < Access-Control-Allow-Origin: *\n1 < Etag: W\/\"3e4-2RLXvr5wTg9YQ6aH95CkYoFNuO8\"\n1 < Via: 1.1 vegur\n1 < Cache-Control: max-age=14400\n1 < CF-Cache-Status: HIT\n1 < Age: 4027\n1 < Report-To: {\"endpoints\":[{\"url\":\"https:\\\/\\\/a.nel.cloudflare.com\\\/report\\\/v3?s=3rUP2rzsRWGJ51U7pe5kIcKJ1iUcD1X79TO9e4Y1mrteKoUChyFrW1zCtitZCY5Ta0x%2B3VSscNMTYhBS%2BvWu3tauoABsBXZ%2FpBdkaPrRcJaRcQuPI0gWwjUF8w%3D%3D\"}],\"group\":\"cf-nel\",\"max_age\":604800}\n1 < NEL: {\"success_fraction\":0,\"report_to\":\"cf-nel\",\"max_age\":604800}\n1 < Vary: Accept-Encoding\n1 < Server: cloudflare\n1 < CF-RAY: 7b9276dcc9f529a1-MEL\n{\"page\":1,\"per_page\":6,\"total\":12,\"total_pages\":2,\"data\":[{\"id\":1,\"email\":\"george.bluth@reqres.in\",\"first_name\":\"George\",\"last_name\":\"Bluth\",\"avatar\":\"https:\/\/reqres.in\/img\/faces\/1-image.jpg\"},{\"id\":2,\"email\":\"janet.weaver@reqres.in\",\"first_name\":\"Janet\",\"last_name\":\"Weaver\",\"avatar\":\"https:\/\/reqres.in\/img\/faces\/2-image.jpg\"},{\"id\":3,\"email\":\"emma.wong@reqres.in\",\"first_name\":\"Emma\",\"last_name\":\"Wong\",\"avatar\":\"https:\/\/reqres.in\/img\/faces\/3-image.jpg\"},{\"id\":4,\"email\":\"eve.holt@reqres.in\",\"first_name\":\"Eve\",\"last_name\":\"Holt\",\"avatar\":\"https:\/\/reqres.in\/img\/faces\/4-image.jpg\"},{\"id\":5,\"email\":\"charles.morris@reqres.in\",\"first_name\":\"Charles\",\"last_name\":\"Morris\",\"avatar\":\"https:\/\/reqres.in\/img\/faces\/5-image.jpg\"},{\"id\":6,\"email\":\"tracey.ramos@reqres.in\",\"first_name\":\"Tracey\",\"last_name\":\"Ramos\",\"avatar\":\"https:\/\/reqres.in\/img\/faces\/6-image.jpg\"}],\"support\":{\"url\":\"https:\/\/reqres.in\/#support-heading\",\"text\":\"To keep ReqRes free, contributions towards server costs are appreciated!\"}}\n\n"},{"result":{"nanos":31000,"millis":0.031,"status":"passed"},"step":{"line":10,"prefix":"Then","index":2,"text":"status 200"}},{"result":{"nanos":20220400,"millis":20.2204,"status":"passed"},"step":{"line":11,"prefix":"*","index":3,"text":"print createUser.response"},"stepLog":"16:03:19.879 [print] {\n  \"id\": 6,\n  \"token\": \"QpwL5tke4Pnpja7X6\"\n}\n \n"},{"result":{"nanos":49751000,"millis":49.751,"status":"passed"},"step":{"line":12,"prefix":"*","index":4,"text":"match response.data[5].email == 'tracey.ramos@reqres.in'"}}],"line":7,"description":"","durationMillis":3263.5815,"failed":false,"tags":["justCreateUser","Regression"],"executorName":"pool-1-thread-2","name":"Get all users","startTime":1681711396443,"refId":"[1:7]","endTime":1681711399929,"exampleIndex":-1}],"callDepth":0,"name":"Test to get all the users","description":"","resultDate":"2023-04-17 04:03:21 PM","durationMillis":3263.5815,"passedCount":1}