{"failedCount":1,"prefixedPath":"classpath:reqResApp\/feature\/02_getUsers.feature","packageQualifiedName":"reqResApp.feature.02_getUsers","loopIndex":-1,"relativePath":"reqResApp\/feature\/02_getUsers.feature","scenarioResults":[{"sectionIndex":0,"stepResults":[{"result":{"nanos":50334300,"millis":50.3343,"status":"passed"},"step":{"background":true,"line":4,"prefix":"*","index":0,"text":"def createUser = read('classpath:reqResApp\/testData\/createUserPayload.json')"},"stepLog":"12:17:11.180 karate.env system property was: null \n"},{"result":{"nanos":3640200,"millis":3.6402,"status":"passed"},"step":{"line":8,"prefix":"Given","index":0,"text":"url 'https:\/\/reqres.in\/api\/users'"}},{"result":{"nanos":1197461600,"millis":1197.4616,"status":"passed"},"step":{"line":9,"prefix":"When","index":1,"text":"method get"},"stepLog":"12:17:11.976 request:\n1 > GET https:\/\/reqres.in\/api\/users\n1 > Host: reqres.in\n1 > Connection: Keep-Alive\n1 > User-Agent: Apache-HttpClient\/4.5.14 (Java\/20)\n1 > Accept-Encoding: gzip,deflate\n\n\n12:17:12.523 response time in milliseconds: 532\n1 < 200\n1 < Date: Mon, 17 Apr 2023 02:17:12 GMT\n1 < Content-Type: application\/json; charset=utf-8\n1 < Transfer-Encoding: chunked\n1 < Connection: keep-alive\n1 < X-Powered-By: Express\n1 < Access-Control-Allow-Origin: *\n1 < Etag: W\/\"3e4-2RLXvr5wTg9YQ6aH95CkYoFNuO8\"\n1 < Via: 1.1 vegur\n1 < Cache-Control: max-age=14400\n1 < CF-Cache-Status: HIT\n1 < Age: 4865\n1 < Report-To: {\"endpoints\":[{\"url\":\"https:\\\/\\\/a.nel.cloudflare.com\\\/report\\\/v3?s=FngTWGEpbGL%2FOW702kSK0D%2FCOKR5KSt5VGAvRQbiKIR1Wnr8jcmWVSBpDdJacueLnVJDQlw1230bZkxyoYG%2FCOwSjHxw8g0dVxPDVs6%2BDVa4RkSYi0R9OcX63w%3D%3D\"}],\"group\":\"cf-nel\",\"max_age\":604800}\n1 < NEL: {\"success_fraction\":0,\"report_to\":\"cf-nel\",\"max_age\":604800}\n1 < Vary: Accept-Encoding\n1 < Server: cloudflare\n1 < CF-RAY: 7b912b9faefb5a61-MEL\n{\"page\":1,\"per_page\":6,\"total\":12,\"total_pages\":2,\"data\":[{\"id\":1,\"email\":\"george.bluth@reqres.in\",\"first_name\":\"George\",\"last_name\":\"Bluth\",\"avatar\":\"https:\/\/reqres.in\/img\/faces\/1-image.jpg\"},{\"id\":2,\"email\":\"janet.weaver@reqres.in\",\"first_name\":\"Janet\",\"last_name\":\"Weaver\",\"avatar\":\"https:\/\/reqres.in\/img\/faces\/2-image.jpg\"},{\"id\":3,\"email\":\"emma.wong@reqres.in\",\"first_name\":\"Emma\",\"last_name\":\"Wong\",\"avatar\":\"https:\/\/reqres.in\/img\/faces\/3-image.jpg\"},{\"id\":4,\"email\":\"eve.holt@reqres.in\",\"first_name\":\"Eve\",\"last_name\":\"Holt\",\"avatar\":\"https:\/\/reqres.in\/img\/faces\/4-image.jpg\"},{\"id\":5,\"email\":\"charles.morris@reqres.in\",\"first_name\":\"Charles\",\"last_name\":\"Morris\",\"avatar\":\"https:\/\/reqres.in\/img\/faces\/5-image.jpg\"},{\"id\":6,\"email\":\"tracey.ramos@reqres.in\",\"first_name\":\"Tracey\",\"last_name\":\"Ramos\",\"avatar\":\"https:\/\/reqres.in\/img\/faces\/6-image.jpg\"}],\"support\":{\"url\":\"https:\/\/reqres.in\/#support-heading\",\"text\":\"To keep ReqRes free, contributions towards server costs are appreciated!\"}}\n\n"},{"result":{"nanos":99326800,"millis":99.3268,"status":"passed"},"step":{"line":10,"prefix":"Then","index":2,"text":"status 200"}},{"result":{"nanos":29389400,"errorMessage":"match failed: CONTAINS\n  $ | actual path does not exist (STRING:STRING)\n  '#notpresent'\n  'tracey.ramos@reqres.in'\n\nclasspath:reqResApp\/feature\/02_getUsers.feature:11","millis":29.3894,"status":"failed"},"step":{"line":11,"prefix":"*","index":3,"text":"match createUser.response contains 'tracey.ramos@reqres.in'"},"stepLog":"12:17:12.679 classpath:reqResApp\/feature\/02_getUsers.feature:11\n* match createUser.response contains 'tracey.ramos@reqres.in'\nmatch failed: CONTAINS\n  $ | actual path does not exist (STRING:STRING)\n  '#notpresent'\n  'tracey.ramos@reqres.in'\n\nclasspath:reqResApp\/feature\/02_getUsers.feature:11\n"},{"result":{"nanos":0,"millis":0.0,"status":"skipped"},"step":{"line":12,"prefix":"*","index":4,"text":"def firstIDemail = response.data[0].email"}},{"result":{"nanos":0,"millis":0.0,"status":"skipped"},"step":{"line":13,"prefix":"*","index":5,"text":"print firstIDemail"}}],"line":7,"description":"","durationMillis":1380.1523,"failed":true,"error":"match failed: CONTAINS\n  $ | actual path does not exist (STRING:STRING)\n  '#notpresent'\n  'tracey.ramos@reqres.in'\n\nclasspath:reqResApp\/feature\/02_getUsers.feature:11","tags":["justCreateUser"],"executorName":"pool-1-thread-1","name":"Get all users","startTime":1681697831096,"refId":"[1:7]","endTime":1681697832679,"exampleIndex":-1}],"callDepth":0,"name":"Test to get all the users","description":"","resultDate":"2023-04-17 12:17:12 PM","durationMillis":1380.1523,"passedCount":0}