{"failedCount":0,"prefixedPath":"classpath:reqResApp\/feature\/02_getUsers.feature","packageQualifiedName":"reqResApp.feature.02_getUsers","loopIndex":-1,"relativePath":"reqResApp\/feature\/02_getUsers.feature","scenarioResults":[{"sectionIndex":0,"stepResults":[{"result":{"nanos":2319328600,"millis":2319.3286,"status":"passed"},"step":{"background":true,"line":4,"prefix":"*","index":0,"text":"def createUser = call read('classpath:reqResApp\/feature\/01_createUser.feature')"},"callResults":[{"failedCount":0,"prefixedPath":"classpath:reqResApp\/feature\/01_createUser.feature","packageQualifiedName":"reqResApp.feature.01_createUser","loopIndex":-1,"relativePath":"reqResApp\/feature\/01_createUser.feature","scenarioResults":[{"sectionIndex":0,"stepResults":[{"result":{"nanos":1014600,"millis":1.0146,"status":"passed"},"step":{"background":true,"line":4,"prefix":"*","index":0,"text":"def baseURL = 'https:\/\/reqres.in\/api'"},"stepLog":"16:02:13.991 karate.env system property was: null \n"},{"result":{"nanos":104869800,"millis":104.8698,"status":"passed"},"step":{"background":true,"line":5,"prefix":"*","index":1,"text":"def createUserData = read('classpath:reqResApp\/testData\/createUserPayload.json')"}},{"result":{"nanos":40459400,"millis":40.4594,"status":"passed"},"step":{"line":9,"prefix":"Given","index":0,"text":"url baseURL +'\/register'"}},{"result":{"nanos":5344900,"millis":5.3449,"status":"passed"},"step":{"line":10,"prefix":"And","index":1,"text":"request createUserData.users[1]"}},{"result":{"nanos":4863700,"millis":4.8637,"status":"passed"},"step":{"line":11,"prefix":"And","index":2,"text":"header Accept = 'application\/json'"}},{"result":{"nanos":1999355200,"millis":1999.3552,"status":"passed"},"step":{"line":12,"prefix":"When","index":3,"text":"method post"},"stepLog":"16:02:14.947 request:\n1 > POST https:\/\/reqres.in\/api\/register\n1 > Accept: application\/json\n1 > Content-Type: application\/json; charset=UTF-8\n1 > Content-Length: 94\n1 > Host: reqres.in\n1 > Connection: Keep-Alive\n1 > User-Agent: Apache-HttpClient\/4.5.14 (Java\/20)\n1 > Accept-Encoding: gzip,deflate\n{\"username\":\"tracey.ramos@reqres.in\",\"email\":\"tracey.ramos@reqres.in\",\"password\":\"cityslicka\"}\n\n16:02:16.319 response time in milliseconds: 1372\n1 < 200\n1 < Date: Mon, 17 Apr 2023 06:02:16 GMT\n1 < Content-Type: application\/json; charset=utf-8\n1 < Content-Length: 36\n1 < Connection: keep-alive\n1 < X-Powered-By: Express\n1 < Access-Control-Allow-Origin: *\n1 < Etag: W\/\"24-qkmwtZYcaqJ\/9W5ty0Q1n1B5zOE\"\n1 < Via: 1.1 vegur\n1 < CF-Cache-Status: DYNAMIC\n1 < Report-To: {\"endpoints\":[{\"url\":\"https:\\\/\\\/a.nel.cloudflare.com\\\/report\\\/v3?s=AlkeR2RKWALHNszRA7DXQB0bkOu9dEaEii%2F4wCz3GO6MSZm1h6EfAQYfAWwV5SIElc%2B%2BsgKLIUC8qistkNLegcWdxd9aG4mk7C5Vr9oWA8t0uZnPxrXiXwtjFw%3D%3D\"}],\"group\":\"cf-nel\",\"max_age\":604800}\n1 < NEL: {\"success_fraction\":0,\"report_to\":\"cf-nel\",\"max_age\":604800}\n1 < Server: cloudflare\n1 < CF-RAY: 7b92754c0a0c29a4-MEL\n{\"id\":6,\"token\":\"QpwL5tke4Pnpja7X6\"}\n\n"},{"result":{"nanos":3721300,"millis":3.7213,"status":"passed"},"step":{"line":13,"prefix":"Then","index":4,"text":"status 200"}},{"result":{"nanos":103387500,"millis":103.3875,"status":"passed"},"step":{"line":14,"prefix":"*","index":5,"text":"match response.id == '#notnull'"}},{"result":{"nanos":1327300,"millis":1.3273,"status":"passed"},"step":{"line":15,"prefix":"*","index":6,"text":"match response.token == '#notnull'"}},{"result":{"nanos":1278800,"millis":1.2788,"status":"passed"},"step":{"line":16,"prefix":"*","index":7,"text":"match response == {\"id\": \"#number\", \"token\": \"#string\"}"}},{"result":{"nanos":4739600,"millis":4.7396,"status":"passed"},"step":{"line":17,"prefix":"*","index":8,"text":"def myToken = response.token"}},{"result":{"nanos":14535500,"millis":14.5355,"status":"passed"},"step":{"line":18,"prefix":"*","index":9,"text":"print 'My token is: ' + myToken"},"stepLog":"16:02:16.469 [print] My token is: QpwL5tke4Pnpja7X6 \n"}],"line":8,"description":"","durationMillis":2284.8976,"failed":false,"tags":["shakeout","regression","tokenGeneration"],"executorName":"pool-1-thread-2","name":"Create user and retrieve a dummy token","startTime":1681711334182,"refId":"[1:8]","endTime":1681711336470,"exampleIndex":-1}],"callDepth":1,"name":"Creating user","description":"","resultDate":"2023-04-17 04:02:18 PM","durationMillis":2284.8976,"passedCount":1}]},{"result":{"nanos":795400,"millis":0.7954,"status":"passed"},"step":{"line":8,"prefix":"Given","index":0,"text":"url 'https:\/\/reqres.in\/api\/users'"}},{"result":{"nanos":112516600,"millis":112.5166,"status":"passed"},"step":{"line":9,"prefix":"When","index":1,"text":"method get"},"stepLog":"16:02:16.481 request:\n1 > GET https:\/\/reqres.in\/api\/users\n1 > Host: reqres.in\n1 > Connection: Keep-Alive\n1 > User-Agent: Apache-HttpClient\/4.5.14 (Java\/20)\n1 > Accept-Encoding: gzip,deflate\n\n\n16:02:16.583 response time in milliseconds: 67\n1 < 200\n1 < Date: Mon, 17 Apr 2023 06:02:17 GMT\n1 < Content-Type: application\/json; charset=utf-8\n1 < Transfer-Encoding: chunked\n1 < Connection: keep-alive\n1 < X-Powered-By: Express\n1 < Access-Control-Allow-Origin: *\n1 < Etag: W\/\"3e4-2RLXvr5wTg9YQ6aH95CkYoFNuO8\"\n1 < Via: 1.1 vegur\n1 < Cache-Control: max-age=14400\n1 < CF-Cache-Status: HIT\n1 < Age: 3964\n1 < Report-To: {\"endpoints\":[{\"url\":\"https:\\\/\\\/a.nel.cloudflare.com\\\/report\\\/v3?s=MdgPFZVYL8%2FO0Od0BKqhkeASFdQDSL0qlGlIZA4EdbC3zjWrIkvG%2FVBwyu8Yz7KfeAgt9dHFyj0c9VpaeJL2vokBWDYMzoqYVuzV00AQemd3eH0CAsV4drBzMg%3D%3D\"}],\"group\":\"cf-nel\",\"max_age\":604800}\n1 < NEL: {\"success_fraction\":0,\"report_to\":\"cf-nel\",\"max_age\":604800}\n1 < Vary: Accept-Encoding\n1 < Server: cloudflare\n1 < CF-RAY: 7b9275513f902b2e-MEL\n{\"page\":1,\"per_page\":6,\"total\":12,\"total_pages\":2,\"data\":[{\"id\":1,\"email\":\"george.bluth@reqres.in\",\"first_name\":\"George\",\"last_name\":\"Bluth\",\"avatar\":\"https:\/\/reqres.in\/img\/faces\/1-image.jpg\"},{\"id\":2,\"email\":\"janet.weaver@reqres.in\",\"first_name\":\"Janet\",\"last_name\":\"Weaver\",\"avatar\":\"https:\/\/reqres.in\/img\/faces\/2-image.jpg\"},{\"id\":3,\"email\":\"emma.wong@reqres.in\",\"first_name\":\"Emma\",\"last_name\":\"Wong\",\"avatar\":\"https:\/\/reqres.in\/img\/faces\/3-image.jpg\"},{\"id\":4,\"email\":\"eve.holt@reqres.in\",\"first_name\":\"Eve\",\"last_name\":\"Holt\",\"avatar\":\"https:\/\/reqres.in\/img\/faces\/4-image.jpg\"},{\"id\":5,\"email\":\"charles.morris@reqres.in\",\"first_name\":\"Charles\",\"last_name\":\"Morris\",\"avatar\":\"https:\/\/reqres.in\/img\/faces\/5-image.jpg\"},{\"id\":6,\"email\":\"tracey.ramos@reqres.in\",\"first_name\":\"Tracey\",\"last_name\":\"Ramos\",\"avatar\":\"https:\/\/reqres.in\/img\/faces\/6-image.jpg\"}],\"support\":{\"url\":\"https:\/\/reqres.in\/#support-heading\",\"text\":\"To keep ReqRes free, contributions towards server costs are appreciated!\"}}\n\n"},{"result":{"nanos":25300,"millis":0.0253,"status":"passed"},"step":{"line":10,"prefix":"Then","index":2,"text":"status 200"}},{"result":{"nanos":4415700,"millis":4.4157,"status":"passed"},"step":{"line":11,"prefix":"*","index":3,"text":"print createUser.response"},"stepLog":"16:02:16.596 [print] {\n  \"id\": 6,\n  \"token\": \"QpwL5tke4Pnpja7X6\"\n}\n \n"},{"result":{"nanos":5979700,"millis":5.9797,"status":"passed"},"step":{"line":12,"prefix":"*","index":4,"text":"match response.data[5].email == 'tracey.ramos@reqres.in'"}}],"line":7,"description":"","durationMillis":2443.0613,"failed":false,"tags":["regression","justCreateUser"],"executorName":"pool-1-thread-2","name":"Get all users","startTime":1681711333776,"refId":"[1:7]","endTime":1681711336602,"exampleIndex":-1}],"callDepth":0,"name":"Test to get all the users","description":"","resultDate":"2023-04-17 04:02:18 PM","durationMillis":2443.0613,"passedCount":1}