{"failedCount":0,"prefixedPath":"classpath:reqResApp\/feature\/getUsers.feature","packageQualifiedName":"reqResApp.feature.getUsers","loopIndex":-1,"relativePath":"reqResApp\/feature\/getUsers.feature","scenarioResults":[{"sectionIndex":0,"stepResults":[{"result":{"nanos":1171100,"millis":1.1711,"status":"passed"},"step":{"line":4,"prefix":"Given","index":0,"text":"url 'https:\/\/reqres.in\/api\/users'"},"stepLog":"05:55:51.929 karate.env system property was: null \n"},{"result":{"nanos":3469578200,"millis":3469.5782,"status":"passed"},"step":{"line":5,"prefix":"When","index":1,"text":"method get"},"stepLog":"05:55:52.803 request:\n1 > GET https:\/\/reqres.in\/api\/users\n1 > Host: reqres.in\n1 > Connection: Keep-Alive\n1 > User-Agent: Apache-HttpClient\/4.5.14 (Java\/20)\n1 > Accept-Encoding: gzip,deflate\n\n\n05:55:55.588 response time in milliseconds: 2778\n1 < 200\n1 < Date: Sat, 15 Apr 2023 23:31:23 GMT\n1 < Content-Type: application\/json; charset=utf-8\n1 < Transfer-Encoding: chunked\n1 < Connection: keep-alive\n1 < X-Powered-By: Express\n1 < Access-Control-Allow-Origin: *\n1 < Etag: W\/\"3e4-2RLXvr5wTg9YQ6aH95CkYoFNuO8\"\n1 < Via: 1.1 vegur\n1 < Cache-Control: max-age=14400\n1 < CF-Cache-Status: HIT\n1 < Age: 2150\n1 < Report-To: {\"endpoints\":[{\"url\":\"https:\\\/\\\/a.nel.cloudflare.com\\\/report\\\/v3?s=livDbaYlYVmKmZJD1Ui4WTO6%2F1iFBV%2FL8%2Fxn7l4yv%2B9tNUy%2FsTPXS7I5bpPz5DpspVUyNddiz%2BDPWjnOhn7kM1nqCM8jH1b0o7LaMJ8mLT9apfj%2FJ5ZRgMGBoA%3D%3D\"}],\"group\":\"cf-nel\",\"max_age\":604800}\n1 < NEL: {\"success_fraction\":0,\"report_to\":\"cf-nel\",\"max_age\":604800}\n1 < Vary: Accept-Encoding\n1 < Server: cloudflare\n1 < CF-RAY: 7b87fb57ad732999-MEL\n{\"page\":1,\"per_page\":6,\"total\":12,\"total_pages\":2,\"data\":[{\"id\":1,\"email\":\"george.bluth@reqres.in\",\"first_name\":\"George\",\"last_name\":\"Bluth\",\"avatar\":\"https:\/\/reqres.in\/img\/faces\/1-image.jpg\"},{\"id\":2,\"email\":\"janet.weaver@reqres.in\",\"first_name\":\"Janet\",\"last_name\":\"Weaver\",\"avatar\":\"https:\/\/reqres.in\/img\/faces\/2-image.jpg\"},{\"id\":3,\"email\":\"emma.wong@reqres.in\",\"first_name\":\"Emma\",\"last_name\":\"Wong\",\"avatar\":\"https:\/\/reqres.in\/img\/faces\/3-image.jpg\"},{\"id\":4,\"email\":\"eve.holt@reqres.in\",\"first_name\":\"Eve\",\"last_name\":\"Holt\",\"avatar\":\"https:\/\/reqres.in\/img\/faces\/4-image.jpg\"},{\"id\":5,\"email\":\"charles.morris@reqres.in\",\"first_name\":\"Charles\",\"last_name\":\"Morris\",\"avatar\":\"https:\/\/reqres.in\/img\/faces\/5-image.jpg\"},{\"id\":6,\"email\":\"tracey.ramos@reqres.in\",\"first_name\":\"Tracey\",\"last_name\":\"Ramos\",\"avatar\":\"https:\/\/reqres.in\/img\/faces\/6-image.jpg\"}],\"support\":{\"url\":\"https:\/\/reqres.in\/#support-heading\",\"text\":\"To keep ReqRes free, contributions towards server costs are appreciated!\"}}\n\n"},{"result":{"nanos":33880400,"millis":33.8804,"status":"passed"},"step":{"line":6,"prefix":"Then","index":2,"text":"status 200"}}],"executorName":"pool-1-thread-3","line":3,"name":"Get all users","description":"","durationMillis":3504.6297,"startTime":1681588551671,"failed":false,"refId":"[1:3]","endTime":1681588555618,"exampleIndex":-1},{"sectionIndex":1,"stepResults":[{"result":{"nanos":1180200,"millis":1.1802,"status":"passed"},"step":{"line":9,"prefix":"Given","index":0,"text":"url 'https:\/\/reqres.in\/api\/users?page=1'"},"stepLog":"05:55:52.046 karate.env system property was: null \n"},{"result":{"nanos":3468923500,"millis":3468.9235,"status":"passed"},"step":{"line":10,"prefix":"When","index":1,"text":"method get"},"stepLog":"05:55:52.803 request:\n1 > GET https:\/\/reqres.in\/api\/users?page=1\n1 > Host: reqres.in\n1 > Connection: Keep-Alive\n1 > User-Agent: Apache-HttpClient\/4.5.14 (Java\/20)\n1 > Accept-Encoding: gzip,deflate\n\n\n05:55:55.588 response time in milliseconds: 2778\n1 < 200\n1 < Date: Sat, 15 Apr 2023 23:31:23 GMT\n1 < Content-Type: application\/json; charset=utf-8\n1 < Transfer-Encoding: chunked\n1 < Connection: keep-alive\n1 < X-Powered-By: Express\n1 < Access-Control-Allow-Origin: *\n1 < Etag: W\/\"3e4-2RLXvr5wTg9YQ6aH95CkYoFNuO8\"\n1 < Via: 1.1 vegur\n1 < Cache-Control: max-age=14400\n1 < CF-Cache-Status: HIT\n1 < Age: 309\n1 < Report-To: {\"endpoints\":[{\"url\":\"https:\\\/\\\/a.nel.cloudflare.com\\\/report\\\/v3?s=BLmswAymiQIN0%2BvEZ7hqXYMtr1unoaVLM8CRGAq7UKhiWETibTFihOISQoorv7Vo11%2BiSCx1RHmvq154e0TzfRnu92JQZH80YTvhgjylmZhQu3qouGLTQxUmwA%3D%3D\"}],\"group\":\"cf-nel\",\"max_age\":604800}\n1 < NEL: {\"success_fraction\":0,\"report_to\":\"cf-nel\",\"max_age\":604800}\n1 < Vary: Accept-Encoding\n1 < Server: cloudflare\n1 < CF-RAY: 7b87fb57ae0c29ac-MEL\n{\"page\":1,\"per_page\":6,\"total\":12,\"total_pages\":2,\"data\":[{\"id\":1,\"email\":\"george.bluth@reqres.in\",\"first_name\":\"George\",\"last_name\":\"Bluth\",\"avatar\":\"https:\/\/reqres.in\/img\/faces\/1-image.jpg\"},{\"id\":2,\"email\":\"janet.weaver@reqres.in\",\"first_name\":\"Janet\",\"last_name\":\"Weaver\",\"avatar\":\"https:\/\/reqres.in\/img\/faces\/2-image.jpg\"},{\"id\":3,\"email\":\"emma.wong@reqres.in\",\"first_name\":\"Emma\",\"last_name\":\"Wong\",\"avatar\":\"https:\/\/reqres.in\/img\/faces\/3-image.jpg\"},{\"id\":4,\"email\":\"eve.holt@reqres.in\",\"first_name\":\"Eve\",\"last_name\":\"Holt\",\"avatar\":\"https:\/\/reqres.in\/img\/faces\/4-image.jpg\"},{\"id\":5,\"email\":\"charles.morris@reqres.in\",\"first_name\":\"Charles\",\"last_name\":\"Morris\",\"avatar\":\"https:\/\/reqres.in\/img\/faces\/5-image.jpg\"},{\"id\":6,\"email\":\"tracey.ramos@reqres.in\",\"first_name\":\"Tracey\",\"last_name\":\"Ramos\",\"avatar\":\"https:\/\/reqres.in\/img\/faces\/6-image.jpg\"}],\"support\":{\"url\":\"https:\/\/reqres.in\/#support-heading\",\"text\":\"To keep ReqRes free, contributions towards server costs are appreciated!\"}}\n\n"},{"result":{"nanos":25446300,"millis":25.4463,"status":"passed"},"step":{"line":11,"prefix":"Then","index":2,"text":"status 200"}}],"executorName":"pool-1-thread-4","line":8,"name":"Get all users page 1","description":"","durationMillis":3495.55,"startTime":1681588551669,"failed":false,"refId":"[2:8]","endTime":1681588555618,"exampleIndex":-1},{"sectionIndex":2,"stepResults":[{"result":{"nanos":3024501,"millis":3.024501,"status":"passed"},"step":{"line":14,"prefix":"Given","index":0,"text":"url 'https:\/\/reqres.in\/api\/users?page=2'"},"stepLog":"05:55:52.019 karate.env system property was: null \n"},{"result":{"nanos":3465235300,"millis":3465.2353,"status":"passed"},"step":{"line":15,"prefix":"When","index":1,"text":"method get"},"stepLog":"05:55:52.803 request:\n1 > GET https:\/\/reqres.in\/api\/users?page=2\n1 > Host: reqres.in\n1 > Connection: Keep-Alive\n1 > User-Agent: Apache-HttpClient\/4.5.14 (Java\/20)\n1 > Accept-Encoding: gzip,deflate\n\n\n05:55:55.588 response time in milliseconds: 2778\n1 < 200\n1 < Date: Sat, 15 Apr 2023 23:31:23 GMT\n1 < Content-Type: application\/json; charset=utf-8\n1 < Transfer-Encoding: chunked\n1 < Connection: keep-alive\n1 < X-Powered-By: Express\n1 < Access-Control-Allow-Origin: *\n1 < Etag: W\/\"406-ut0vzoCuidvyMf8arZpMpJ6ZRDw\"\n1 < Via: 1.1 vegur\n1 < Cache-Control: max-age=14400\n1 < CF-Cache-Status: HIT\n1 < Age: 2145\n1 < Report-To: {\"endpoints\":[{\"url\":\"https:\\\/\\\/a.nel.cloudflare.com\\\/report\\\/v3?s=2pxOj1NLAYrvc%2F2QDv%2BFBlE33kYKePKW9TMLUc36svjOxpXluf2aIAtw68%2B8MxDY8a4cXgDuD8tN8R4CDnwn3q4e8%2BLiGJZYaIEbGP2xT8yb31DOQlcAZlMALA%3D%3D\"}],\"group\":\"cf-nel\",\"max_age\":604800}\n1 < NEL: {\"success_fraction\":0,\"report_to\":\"cf-nel\",\"max_age\":604800}\n1 < Vary: Accept-Encoding\n1 < Server: cloudflare\n1 < CF-RAY: 7b87fb57a9e62b2c-MEL\n{\"page\":2,\"per_page\":6,\"total\":12,\"total_pages\":2,\"data\":[{\"id\":7,\"email\":\"michael.lawson@reqres.in\",\"first_name\":\"Michael\",\"last_name\":\"Lawson\",\"avatar\":\"https:\/\/reqres.in\/img\/faces\/7-image.jpg\"},{\"id\":8,\"email\":\"lindsay.ferguson@reqres.in\",\"first_name\":\"Lindsay\",\"last_name\":\"Ferguson\",\"avatar\":\"https:\/\/reqres.in\/img\/faces\/8-image.jpg\"},{\"id\":9,\"email\":\"tobias.funke@reqres.in\",\"first_name\":\"Tobias\",\"last_name\":\"Funke\",\"avatar\":\"https:\/\/reqres.in\/img\/faces\/9-image.jpg\"},{\"id\":10,\"email\":\"byron.fields@reqres.in\",\"first_name\":\"Byron\",\"last_name\":\"Fields\",\"avatar\":\"https:\/\/reqres.in\/img\/faces\/10-image.jpg\"},{\"id\":11,\"email\":\"george.edwards@reqres.in\",\"first_name\":\"George\",\"last_name\":\"Edwards\",\"avatar\":\"https:\/\/reqres.in\/img\/faces\/11-image.jpg\"},{\"id\":12,\"email\":\"rachel.howell@reqres.in\",\"first_name\":\"Rachel\",\"last_name\":\"Howell\",\"avatar\":\"https:\/\/reqres.in\/img\/faces\/12-image.jpg\"}],\"support\":{\"url\":\"https:\/\/reqres.in\/#support-heading\",\"text\":\"To keep ReqRes free, contributions towards server costs are appreciated!\"}}\n\n"},{"result":{"nanos":62616900,"millis":62.6169,"status":"passed"},"step":{"line":16,"prefix":"Then","index":2,"text":"status 200"}}],"executorName":"pool-1-thread-5","line":13,"name":"Get all users page 2","description":"","durationMillis":3530.876701,"startTime":1681588551670,"failed":false,"refId":"[3:13]","endTime":1681588555651,"exampleIndex":-1},{"sectionIndex":3,"stepResults":[{"result":{"nanos":587599,"millis":0.587599,"status":"passed"},"step":{"line":19,"prefix":"Given","index":0,"text":"url 'https:\/\/reqres.in\/api\/users?page=3'"},"stepLog":"05:55:55.618 karate.env system property was: null \n"},{"result":{"nanos":80177200,"millis":80.1772,"status":"passed"},"step":{"line":20,"prefix":"When","index":1,"text":"method get"},"stepLog":"05:55:55.634 request:\n1 > GET https:\/\/reqres.in\/api\/users?page=3\n1 > Host: reqres.in\n1 > Connection: Keep-Alive\n1 > User-Agent: Apache-HttpClient\/4.5.14 (Java\/20)\n1 > Accept-Encoding: gzip,deflate\n\n\n05:55:55.712 response time in milliseconds: 76\n1 < 200\n1 < Date: Sat, 15 Apr 2023 23:31:23 GMT\n1 < Content-Type: application\/json; charset=utf-8\n1 < Transfer-Encoding: chunked\n1 < Connection: keep-alive\n1 < X-Powered-By: Express\n1 < Access-Control-Allow-Origin: *\n1 < Etag: W\/\"c5-hJoimgtl6KhaZadfgKS3TQ7g00U\"\n1 < Via: 1.1 vegur\n1 < Cache-Control: max-age=14400\n1 < CF-Cache-Status: HIT\n1 < Age: 308\n1 < Report-To: {\"endpoints\":[{\"url\":\"https:\\\/\\\/a.nel.cloudflare.com\\\/report\\\/v3?s=sXJLgI4MzceOs6mJ2ILinSHjg8yeLrmmr5YO0PuHwabXTTGA7HB7r%2BTp7qioKVLCchWbUZ9ksoAccJ7ucPx4p%2FXwhLYoECs1YlXuJDYHpsNOdeWY7mfnsS8VNg%3D%3D\"}],\"group\":\"cf-nel\",\"max_age\":604800}\n1 < NEL: {\"success_fraction\":0,\"report_to\":\"cf-nel\",\"max_age\":604800}\n1 < Vary: Accept-Encoding\n1 < Server: cloudflare\n1 < CF-RAY: 7b87fb587f663779-MEL\n{\"page\":3,\"per_page\":6,\"total\":12,\"total_pages\":2,\"data\":[],\"support\":{\"url\":\"https:\/\/reqres.in\/#support-heading\",\"text\":\"To keep ReqRes free, contributions towards server costs are appreciated!\"}}\n\n"},{"result":{"nanos":20100,"millis":0.0201,"status":"passed"},"step":{"line":21,"prefix":"Then","index":2,"text":"status 200"}}],"executorName":"pool-1-thread-4","line":18,"name":"Get all users page 3","description":"","durationMillis":80.784899,"startTime":1681588555618,"failed":false,"refId":"[4:18]","endTime":1681588555713,"exampleIndex":-1},{"sectionIndex":4,"stepResults":[{"result":{"nanos":886901,"millis":0.886901,"status":"passed"},"step":{"line":24,"prefix":"Given","index":0,"text":"url 'https:\/\/reqres.in\/api\/users?page=1'"},"stepLog":"05:55:55.634 karate.env system property was: null \n"},{"result":{"nanos":93567400,"millis":93.5674,"status":"passed"},"step":{"line":25,"prefix":"When","index":1,"text":"method get"},"stepLog":"05:55:55.651 request:\n1 > GET https:\/\/reqres.in\/api\/users?page=1\n1 > Host: reqres.in\n1 > Connection: Keep-Alive\n1 > User-Agent: Apache-HttpClient\/4.5.14 (Java\/20)\n1 > Accept-Encoding: gzip,deflate\n\n\n05:55:55.741 response time in milliseconds: 88\n1 < 200\n1 < Date: Sat, 15 Apr 2023 23:31:23 GMT\n1 < Content-Type: application\/json; charset=utf-8\n1 < Transfer-Encoding: chunked\n1 < Connection: keep-alive\n1 < X-Powered-By: Express\n1 < Access-Control-Allow-Origin: *\n1 < Etag: W\/\"3e4-2RLXvr5wTg9YQ6aH95CkYoFNuO8\"\n1 < Via: 1.1 vegur\n1 < Cache-Control: max-age=14400\n1 < CF-Cache-Status: HIT\n1 < Age: 309\n1 < Report-To: {\"endpoints\":[{\"url\":\"https:\\\/\\\/a.nel.cloudflare.com\\\/report\\\/v3?s=55qLA6862SHevO6J1RWvQrDUBEjbNhFvUKHmm53fr%2FKSxbkqdx8aPCXjDAMqcYUxim9z7TaECIR3SIT2WvJRYY6lk8h%2FSN2l7%2FS3RvWEmImfmNC7dqwO8RPEog%3D%3D\"}],\"group\":\"cf-nel\",\"max_age\":604800}\n1 < NEL: {\"success_fraction\":0,\"report_to\":\"cf-nel\",\"max_age\":604800}\n1 < Vary: Accept-Encoding\n1 < Server: cloudflare\n1 < CF-RAY: 7b87fb589ef229a3-MEL\n{\"page\":1,\"per_page\":6,\"total\":12,\"total_pages\":2,\"data\":[{\"id\":1,\"email\":\"george.bluth@reqres.in\",\"first_name\":\"George\",\"last_name\":\"Bluth\",\"avatar\":\"https:\/\/reqres.in\/img\/faces\/1-image.jpg\"},{\"id\":2,\"email\":\"janet.weaver@reqres.in\",\"first_name\":\"Janet\",\"last_name\":\"Weaver\",\"avatar\":\"https:\/\/reqres.in\/img\/faces\/2-image.jpg\"},{\"id\":3,\"email\":\"emma.wong@reqres.in\",\"first_name\":\"Emma\",\"last_name\":\"Wong\",\"avatar\":\"https:\/\/reqres.in\/img\/faces\/3-image.jpg\"},{\"id\":4,\"email\":\"eve.holt@reqres.in\",\"first_name\":\"Eve\",\"last_name\":\"Holt\",\"avatar\":\"https:\/\/reqres.in\/img\/faces\/4-image.jpg\"},{\"id\":5,\"email\":\"charles.morris@reqres.in\",\"first_name\":\"Charles\",\"last_name\":\"Morris\",\"avatar\":\"https:\/\/reqres.in\/img\/faces\/5-image.jpg\"},{\"id\":6,\"email\":\"tracey.ramos@reqres.in\",\"first_name\":\"Tracey\",\"last_name\":\"Ramos\",\"avatar\":\"https:\/\/reqres.in\/img\/faces\/6-image.jpg\"}],\"support\":{\"url\":\"https:\/\/reqres.in\/#support-heading\",\"text\":\"To keep ReqRes free, contributions towards server costs are appreciated!\"}}\n\n"},{"result":{"nanos":22401,"millis":0.022401,"status":"passed"},"step":{"line":26,"prefix":"Then","index":2,"text":"status 200"}},{"result":{"nanos":12152400,"millis":12.1524,"status":"passed"},"step":{"line":27,"prefix":"*","index":3,"text":"print response.page"},"stepLog":"05:55:55.755 [print] 1 \n"},{"result":{"nanos":89397800,"millis":89.3978,"status":"passed"},"step":{"line":28,"prefix":"*","index":4,"text":"match response.page == 1"}}],"line":32,"description":"","durationMillis":196.026902,"failed":false,"executorName":"pool-1-thread-3","name":"Get users using by page = 1","startTime":1681588555634,"refId":"[5.1:32]","endTime":1681588555846,"exampleData":{"pageNo":"1"},"exampleIndex":0},{"sectionIndex":4,"stepResults":[{"result":{"nanos":1088501,"millis":1.088501,"status":"passed"},"step":{"line":24,"prefix":"Given","index":0,"text":"url 'https:\/\/reqres.in\/api\/users?page=2'"},"stepLog":"05:55:55.779 karate.env system property was: null \n"},{"result":{"nanos":50587101,"millis":50.587101,"status":"passed"},"step":{"line":25,"prefix":"When","index":1,"text":"method get"},"stepLog":"05:55:55.806 request:\n1 > GET https:\/\/reqres.in\/api\/users?page=2\n1 > Host: reqres.in\n1 > Connection: Keep-Alive\n1 > User-Agent: Apache-HttpClient\/4.5.14 (Java\/20)\n1 > Accept-Encoding: gzip,deflate\n\n\n05:55:55.849 response time in milliseconds: 41\n1 < 200\n1 < Date: Sat, 15 Apr 2023 23:31:23 GMT\n1 < Content-Type: application\/json; charset=utf-8\n1 < Transfer-Encoding: chunked\n1 < Connection: keep-alive\n1 < X-Powered-By: Express\n1 < Access-Control-Allow-Origin: *\n1 < Etag: W\/\"406-ut0vzoCuidvyMf8arZpMpJ6ZRDw\"\n1 < Via: 1.1 vegur\n1 < Cache-Control: max-age=14400\n1 < CF-Cache-Status: HIT\n1 < Age: 2145\n1 < Report-To: {\"endpoints\":[{\"url\":\"https:\\\/\\\/a.nel.cloudflare.com\\\/report\\\/v3?s=2U1V%2BjCLJWk1qh8NYI0LFGYTY9NFU%2FpDfoKiVWYnQhxS2YGx9YufOE0W6McPbFQwCAF%2BGUJvokJdRwLz7%2BIpDL9g%2FLpyXBJUtM7ES7FNB3OIN7uypyp88uJecQ%3D%3D\"}],\"group\":\"cf-nel\",\"max_age\":604800}\n1 < NEL: {\"success_fraction\":0,\"report_to\":\"cf-nel\",\"max_age\":604800}\n1 < Vary: Accept-Encoding\n1 < Server: cloudflare\n1 < CF-RAY: 7b87fb5969cd29b3-MEL\n{\"page\":2,\"per_page\":6,\"total\":12,\"total_pages\":2,\"data\":[{\"id\":7,\"email\":\"michael.lawson@reqres.in\",\"first_name\":\"Michael\",\"last_name\":\"Lawson\",\"avatar\":\"https:\/\/reqres.in\/img\/faces\/7-image.jpg\"},{\"id\":8,\"email\":\"lindsay.ferguson@reqres.in\",\"first_name\":\"Lindsay\",\"last_name\":\"Ferguson\",\"avatar\":\"https:\/\/reqres.in\/img\/faces\/8-image.jpg\"},{\"id\":9,\"email\":\"tobias.funke@reqres.in\",\"first_name\":\"Tobias\",\"last_name\":\"Funke\",\"avatar\":\"https:\/\/reqres.in\/img\/faces\/9-image.jpg\"},{\"id\":10,\"email\":\"byron.fields@reqres.in\",\"first_name\":\"Byron\",\"last_name\":\"Fields\",\"avatar\":\"https:\/\/reqres.in\/img\/faces\/10-image.jpg\"},{\"id\":11,\"email\":\"george.edwards@reqres.in\",\"first_name\":\"George\",\"last_name\":\"Edwards\",\"avatar\":\"https:\/\/reqres.in\/img\/faces\/11-image.jpg\"},{\"id\":12,\"email\":\"rachel.howell@reqres.in\",\"first_name\":\"Rachel\",\"last_name\":\"Howell\",\"avatar\":\"https:\/\/reqres.in\/img\/faces\/12-image.jpg\"}],\"support\":{\"url\":\"https:\/\/reqres.in\/#support-heading\",\"text\":\"To keep ReqRes free, contributions towards server costs are appreciated!\"}}\n\n"},{"result":{"nanos":23599,"millis":0.023599,"status":"passed"},"step":{"line":26,"prefix":"Then","index":2,"text":"status 200"}},{"result":{"nanos":2892701,"millis":2.892701,"status":"passed"},"step":{"line":27,"prefix":"*","index":3,"text":"print response.page"},"stepLog":"05:55:55.854 [print] 2 \n"},{"result":{"nanos":3600500,"millis":3.6005,"status":"passed"},"step":{"line":28,"prefix":"*","index":4,"text":"match response.page == 2"}}],"line":33,"description":"","durationMillis":58.192402,"failed":false,"executorName":"pool-1-thread-5","name":"Get users using by page = 2","startTime":1681588555672,"refId":"[5.2:33]","endTime":1681588555859,"exampleData":{"pageNo":"2"},"exampleIndex":1},{"sectionIndex":4,"stepResults":[{"result":{"nanos":253300,"millis":0.2533,"status":"passed"},"step":{"line":24,"prefix":"Given","index":0,"text":"url 'https:\/\/reqres.in\/api\/users?page=3'"},"stepLog":"05:55:55.801 karate.env system property was: null \n"},{"result":{"nanos":61160200,"millis":61.1602,"status":"passed"},"step":{"line":25,"prefix":"When","index":1,"text":"method get"},"stepLog":"05:55:55.804 request:\n1 > GET https:\/\/reqres.in\/api\/users?page=3\n1 > Host: reqres.in\n1 > Connection: Keep-Alive\n1 > User-Agent: Apache-HttpClient\/4.5.14 (Java\/20)\n1 > Accept-Encoding: gzip,deflate\n\n\n05:55:55.861 response time in milliseconds: 55\n1 < 200\n1 < Date: Sat, 15 Apr 2023 23:31:23 GMT\n1 < Content-Type: application\/json; charset=utf-8\n1 < Transfer-Encoding: chunked\n1 < Connection: keep-alive\n1 < X-Powered-By: Express\n1 < Access-Control-Allow-Origin: *\n1 < Etag: W\/\"c5-hJoimgtl6KhaZadfgKS3TQ7g00U\"\n1 < Via: 1.1 vegur\n1 < Cache-Control: max-age=14400\n1 < CF-Cache-Status: HIT\n1 < Age: 308\n1 < Report-To: {\"endpoints\":[{\"url\":\"https:\\\/\\\/a.nel.cloudflare.com\\\/report\\\/v3?s=kvBdhgxArK7i1XM%2B%2BWJBiOYO1iuwmhxn5Vv4rHGvKskzr6UzP2A6OqtY9c8msWtIeA7V%2BOEMi%2F4%2FSfbJx6xiD2T15Q%2F30WFw%2BBRFRtQ5Dev5fwMjPiwelvpPFg%3D%3D\"}],\"group\":\"cf-nel\",\"max_age\":604800}\n1 < NEL: {\"success_fraction\":0,\"report_to\":\"cf-nel\",\"max_age\":604800}\n1 < Vary: Accept-Encoding\n1 < Server: cloudflare\n1 < CF-RAY: 7b87fb598f082995-MEL\n{\"page\":3,\"per_page\":6,\"total\":12,\"total_pages\":2,\"data\":[],\"support\":{\"url\":\"https:\/\/reqres.in\/#support-heading\",\"text\":\"To keep ReqRes free, contributions towards server costs are appreciated!\"}}\n\n"},{"result":{"nanos":22500,"millis":0.0225,"status":"passed"},"step":{"line":26,"prefix":"Then","index":2,"text":"status 200"}},{"result":{"nanos":2782300,"millis":2.7823,"status":"passed"},"step":{"line":27,"prefix":"*","index":3,"text":"print response.page"},"stepLog":"05:55:55.864 [print] 3 \n"},{"result":{"nanos":4584700,"millis":4.5847,"status":"passed"},"step":{"line":28,"prefix":"*","index":4,"text":"match response.page == 3"}}],"line":34,"description":"","durationMillis":68.803,"failed":false,"executorName":"pool-1-thread-4","name":"Get users using by page = 3","startTime":1681588555740,"refId":"[5.3:34]","endTime":1681588555872,"exampleData":{"pageNo":"3"},"exampleIndex":2}],"callDepth":0,"name":"Test to get all the users","description":"","resultDate":"2023-04-16 05:55:57 AM","durationMillis":10934.863604,"passedCount":7}