{"failedCount":0,"prefixedPath":"classpath:reqResApp\/feature\/getUsers.feature","packageQualifiedName":"reqResApp.feature.getUsers","loopIndex":-1,"relativePath":"reqResApp\/feature\/getUsers.feature","scenarioResults":[{"sectionIndex":0,"stepResults":[{"result":{"nanos":5384900,"millis":5.3849,"status":"passed"},"step":{"line":4,"prefix":"Given","index":0,"text":"url 'https:\/\/reqres.in\/api\/users'"},"stepLog":"05:53:28.675 karate.env system property was: null \n"},{"result":{"nanos":1439436400,"millis":1439.4364,"status":"passed"},"step":{"line":5,"prefix":"When","index":1,"text":"method get"},"stepLog":"05:53:29.588 request:\n1 > GET https:\/\/reqres.in\/api\/users\n1 > Host: reqres.in\n1 > Connection: Keep-Alive\n1 > User-Agent: Apache-HttpClient\/4.5.14 (Java\/20)\n1 > Accept-Encoding: gzip,deflate\n\n\n05:53:30.194 response time in milliseconds: 596\n1 < 200\n1 < Date: Sat, 15 Apr 2023 23:28:58 GMT\n1 < Content-Type: application\/json; charset=utf-8\n1 < Transfer-Encoding: chunked\n1 < Connection: keep-alive\n1 < X-Powered-By: Express\n1 < Access-Control-Allow-Origin: *\n1 < Etag: W\/\"3e4-2RLXvr5wTg9YQ6aH95CkYoFNuO8\"\n1 < Via: 1.1 vegur\n1 < Cache-Control: max-age=14400\n1 < CF-Cache-Status: HIT\n1 < Age: 2005\n1 < Report-To: {\"endpoints\":[{\"url\":\"https:\\\/\\\/a.nel.cloudflare.com\\\/report\\\/v3?s=hRVx4YknUNM7S2aLSLEdQzIybJBpw%2BMC%2F4wep1j0Y2ylg5hsb46BqgpKw%2Fat4XCX%2FxbtthePSCsdEtDi68JexC4rJUZoQeE9y9Ph4YXK8qSzjxlgZbUN3L2f0Q%3D%3D\"}],\"group\":\"cf-nel\",\"max_age\":604800}\n1 < NEL: {\"success_fraction\":0,\"report_to\":\"cf-nel\",\"max_age\":604800}\n1 < Vary: Accept-Encoding\n1 < Server: cloudflare\n1 < CF-RAY: 7b87f7caec9329a8-MEL\n{\"page\":1,\"per_page\":6,\"total\":12,\"total_pages\":2,\"data\":[{\"id\":1,\"email\":\"george.bluth@reqres.in\",\"first_name\":\"George\",\"last_name\":\"Bluth\",\"avatar\":\"https:\/\/reqres.in\/img\/faces\/1-image.jpg\"},{\"id\":2,\"email\":\"janet.weaver@reqres.in\",\"first_name\":\"Janet\",\"last_name\":\"Weaver\",\"avatar\":\"https:\/\/reqres.in\/img\/faces\/2-image.jpg\"},{\"id\":3,\"email\":\"emma.wong@reqres.in\",\"first_name\":\"Emma\",\"last_name\":\"Wong\",\"avatar\":\"https:\/\/reqres.in\/img\/faces\/3-image.jpg\"},{\"id\":4,\"email\":\"eve.holt@reqres.in\",\"first_name\":\"Eve\",\"last_name\":\"Holt\",\"avatar\":\"https:\/\/reqres.in\/img\/faces\/4-image.jpg\"},{\"id\":5,\"email\":\"charles.morris@reqres.in\",\"first_name\":\"Charles\",\"last_name\":\"Morris\",\"avatar\":\"https:\/\/reqres.in\/img\/faces\/5-image.jpg\"},{\"id\":6,\"email\":\"tracey.ramos@reqres.in\",\"first_name\":\"Tracey\",\"last_name\":\"Ramos\",\"avatar\":\"https:\/\/reqres.in\/img\/faces\/6-image.jpg\"}],\"support\":{\"url\":\"https:\/\/reqres.in\/#support-heading\",\"text\":\"To keep ReqRes free, contributions towards server costs are appreciated!\"}}\n\n"},{"result":{"nanos":45636000,"millis":45.636,"status":"passed"},"step":{"line":6,"prefix":"Then","index":2,"text":"status 200"}}],"executorName":"pool-1-thread-3","line":3,"name":"Get all users","description":"","durationMillis":1490.4573,"startTime":1681588408247,"failed":false,"refId":"[1:3]","endTime":1681588410248,"exampleIndex":-1},{"sectionIndex":1,"stepResults":[{"result":{"nanos":1050800,"millis":1.0508,"status":"passed"},"step":{"line":9,"prefix":"Given","index":0,"text":"url 'https:\/\/reqres.in\/api\/users?page=1'"},"stepLog":"05:53:28.626 karate.env system property was: null \n"},{"result":{"nanos":1447801100,"millis":1447.8011,"status":"passed"},"step":{"line":10,"prefix":"When","index":1,"text":"method get"},"stepLog":"05:53:29.587 request:\n1 > GET https:\/\/reqres.in\/api\/users?page=1\n1 > Host: reqres.in\n1 > Connection: Keep-Alive\n1 > User-Agent: Apache-HttpClient\/4.5.14 (Java\/20)\n1 > Accept-Encoding: gzip,deflate\n\n\n05:53:30.205 response time in milliseconds: 597\n1 < 200\n1 < Date: Sat, 15 Apr 2023 23:28:58 GMT\n1 < Content-Type: application\/json; charset=utf-8\n1 < Transfer-Encoding: chunked\n1 < Connection: keep-alive\n1 < X-Powered-By: Express\n1 < Access-Control-Allow-Origin: *\n1 < Etag: W\/\"3e4-2RLXvr5wTg9YQ6aH95CkYoFNuO8\"\n1 < Via: 1.1 vegur\n1 < Cache-Control: max-age=14400\n1 < CF-Cache-Status: HIT\n1 < Age: 164\n1 < Report-To: {\"endpoints\":[{\"url\":\"https:\\\/\\\/a.nel.cloudflare.com\\\/report\\\/v3?s=URvj2aK75FK6SgO4Hz8RWMp5mnlouuKjsZq0J436orsKSIYkBJM3mEvgclWzHQJS7o6J3aEZqfaY7w6de0kzZOFWm5bWi1PgGcFCEUBjnc7XX4MHDiP1pok8bw%3D%3D\"}],\"group\":\"cf-nel\",\"max_age\":604800}\n1 < NEL: {\"success_fraction\":0,\"report_to\":\"cf-nel\",\"max_age\":604800}\n1 < Vary: Accept-Encoding\n1 < Server: cloudflare\n1 < CF-RAY: 7b87f7cade79fea5-MEL\n{\"page\":1,\"per_page\":6,\"total\":12,\"total_pages\":2,\"data\":[{\"id\":1,\"email\":\"george.bluth@reqres.in\",\"first_name\":\"George\",\"last_name\":\"Bluth\",\"avatar\":\"https:\/\/reqres.in\/img\/faces\/1-image.jpg\"},{\"id\":2,\"email\":\"janet.weaver@reqres.in\",\"first_name\":\"Janet\",\"last_name\":\"Weaver\",\"avatar\":\"https:\/\/reqres.in\/img\/faces\/2-image.jpg\"},{\"id\":3,\"email\":\"emma.wong@reqres.in\",\"first_name\":\"Emma\",\"last_name\":\"Wong\",\"avatar\":\"https:\/\/reqres.in\/img\/faces\/3-image.jpg\"},{\"id\":4,\"email\":\"eve.holt@reqres.in\",\"first_name\":\"Eve\",\"last_name\":\"Holt\",\"avatar\":\"https:\/\/reqres.in\/img\/faces\/4-image.jpg\"},{\"id\":5,\"email\":\"charles.morris@reqres.in\",\"first_name\":\"Charles\",\"last_name\":\"Morris\",\"avatar\":\"https:\/\/reqres.in\/img\/faces\/5-image.jpg\"},{\"id\":6,\"email\":\"tracey.ramos@reqres.in\",\"first_name\":\"Tracey\",\"last_name\":\"Ramos\",\"avatar\":\"https:\/\/reqres.in\/img\/faces\/6-image.jpg\"}],\"support\":{\"url\":\"https:\/\/reqres.in\/#support-heading\",\"text\":\"To keep ReqRes free, contributions towards server costs are appreciated!\"}}\n\n"},{"result":{"nanos":20838400,"millis":20.8384,"status":"passed"},"step":{"line":11,"prefix":"Then","index":2,"text":"status 200"}}],"executorName":"pool-1-thread-4","line":8,"name":"Get all users page 1","description":"","durationMillis":1469.6903,"startTime":1681588408250,"failed":false,"refId":"[2:8]","endTime":1681588410227,"exampleIndex":-1},{"sectionIndex":2,"stepResults":[{"result":{"nanos":2345000,"millis":2.345,"status":"passed"},"step":{"line":14,"prefix":"Given","index":0,"text":"url 'https:\/\/reqres.in\/api\/users?page=2'"},"stepLog":"05:53:28.710 karate.env system property was: null \n"},{"result":{"nanos":1437987400,"millis":1437.9874,"status":"passed"},"step":{"line":15,"prefix":"When","index":1,"text":"method get"},"stepLog":"05:53:29.588 request:\n1 > GET https:\/\/reqres.in\/api\/users?page=2\n1 > Host: reqres.in\n1 > Connection: Keep-Alive\n1 > User-Agent: Apache-HttpClient\/4.5.14 (Java\/20)\n1 > Accept-Encoding: gzip,deflate\n\n\n05:53:30.192 response time in milliseconds: 596\n1 < 200\n1 < Date: Sat, 15 Apr 2023 23:28:58 GMT\n1 < Content-Type: application\/json; charset=utf-8\n1 < Transfer-Encoding: chunked\n1 < Connection: keep-alive\n1 < X-Powered-By: Express\n1 < Access-Control-Allow-Origin: *\n1 < Etag: W\/\"406-ut0vzoCuidvyMf8arZpMpJ6ZRDw\"\n1 < Via: 1.1 vegur\n1 < Cache-Control: max-age=14400\n1 < CF-Cache-Status: HIT\n1 < Age: 2000\n1 < Report-To: {\"endpoints\":[{\"url\":\"https:\\\/\\\/a.nel.cloudflare.com\\\/report\\\/v3?s=%2F6ZSPZor6QIgKPpnZVyPI%2BLn2c1hv6rPVRUxvScTmAzX8vFrR7GMnX1QG3xcrOBV6YeJhA5MLWPkm7CJioX1w3HAmg81YQhDz%2FOnTsx%2FpkHM%2FDm5YSBXAnbfuQ%3D%3D\"}],\"group\":\"cf-nel\",\"max_age\":604800}\n1 < NEL: {\"success_fraction\":0,\"report_to\":\"cf-nel\",\"max_age\":604800}\n1 < Vary: Accept-Encoding\n1 < Server: cloudflare\n1 < CF-RAY: 7b87f7cadf0ffe9d-MEL\n{\"page\":2,\"per_page\":6,\"total\":12,\"total_pages\":2,\"data\":[{\"id\":7,\"email\":\"michael.lawson@reqres.in\",\"first_name\":\"Michael\",\"last_name\":\"Lawson\",\"avatar\":\"https:\/\/reqres.in\/img\/faces\/7-image.jpg\"},{\"id\":8,\"email\":\"lindsay.ferguson@reqres.in\",\"first_name\":\"Lindsay\",\"last_name\":\"Ferguson\",\"avatar\":\"https:\/\/reqres.in\/img\/faces\/8-image.jpg\"},{\"id\":9,\"email\":\"tobias.funke@reqres.in\",\"first_name\":\"Tobias\",\"last_name\":\"Funke\",\"avatar\":\"https:\/\/reqres.in\/img\/faces\/9-image.jpg\"},{\"id\":10,\"email\":\"byron.fields@reqres.in\",\"first_name\":\"Byron\",\"last_name\":\"Fields\",\"avatar\":\"https:\/\/reqres.in\/img\/faces\/10-image.jpg\"},{\"id\":11,\"email\":\"george.edwards@reqres.in\",\"first_name\":\"George\",\"last_name\":\"Edwards\",\"avatar\":\"https:\/\/reqres.in\/img\/faces\/11-image.jpg\"},{\"id\":12,\"email\":\"rachel.howell@reqres.in\",\"first_name\":\"Rachel\",\"last_name\":\"Howell\",\"avatar\":\"https:\/\/reqres.in\/img\/faces\/12-image.jpg\"}],\"support\":{\"url\":\"https:\/\/reqres.in\/#support-heading\",\"text\":\"To keep ReqRes free, contributions towards server costs are appreciated!\"}}\n\n"},{"result":{"nanos":33254999,"millis":33.254999,"status":"passed"},"step":{"line":16,"prefix":"Then","index":2,"text":"status 200"}}],"executorName":"pool-1-thread-5","line":13,"name":"Get all users page 2","description":"","durationMillis":1473.587399,"startTime":1681588408247,"failed":false,"refId":"[3:13]","endTime":1681588410231,"exampleIndex":-1},{"sectionIndex":3,"stepResults":[{"result":{"nanos":1116399,"millis":1.116399,"status":"passed"},"step":{"line":19,"prefix":"Given","index":0,"text":"url 'https:\/\/reqres.in\/api\/users?page=3'"},"stepLog":"05:53:30.247 karate.env system property was: null \n"},{"result":{"nanos":83019699,"millis":83.019699,"status":"passed"},"step":{"line":20,"prefix":"When","index":1,"text":"method get"},"stepLog":"05:53:30.274 request:\n1 > GET https:\/\/reqres.in\/api\/users?page=3\n1 > Host: reqres.in\n1 > Connection: Keep-Alive\n1 > User-Agent: Apache-HttpClient\/4.5.14 (Java\/20)\n1 > Accept-Encoding: gzip,deflate\n\n\n05:53:30.352 response time in milliseconds: 77\n1 < 200\n1 < Date: Sat, 15 Apr 2023 23:28:58 GMT\n1 < Content-Type: application\/json; charset=utf-8\n1 < Transfer-Encoding: chunked\n1 < Connection: keep-alive\n1 < X-Powered-By: Express\n1 < Access-Control-Allow-Origin: *\n1 < Etag: W\/\"c5-hJoimgtl6KhaZadfgKS3TQ7g00U\"\n1 < Via: 1.1 vegur\n1 < Cache-Control: max-age=14400\n1 < CF-Cache-Status: HIT\n1 < Age: 163\n1 < Report-To: {\"endpoints\":[{\"url\":\"https:\\\/\\\/a.nel.cloudflare.com\\\/report\\\/v3?s=pTx1MoKV69aldpd04eus7eqSJBMllXJACxq0DzWFgJ6hugu1L4U%2F03ld6vUF92hW4NvZJU0vNHgEXqgpMeBoI95XkmsfrxBQTHikfpFc7aiYafUpqjsuO2Hhyg%3D%3D\"}],\"group\":\"cf-nel\",\"max_age\":604800}\n1 < NEL: {\"success_fraction\":0,\"report_to\":\"cf-nel\",\"max_age\":604800}\n1 < Vary: Accept-Encoding\n1 < Server: cloudflare\n1 < CF-RAY: 7b87f7cc1aff5aa4-MEL\n{\"page\":3,\"per_page\":6,\"total\":12,\"total_pages\":2,\"data\":[],\"support\":{\"url\":\"https:\/\/reqres.in\/#support-heading\",\"text\":\"To keep ReqRes free, contributions towards server costs are appreciated!\"}}\n\n"},{"result":{"nanos":24200,"millis":0.0242,"status":"passed"},"step":{"line":21,"prefix":"Then","index":2,"text":"status 200"}}],"executorName":"pool-1-thread-4","line":18,"name":"Get all users page 3","description":"","durationMillis":84.160298,"startTime":1681588410242,"failed":false,"refId":"[4:18]","endTime":1681588410354,"exampleIndex":-1},{"sectionIndex":4,"stepResults":[{"result":{"nanos":922701,"millis":0.922701,"status":"passed"},"step":{"line":24,"prefix":"Given","index":0,"text":"url 'https:\/\/reqres.in\/api\/users?page=1'"},"stepLog":"05:53:30.260 karate.env system property was: null \n"},{"result":{"nanos":158441800,"millis":158.4418,"status":"passed"},"step":{"line":25,"prefix":"When","index":1,"text":"method get"},"stepLog":"05:53:30.291 request:\n1 > GET https:\/\/reqres.in\/api\/users?page=1\n1 > Host: reqres.in\n1 > Connection: Keep-Alive\n1 > User-Agent: Apache-HttpClient\/4.5.14 (Java\/20)\n1 > Accept-Encoding: gzip,deflate\n\n\n05:53:30.434 response time in milliseconds: 141\n1 < 200\n1 < Date: Sat, 15 Apr 2023 23:28:58 GMT\n1 < Content-Type: application\/json; charset=utf-8\n1 < Transfer-Encoding: chunked\n1 < Connection: keep-alive\n1 < X-Powered-By: Express\n1 < Access-Control-Allow-Origin: *\n1 < Etag: W\/\"3e4-2RLXvr5wTg9YQ6aH95CkYoFNuO8\"\n1 < Via: 1.1 vegur\n1 < Cache-Control: max-age=14400\n1 < CF-Cache-Status: HIT\n1 < Age: 164\n1 < Report-To: {\"endpoints\":[{\"url\":\"https:\\\/\\\/a.nel.cloudflare.com\\\/report\\\/v3?s=Z9uUUB1HvMxasvg9HYc3nN8OQdzuvyaksNynCYHUOYeMbFVlNV7OXkVY9hZPL7D0Xx9JNT%2BL3O7s7OKH1ea%2FIceaqqU%2FQzlpafV3QtL4Xo5r19NwQlE3QGdlJA%3D%3D\"}],\"group\":\"cf-nel\",\"max_age\":604800}\n1 < NEL: {\"success_fraction\":0,\"report_to\":\"cf-nel\",\"max_age\":604800}\n1 < Vary: Accept-Encoding\n1 < Server: cloudflare\n1 < CF-RAY: 7b87f7cc99633778-MEL\n{\"page\":1,\"per_page\":6,\"total\":12,\"total_pages\":2,\"data\":[{\"id\":1,\"email\":\"george.bluth@reqres.in\",\"first_name\":\"George\",\"last_name\":\"Bluth\",\"avatar\":\"https:\/\/reqres.in\/img\/faces\/1-image.jpg\"},{\"id\":2,\"email\":\"janet.weaver@reqres.in\",\"first_name\":\"Janet\",\"last_name\":\"Weaver\",\"avatar\":\"https:\/\/reqres.in\/img\/faces\/2-image.jpg\"},{\"id\":3,\"email\":\"emma.wong@reqres.in\",\"first_name\":\"Emma\",\"last_name\":\"Wong\",\"avatar\":\"https:\/\/reqres.in\/img\/faces\/3-image.jpg\"},{\"id\":4,\"email\":\"eve.holt@reqres.in\",\"first_name\":\"Eve\",\"last_name\":\"Holt\",\"avatar\":\"https:\/\/reqres.in\/img\/faces\/4-image.jpg\"},{\"id\":5,\"email\":\"charles.morris@reqres.in\",\"first_name\":\"Charles\",\"last_name\":\"Morris\",\"avatar\":\"https:\/\/reqres.in\/img\/faces\/5-image.jpg\"},{\"id\":6,\"email\":\"tracey.ramos@reqres.in\",\"first_name\":\"Tracey\",\"last_name\":\"Ramos\",\"avatar\":\"https:\/\/reqres.in\/img\/faces\/6-image.jpg\"}],\"support\":{\"url\":\"https:\/\/reqres.in\/#support-heading\",\"text\":\"To keep ReqRes free, contributions towards server costs are appreciated!\"}}\n\n"},{"result":{"nanos":25001,"millis":0.025001,"status":"passed"},"step":{"line":26,"prefix":"Then","index":2,"text":"status 200"}},{"result":{"nanos":25192399,"millis":25.192399,"status":"passed"},"step":{"line":27,"prefix":"*","index":3,"text":"print response.page"},"stepLog":"05:53:30.461 [print] 1 \n"},{"result":{"nanos":57623400,"millis":57.6234,"status":"passed"},"step":{"line":28,"prefix":"*","index":4,"text":"match response.page == 1"}}],"line":32,"description":"","durationMillis":242.205301,"failed":false,"executorName":"pool-1-thread-5","name":"Get users using by page = 1","startTime":1681588410245,"refId":"[5.1:32]","endTime":1681588410521,"exampleData":{"pageNo":"1"},"exampleIndex":0},{"sectionIndex":4,"stepResults":[{"result":{"nanos":847900,"millis":0.8479,"status":"passed"},"step":{"line":24,"prefix":"Given","index":0,"text":"url 'https:\/\/reqres.in\/api\/users?page=2'"},"stepLog":"05:53:30.284 karate.env system property was: null \n"},{"result":{"nanos":183482100,"millis":183.4821,"status":"passed"},"step":{"line":25,"prefix":"When","index":1,"text":"method get"},"stepLog":"05:53:30.293 request:\n1 > GET https:\/\/reqres.in\/api\/users?page=2\n1 > Host: reqres.in\n1 > Connection: Keep-Alive\n1 > User-Agent: Apache-HttpClient\/4.5.14 (Java\/20)\n1 > Accept-Encoding: gzip,deflate\n\n\n05:53:30.473 response time in milliseconds: 179\n1 < 200\n1 < Date: Sat, 15 Apr 2023 23:28:58 GMT\n1 < Content-Type: application\/json; charset=utf-8\n1 < Transfer-Encoding: chunked\n1 < Connection: keep-alive\n1 < X-Powered-By: Express\n1 < Access-Control-Allow-Origin: *\n1 < Etag: W\/\"406-ut0vzoCuidvyMf8arZpMpJ6ZRDw\"\n1 < Via: 1.1 vegur\n1 < Cache-Control: max-age=14400\n1 < CF-Cache-Status: HIT\n1 < Age: 2000\n1 < Report-To: {\"endpoints\":[{\"url\":\"https:\\\/\\\/a.nel.cloudflare.com\\\/report\\\/v3?s=dr%2BMcCIcAuQoDRdMcKIUHd8qro5btrrDfxCTbi%2BUl2J%2BlvS1ZWt5m6n2AVrHXZoPcCwzk6WX0TVqEuC2pJOlw9a1OfeHlHxl38t37Ex6sbxiMkPg2%2BvqtzLKUA%3D%3D\"}],\"group\":\"cf-nel\",\"max_age\":604800}\n1 < NEL: {\"success_fraction\":0,\"report_to\":\"cf-nel\",\"max_age\":604800}\n1 < Vary: Accept-Encoding\n1 < Server: cloudflare\n1 < CF-RAY: 7b87f7ccdff25abc-MEL\n{\"page\":2,\"per_page\":6,\"total\":12,\"total_pages\":2,\"data\":[{\"id\":7,\"email\":\"michael.lawson@reqres.in\",\"first_name\":\"Michael\",\"last_name\":\"Lawson\",\"avatar\":\"https:\/\/reqres.in\/img\/faces\/7-image.jpg\"},{\"id\":8,\"email\":\"lindsay.ferguson@reqres.in\",\"first_name\":\"Lindsay\",\"last_name\":\"Ferguson\",\"avatar\":\"https:\/\/reqres.in\/img\/faces\/8-image.jpg\"},{\"id\":9,\"email\":\"tobias.funke@reqres.in\",\"first_name\":\"Tobias\",\"last_name\":\"Funke\",\"avatar\":\"https:\/\/reqres.in\/img\/faces\/9-image.jpg\"},{\"id\":10,\"email\":\"byron.fields@reqres.in\",\"first_name\":\"Byron\",\"last_name\":\"Fields\",\"avatar\":\"https:\/\/reqres.in\/img\/faces\/10-image.jpg\"},{\"id\":11,\"email\":\"george.edwards@reqres.in\",\"first_name\":\"George\",\"last_name\":\"Edwards\",\"avatar\":\"https:\/\/reqres.in\/img\/faces\/11-image.jpg\"},{\"id\":12,\"email\":\"rachel.howell@reqres.in\",\"first_name\":\"Rachel\",\"last_name\":\"Howell\",\"avatar\":\"https:\/\/reqres.in\/img\/faces\/12-image.jpg\"}],\"support\":{\"url\":\"https:\/\/reqres.in\/#support-heading\",\"text\":\"To keep ReqRes free, contributions towards server costs are appreciated!\"}}\n\n"},{"result":{"nanos":18999,"millis":0.018999,"status":"passed"},"step":{"line":26,"prefix":"Then","index":2,"text":"status 200"}},{"result":{"nanos":3941500,"millis":3.9415,"status":"passed"},"step":{"line":27,"prefix":"*","index":3,"text":"print response.page"},"stepLog":"05:53:30.476 [print] 2 \n"},{"result":{"nanos":41663200,"millis":41.6632,"status":"passed"},"step":{"line":28,"prefix":"*","index":4,"text":"match response.page == 2"}}],"line":33,"description":"","durationMillis":229.953699,"failed":false,"executorName":"pool-1-thread-3","name":"Get users using by page = 2","startTime":1681588410266,"refId":"[5.2:33]","endTime":1681588410521,"exampleData":{"pageNo":"2"},"exampleIndex":1},{"sectionIndex":4,"stepResults":[{"result":{"nanos":332700,"millis":0.3327,"status":"passed"},"step":{"line":24,"prefix":"Given","index":0,"text":"url 'https:\/\/reqres.in\/api\/users?page=3'"},"stepLog":"05:53:30.411 karate.env system property was: null \n"},{"result":{"nanos":70049999,"millis":70.049999,"status":"passed"},"step":{"line":25,"prefix":"When","index":1,"text":"method get"},"stepLog":"05:53:30.415 request:\n1 > GET https:\/\/reqres.in\/api\/users?page=3\n1 > Host: reqres.in\n1 > Connection: Keep-Alive\n1 > User-Agent: Apache-HttpClient\/4.5.14 (Java\/20)\n1 > Accept-Encoding: gzip,deflate\n\n\n05:53:30.479 response time in milliseconds: 63\n1 < 200\n1 < Date: Sat, 15 Apr 2023 23:28:58 GMT\n1 < Content-Type: application\/json; charset=utf-8\n1 < Transfer-Encoding: chunked\n1 < Connection: keep-alive\n1 < X-Powered-By: Express\n1 < Access-Control-Allow-Origin: *\n1 < Etag: W\/\"c5-hJoimgtl6KhaZadfgKS3TQ7g00U\"\n1 < Via: 1.1 vegur\n1 < Cache-Control: max-age=14400\n1 < CF-Cache-Status: HIT\n1 < Age: 163\n1 < Report-To: {\"endpoints\":[{\"url\":\"https:\\\/\\\/a.nel.cloudflare.com\\\/report\\\/v3?s=m6hnAinAplZGWv%2Ffs3Rx8LQvMCVWd7uflhOHePn35%2BFkcKZ%2FHHVMF%2BX0SYxhhEIemqgliyIImhpFXTa9qae2VcBBUsj8UpcS3tXFlXFBWGtqgEnQFWqc7WX3pg%3D%3D\"}],\"group\":\"cf-nel\",\"max_age\":604800}\n1 < NEL: {\"success_fraction\":0,\"report_to\":\"cf-nel\",\"max_age\":604800}\n1 < Vary: Accept-Encoding\n1 < Server: cloudflare\n1 < CF-RAY: 7b87f7ccd87129c5-MEL\n{\"page\":3,\"per_page\":6,\"total\":12,\"total_pages\":2,\"data\":[],\"support\":{\"url\":\"https:\/\/reqres.in\/#support-heading\",\"text\":\"To keep ReqRes free, contributions towards server costs are appreciated!\"}}\n\n"},{"result":{"nanos":20001,"millis":0.020001,"status":"passed"},"step":{"line":26,"prefix":"Then","index":2,"text":"status 200"}},{"result":{"nanos":2135001,"millis":2.135001,"status":"passed"},"step":{"line":27,"prefix":"*","index":3,"text":"print response.page"},"stepLog":"05:53:30.481 [print] 3 \n"},{"result":{"nanos":35031400,"millis":35.0314,"status":"passed"},"step":{"line":28,"prefix":"*","index":4,"text":"match response.page == 3"}}],"line":34,"description":"","durationMillis":107.569101,"failed":false,"executorName":"pool-1-thread-4","name":"Get users using by page = 3","startTime":1681588410409,"refId":"[5.3:34]","endTime":1681588410520,"exampleData":{"pageNo":"3"},"exampleIndex":2}],"callDepth":0,"name":"Test to get all the users","description":"","resultDate":"2023-04-16 05:53:32 AM","durationMillis":5097.623398,"passedCount":7}