{"failedCount":3,"prefixedPath":"classpath:reqResApp\/feature\/getUsers.feature","packageQualifiedName":"reqResApp.feature.getUsers","loopIndex":-1,"relativePath":"reqResApp\/feature\/getUsers.feature","scenarioResults":[{"sectionIndex":0,"stepResults":[{"result":{"nanos":1447100,"millis":1.4471,"status":"passed"},"step":{"line":4,"prefix":"Given","index":0,"text":"url 'https:\/\/reqres.in\/api\/useres'"},"stepLog":"16:26:37.965 karate.env system property was: null \n"},{"result":{"nanos":1981543300,"millis":1981.5433,"status":"passed"},"step":{"line":5,"prefix":"When","index":1,"text":"method get"},"stepLog":"16:26:38.733 request:\n1 > GET https:\/\/reqres.in\/api\/useres\n1 > Host: reqres.in\n1 > Connection: Keep-Alive\n1 > User-Agent: Apache-HttpClient\/4.5.14 (Java\/20)\n1 > Accept-Encoding: gzip,deflate\n\n\n16:26:39.998 response time in milliseconds: 1252\n1 < 200\n1 < Date: Fri, 14 Apr 2023 06:26:41 GMT\n1 < Content-Type: application\/json; charset=utf-8\n1 < Transfer-Encoding: chunked\n1 < Connection: keep-alive\n1 < X-Powered-By: Express\n1 < Access-Control-Allow-Origin: *\n1 < Etag: W\/\"2c1-N6Rqerxquq2kgQhL51EiSg4x0R8\"\n1 < Via: 1.1 vegur\n1 < Cache-Control: max-age=14400\n1 < CF-Cache-Status: HIT\n1 < Age: 2172\n1 < Report-To: {\"endpoints\":[{\"url\":\"https:\\\/\\\/a.nel.cloudflare.com\\\/report\\\/v3?s=%2FM5O3zoJdYWhyZnG5LJurosJHGRSZVpvFgDOjYDc4KHXjh%2Fno8HhcmJzVOdwydro682QocjiaVfA68hdxWpE77qoHrUKuXhWjDK0wAanhQnQyw5UbteLVZXB8A%3D%3D\"}],\"group\":\"cf-nel\",\"max_age\":604800}\n1 < NEL: {\"success_fraction\":0,\"report_to\":\"cf-nel\",\"max_age\":604800}\n1 < Vary: Accept-Encoding\n1 < Server: cloudflare\n1 < CF-RAY: 7b79e0efcb552997-MEL\n{\"page\":1,\"per_page\":6,\"total\":12,\"total_pages\":2,\"data\":[{\"id\":1,\"name\":\"cerulean\",\"year\":2000,\"color\":\"#98B2D1\",\"pantone_value\":\"15-4020\"},{\"id\":2,\"name\":\"fuchsia rose\",\"year\":2001,\"color\":\"#C74375\",\"pantone_value\":\"17-2031\"},{\"id\":3,\"name\":\"true red\",\"year\":2002,\"color\":\"#BF1932\",\"pantone_value\":\"19-1664\"},{\"id\":4,\"name\":\"aqua sky\",\"year\":2003,\"color\":\"#7BC4C4\",\"pantone_value\":\"14-4811\"},{\"id\":5,\"name\":\"tigerlily\",\"year\":2004,\"color\":\"#E2583E\",\"pantone_value\":\"17-1456\"},{\"id\":6,\"name\":\"blue turquoise\",\"year\":2005,\"color\":\"#53B0AE\",\"pantone_value\":\"15-5217\"}],\"support\":{\"url\":\"https:\/\/reqres.in\/#support-heading\",\"text\":\"To keep ReqRes free, contributions towards server costs are appreciated!\"}}\n\n"},{"result":{"nanos":4604800,"millis":4.6048,"status":"passed"},"step":{"line":6,"prefix":"Then","index":2,"text":"status 200"}}],"executorName":"pool-1-thread-1","line":3,"name":"Get all users","description":"","durationMillis":1987.5952,"startTime":1681453597684,"failed":false,"refId":"[1:3]","endTime":1681453600251,"exampleIndex":-1},{"sectionIndex":1,"stepResults":[{"result":{"nanos":39972300,"millis":39.9723,"status":"passed"},"step":{"line":9,"prefix":"Given","index":0,"text":"url 'https:\/\/reqres.in\/api\/useres?page=1'"},"stepLog":"16:26:38.102 karate.env system property was: null \n"},{"result":{"nanos":1982542900,"millis":1982.5429,"status":"passed"},"step":{"line":10,"prefix":"When","index":1,"text":"method get"},"stepLog":"16:26:38.733 request:\n1 > GET https:\/\/reqres.in\/api\/useres?page=1\n1 > Host: reqres.in\n1 > Connection: Keep-Alive\n1 > User-Agent: Apache-HttpClient\/4.5.14 (Java\/20)\n1 > Accept-Encoding: gzip,deflate\n\n\n16:26:39.998 response time in milliseconds: 1252\n1 < 200\n1 < Date: Fri, 14 Apr 2023 06:26:41 GMT\n1 < Content-Type: application\/json; charset=utf-8\n1 < Transfer-Encoding: chunked\n1 < Connection: keep-alive\n1 < X-Powered-By: Express\n1 < Access-Control-Allow-Origin: *\n1 < Etag: W\/\"2c1-N6Rqerxquq2kgQhL51EiSg4x0R8\"\n1 < Via: 1.1 vegur\n1 < Cache-Control: max-age=14400\n1 < CF-Cache-Status: HIT\n1 < Age: 1218\n1 < Report-To: {\"endpoints\":[{\"url\":\"https:\\\/\\\/a.nel.cloudflare.com\\\/report\\\/v3?s=BVL2NmU%2BVSSmGYVygPvO2gK53%2FxVbfcL6PAIb%2FY5ba3xnK5%2B1OQjafH5DkULEPHKaSnPbpQH5D6Z3b2vSJvzcyrbC50SxmfHcuPNc7OLH3AkGlgJqWavfTXLKA%3D%3D\"}],\"group\":\"cf-nel\",\"max_age\":604800}\n1 < NEL: {\"success_fraction\":0,\"report_to\":\"cf-nel\",\"max_age\":604800}\n1 < Vary: Accept-Encoding\n1 < Server: cloudflare\n1 < CF-RAY: 7b79e0efdaecfe91-MEL\n{\"page\":1,\"per_page\":6,\"total\":12,\"total_pages\":2,\"data\":[{\"id\":1,\"name\":\"cerulean\",\"year\":2000,\"color\":\"#98B2D1\",\"pantone_value\":\"15-4020\"},{\"id\":2,\"name\":\"fuchsia rose\",\"year\":2001,\"color\":\"#C74375\",\"pantone_value\":\"17-2031\"},{\"id\":3,\"name\":\"true red\",\"year\":2002,\"color\":\"#BF1932\",\"pantone_value\":\"19-1664\"},{\"id\":4,\"name\":\"aqua sky\",\"year\":2003,\"color\":\"#7BC4C4\",\"pantone_value\":\"14-4811\"},{\"id\":5,\"name\":\"tigerlily\",\"year\":2004,\"color\":\"#E2583E\",\"pantone_value\":\"17-1456\"},{\"id\":6,\"name\":\"blue turquoise\",\"year\":2005,\"color\":\"#53B0AE\",\"pantone_value\":\"15-5217\"}],\"support\":{\"url\":\"https:\/\/reqres.in\/#support-heading\",\"text\":\"To keep ReqRes free, contributions towards server costs are appreciated!\"}}\n\n"},{"result":{"nanos":3231500,"millis":3.2315,"status":"passed"},"step":{"line":11,"prefix":"Then","index":2,"text":"status 200"}},{"result":{"nanos":0,"errorMessage":"no step-definition method match found for: def response.page == 1\nclasspath:reqResApp\/feature\/getUsers.feature:12","millis":0.0,"status":"failed"},"step":{"line":12,"prefix":"*","index":3,"text":"def response.page == 1"},"stepLog":"16:26:40.269 classpath:reqResApp\/feature\/getUsers.feature:12\n* def response.page == 1\nno step-definition method match found for: def response.page == 1\nclasspath:reqResApp\/feature\/getUsers.feature:12\n"}],"line":16,"description":"","durationMillis":2025.7467,"failed":true,"error":"no step-definition method match found for: def response.page == 1\nclasspath:reqResApp\/feature\/getUsers.feature:12","executorName":"pool-1-thread-2","name":"Get users using by page = 1","startTime":1681453597677,"refId":"[2.1:16]","endTime":1681453600269,"exampleData":{"pageNo":"1"},"exampleIndex":0},{"sectionIndex":1,"stepResults":[{"result":{"nanos":39153800,"millis":39.1538,"status":"passed"},"step":{"line":9,"prefix":"Given","index":0,"text":"url 'https:\/\/reqres.in\/api\/useres?page=2'"},"stepLog":"16:26:38.124 karate.env system property was: null \n"},{"result":{"nanos":1954253300,"millis":1954.2533,"status":"passed"},"step":{"line":10,"prefix":"When","index":1,"text":"method get"},"stepLog":"16:26:38.729 request:\n1 > GET https:\/\/reqres.in\/api\/useres?page=2\n1 > Host: reqres.in\n1 > Connection: Keep-Alive\n1 > User-Agent: Apache-HttpClient\/4.5.14 (Java\/20)\n1 > Accept-Encoding: gzip,deflate\n\n\n16:26:40.003 response time in milliseconds: 1256\n1 < 200\n1 < Date: Fri, 14 Apr 2023 06:26:41 GMT\n1 < Content-Type: application\/json; charset=utf-8\n1 < Transfer-Encoding: chunked\n1 < Connection: keep-alive\n1 < X-Powered-By: Express\n1 < Access-Control-Allow-Origin: *\n1 < Etag: W\/\"2c3-xEr0SjJUDYJR0qVFNJByQ5ZcdPc\"\n1 < Via: 1.1 vegur\n1 < Cache-Control: max-age=14400\n1 < CF-Cache-Status: HIT\n1 < Age: 1218\n1 < Report-To: {\"endpoints\":[{\"url\":\"https:\\\/\\\/a.nel.cloudflare.com\\\/report\\\/v3?s=o1JJxavV9FmDNePszi%2B%2FRIf5gmcpsr3rSQP9IkD%2FoTze4ZVE8xtuJfFRUZ0Yi5VajLn5DoAdCQggtLrS0edX4bLfWBMGg%2Bhrys4YRcv%2FLsBgc3nrKmjZmCQVug%3D%3D\"}],\"group\":\"cf-nel\",\"max_age\":604800}\n1 < NEL: {\"success_fraction\":0,\"report_to\":\"cf-nel\",\"max_age\":604800}\n1 < Vary: Accept-Encoding\n1 < Server: cloudflare\n1 < CF-RAY: 7b79e0efceb829a2-MEL\n{\"page\":2,\"per_page\":6,\"total\":12,\"total_pages\":2,\"data\":[{\"id\":7,\"name\":\"sand dollar\",\"year\":2006,\"color\":\"#DECDBE\",\"pantone_value\":\"13-1106\"},{\"id\":8,\"name\":\"chili pepper\",\"year\":2007,\"color\":\"#9B1B30\",\"pantone_value\":\"19-1557\"},{\"id\":9,\"name\":\"blue iris\",\"year\":2008,\"color\":\"#5A5B9F\",\"pantone_value\":\"18-3943\"},{\"id\":10,\"name\":\"mimosa\",\"year\":2009,\"color\":\"#F0C05A\",\"pantone_value\":\"14-0848\"},{\"id\":11,\"name\":\"turquoise\",\"year\":2010,\"color\":\"#45B5AA\",\"pantone_value\":\"15-5519\"},{\"id\":12,\"name\":\"honeysuckle\",\"year\":2011,\"color\":\"#D94F70\",\"pantone_value\":\"18-2120\"}],\"support\":{\"url\":\"https:\/\/reqres.in\/#support-heading\",\"text\":\"To keep ReqRes free, contributions towards server costs are appreciated!\"}}\n\n"},{"result":{"nanos":35706800,"millis":35.7068,"status":"passed"},"step":{"line":11,"prefix":"Then","index":2,"text":"status 200"}},{"result":{"nanos":0,"errorMessage":"no step-definition method match found for: def response.page == 2\nclasspath:reqResApp\/feature\/getUsers.feature:12","millis":0.0,"status":"failed"},"step":{"line":12,"prefix":"*","index":3,"text":"def response.page == 2"},"stepLog":"16:26:40.268 classpath:reqResApp\/feature\/getUsers.feature:12\n* def response.page == 2\nno step-definition method match found for: def response.page == 2\nclasspath:reqResApp\/feature\/getUsers.feature:12\n"}],"line":17,"description":"","durationMillis":2029.1139,"failed":true,"error":"no step-definition method match found for: def response.page == 2\nclasspath:reqResApp\/feature\/getUsers.feature:12","executorName":"pool-1-thread-3","name":"Get users using by page = 2","startTime":1681453597677,"refId":"[2.2:17]","endTime":1681453600268,"exampleData":{"pageNo":"2"},"exampleIndex":1},{"sectionIndex":1,"stepResults":[{"result":{"nanos":884100,"millis":0.8841,"status":"passed"},"step":{"line":9,"prefix":"Given","index":0,"text":"url 'https:\/\/reqres.in\/api\/useres?page=3'"},"stepLog":"16:26:38.092 karate.env system property was: null \n"},{"result":{"nanos":2016410800,"millis":2016.4108,"status":"passed"},"step":{"line":10,"prefix":"When","index":1,"text":"method get"},"stepLog":"16:26:38.733 request:\n1 > GET https:\/\/reqres.in\/api\/useres?page=3\n1 > Host: reqres.in\n1 > Connection: Keep-Alive\n1 > User-Agent: Apache-HttpClient\/4.5.14 (Java\/20)\n1 > Accept-Encoding: gzip,deflate\n\n\n16:26:40.003 response time in milliseconds: 1252\n1 < 200\n1 < Date: Fri, 14 Apr 2023 06:26:41 GMT\n1 < Content-Type: application\/json; charset=utf-8\n1 < Transfer-Encoding: chunked\n1 < Connection: keep-alive\n1 < X-Powered-By: Express\n1 < Access-Control-Allow-Origin: *\n1 < Etag: W\/\"c5-hJoimgtl6KhaZadfgKS3TQ7g00U\"\n1 < Via: 1.1 vegur\n1 < Cache-Control: max-age=14400\n1 < CF-Cache-Status: HIT\n1 < Age: 1218\n1 < Report-To: {\"endpoints\":[{\"url\":\"https:\\\/\\\/a.nel.cloudflare.com\\\/report\\\/v3?s=M2SUa6KMGA8KbYLwgrGcx6bFrEsfLXxu2nfnTbGUNy%2BcEtoa4zMXh7yAssow7YIn5x1sfe5GXbOZ%2FF5lnR%2BPKsFkmGsXGaBJKTWe8yFqxtxdT3VLFJ%2FPsWeZdA%3D%3D\"}],\"group\":\"cf-nel\",\"max_age\":604800}\n1 < NEL: {\"success_fraction\":0,\"report_to\":\"cf-nel\",\"max_age\":604800}\n1 < Vary: Accept-Encoding\n1 < Server: cloudflare\n1 < CF-RAY: 7b79e0efcc5429a6-MEL\n{\"page\":3,\"per_page\":6,\"total\":12,\"total_pages\":2,\"data\":[],\"support\":{\"url\":\"https:\/\/reqres.in\/#support-heading\",\"text\":\"To keep ReqRes free, contributions towards server costs are appreciated!\"}}\n\n"},{"result":{"nanos":20100,"millis":0.0201,"status":"passed"},"step":{"line":11,"prefix":"Then","index":2,"text":"status 200"}},{"result":{"nanos":0,"errorMessage":"no step-definition method match found for: def response.page == 3\nclasspath:reqResApp\/feature\/getUsers.feature:12","millis":0.0,"status":"failed"},"step":{"line":12,"prefix":"*","index":3,"text":"def response.page == 3"},"stepLog":"16:26:40.282 classpath:reqResApp\/feature\/getUsers.feature:12\n* def response.page == 3\nno step-definition method match found for: def response.page == 3\nclasspath:reqResApp\/feature\/getUsers.feature:12\n"}],"line":18,"description":"","durationMillis":2017.315,"failed":true,"error":"no step-definition method match found for: def response.page == 3\nclasspath:reqResApp\/feature\/getUsers.feature:12","executorName":"pool-1-thread-4","name":"Get users using by page = 3","startTime":1681453597677,"refId":"[2.3:18]","endTime":1681453600283,"exampleData":{"pageNo":"3"},"exampleIndex":2}],"callDepth":0,"name":"Test to get all the users","description":"","resultDate":"2023-04-14 04:26:40 PM","durationMillis":8059.7708,"passedCount":1}