{"failedCount":0,"prefixedPath":"classpath:reqResApp\/feature\/02_getUsers.feature","packageQualifiedName":"reqResApp.feature.02_getUsers","loopIndex":-1,"relativePath":"reqResApp\/feature\/02_getUsers.feature","scenarioResults":[{"sectionIndex":0,"stepResults":[{"result":{"nanos":2271917500,"millis":2271.9175,"status":"passed"},"step":{"background":true,"line":4,"prefix":"*","index":0,"text":"def createUser = call read('classpath:reqResApp\/feature\/01_createUser.feature')"},"callResults":[{"failedCount":0,"prefixedPath":"classpath:reqResApp\/feature\/01_createUser.feature","packageQualifiedName":"reqResApp.feature.01_createUser","loopIndex":-1,"relativePath":"reqResApp\/feature\/01_createUser.feature","scenarioResults":[{"sectionIndex":0,"stepResults":[{"result":{"nanos":1217700,"millis":1.2177,"status":"passed"},"step":{"background":true,"line":4,"prefix":"*","index":0,"text":"def baseURL = 'https:\/\/reqres.in\/api'"},"stepLog":"15:37:49.163 karate.env system property was: null \n"},{"result":{"nanos":223201900,"millis":223.2019,"status":"passed"},"step":{"background":true,"line":5,"prefix":"*","index":1,"text":"def createUserData = read('classpath:reqResApp\/testData\/createUserPayload.json')"}},{"result":{"nanos":19227400,"millis":19.2274,"status":"passed"},"step":{"line":9,"prefix":"Given","index":0,"text":"url baseURL +'\/register'"}},{"result":{"nanos":5176800,"millis":5.1768,"status":"passed"},"step":{"comments":["# And request {\"username\": \"eve.holt@reqres.in\", \"email\": \"eve.holt@reqres.in\", \"password\": \"cityslicka\"}","# And request","#\"\"\"","#    {","#        \"username\": \"eve.holt@reqres.in\",","#        \"email\": \"eve.holt@reqres.in\",","#        \"password\": \"cityslicka\"","#    }","#\"\"\""],"line":19,"prefix":"And","index":1,"text":"request createUserData.users[1]"}},{"result":{"nanos":1063800,"millis":1.0638,"status":"passed"},"step":{"line":20,"prefix":"And","index":2,"text":"header Accept = 'application\/json'"}},{"result":{"nanos":1748674800,"millis":1748.6748,"status":"passed"},"step":{"line":21,"prefix":"When","index":3,"text":"method post"},"stepLog":"15:37:50.396 request:\n1 > POST https:\/\/reqres.in\/api\/register\n1 > Accept: application\/json\n1 > Content-Type: application\/json; charset=UTF-8\n1 > Content-Length: 94\n1 > Host: reqres.in\n1 > Connection: Keep-Alive\n1 > User-Agent: Apache-HttpClient\/4.5.14 (Java\/20)\n1 > Accept-Encoding: gzip,deflate\n{\"username\":\"tracey.ramos@reqres.in\",\"email\":\"tracey.ramos@reqres.in\",\"password\":\"cityslicka\"}\n\n15:37:51.512 response time in milliseconds: 1106\n1 < 200\n1 < Date: Mon, 17 Apr 2023 05:37:52 GMT\n1 < Content-Type: application\/json; charset=utf-8\n1 < Content-Length: 36\n1 < Connection: keep-alive\n1 < X-Powered-By: Express\n1 < Access-Control-Allow-Origin: *\n1 < Etag: W\/\"24-qkmwtZYcaqJ\/9W5ty0Q1n1B5zOE\"\n1 < Via: 1.1 vegur\n1 < CF-Cache-Status: DYNAMIC\n1 < Report-To: {\"endpoints\":[{\"url\":\"https:\\\/\\\/a.nel.cloudflare.com\\\/report\\\/v3?s=GKoWTIXE7ma74iVPt%2F7Axlou8VkxTVmL%2BCwMOijy7VIYWJEnICxc%2BI0y6Dl8UkA52OL0hwZBnXVM%2Bb2GBlOGwOMs0FlOslG2hlBaqLqTsZ4UixBt79Zr7XFhfA%3D%3D\"}],\"group\":\"cf-nel\",\"max_age\":604800}\n1 < NEL: {\"success_fraction\":0,\"report_to\":\"cf-nel\",\"max_age\":604800}\n1 < Server: cloudflare\n1 < CF-RAY: 7b925188cb2c17ce-MEL\n{\"id\":6,\"token\":\"QpwL5tke4Pnpja7X6\"}\n\n"},{"result":{"nanos":15783200,"millis":15.7832,"status":"passed"},"step":{"line":22,"prefix":"Then","index":4,"text":"status 200"}},{"result":{"nanos":55735000,"millis":55.735,"status":"passed"},"step":{"line":23,"prefix":"*","index":5,"text":"match response.id == '#notnull'"}},{"result":{"nanos":855900,"millis":0.8559,"status":"passed"},"step":{"line":24,"prefix":"*","index":6,"text":"match response.token == '#notnull'"}},{"result":{"nanos":581700,"millis":0.5817,"status":"passed"},"step":{"line":25,"prefix":"*","index":7,"text":"match response == {\"id\": \"#number\", \"token\": \"#string\"}"}},{"result":{"nanos":1606100,"millis":1.6061,"status":"passed"},"step":{"line":26,"prefix":"*","index":8,"text":"def myToken = response.token"}},{"result":{"nanos":4938100,"millis":4.9381,"status":"passed"},"step":{"line":27,"prefix":"*","index":9,"text":"print 'My token is: ' + myToken"},"stepLog":"15:37:51.591 [print] My token is: QpwL5tke4Pnpja7X6 \n"}],"line":8,"description":"","durationMillis":2078.0624,"failed":false,"tags":["shakeout","tokenGeneration"],"executorName":"pool-1-thread-2","name":"Token generation","startTime":1681709869506,"refId":"[1:8]","endTime":1681709871591,"exampleIndex":-1}],"callDepth":1,"name":"Creating user","description":"","resultDate":"2023-04-17 03:37:54 PM","durationMillis":2078.0624,"passedCount":1}]},{"result":{"nanos":617600,"millis":0.6176,"status":"passed"},"step":{"line":8,"prefix":"Given","index":0,"text":"url 'https:\/\/reqres.in\/api\/users'"}},{"result":{"nanos":117741600,"millis":117.7416,"status":"passed"},"step":{"line":9,"prefix":"When","index":1,"text":"method get"},"stepLog":"15:37:51.591 request:\n1 > GET https:\/\/reqres.in\/api\/users\n1 > Host: reqres.in\n1 > Connection: Keep-Alive\n1 > User-Agent: Apache-HttpClient\/4.5.14 (Java\/20)\n1 > Accept-Encoding: gzip,deflate\n\n\n15:37:51.711 response time in milliseconds: 118\n1 < 200\n1 < Date: Mon, 17 Apr 2023 05:37:52 GMT\n1 < Content-Type: application\/json; charset=utf-8\n1 < Transfer-Encoding: chunked\n1 < Connection: keep-alive\n1 < X-Powered-By: Express\n1 < Access-Control-Allow-Origin: *\n1 < Etag: W\/\"3e4-2RLXvr5wTg9YQ6aH95CkYoFNuO8\"\n1 < Via: 1.1 vegur\n1 < Cache-Control: max-age=14400\n1 < CF-Cache-Status: HIT\n1 < Age: 2499\n1 < Report-To: {\"endpoints\":[{\"url\":\"https:\\\/\\\/a.nel.cloudflare.com\\\/report\\\/v3?s=wpLAkFg0OK9pNopFs%2F%2FUPwuy4nOwF0a6RUl5DGXBBSKrWXPuYcScbKcn%2FuMDgto6KkSqklKIuvmddkpCfuGjX4KnL9A5AKLRlG1sNeraPEi91oxSFo7rhEN5kQ%3D%3D\"}],\"group\":\"cf-nel\",\"max_age\":604800}\n1 < NEL: {\"success_fraction\":0,\"report_to\":\"cf-nel\",\"max_age\":604800}\n1 < Vary: Accept-Encoding\n1 < Server: cloudflare\n1 < CF-RAY: 7b92518d9a632b36-MEL\n{\"page\":1,\"per_page\":6,\"total\":12,\"total_pages\":2,\"data\":[{\"id\":1,\"email\":\"george.bluth@reqres.in\",\"first_name\":\"George\",\"last_name\":\"Bluth\",\"avatar\":\"https:\/\/reqres.in\/img\/faces\/1-image.jpg\"},{\"id\":2,\"email\":\"janet.weaver@reqres.in\",\"first_name\":\"Janet\",\"last_name\":\"Weaver\",\"avatar\":\"https:\/\/reqres.in\/img\/faces\/2-image.jpg\"},{\"id\":3,\"email\":\"emma.wong@reqres.in\",\"first_name\":\"Emma\",\"last_name\":\"Wong\",\"avatar\":\"https:\/\/reqres.in\/img\/faces\/3-image.jpg\"},{\"id\":4,\"email\":\"eve.holt@reqres.in\",\"first_name\":\"Eve\",\"last_name\":\"Holt\",\"avatar\":\"https:\/\/reqres.in\/img\/faces\/4-image.jpg\"},{\"id\":5,\"email\":\"charles.morris@reqres.in\",\"first_name\":\"Charles\",\"last_name\":\"Morris\",\"avatar\":\"https:\/\/reqres.in\/img\/faces\/5-image.jpg\"},{\"id\":6,\"email\":\"tracey.ramos@reqres.in\",\"first_name\":\"Tracey\",\"last_name\":\"Ramos\",\"avatar\":\"https:\/\/reqres.in\/img\/faces\/6-image.jpg\"}],\"support\":{\"url\":\"https:\/\/reqres.in\/#support-heading\",\"text\":\"To keep ReqRes free, contributions towards server costs are appreciated!\"}}\n\n"},{"result":{"nanos":40500,"millis":0.0405,"status":"passed"},"step":{"line":10,"prefix":"Then","index":2,"text":"status 200"}},{"result":{"nanos":3043600,"millis":3.0436,"status":"passed"},"step":{"line":11,"prefix":"*","index":3,"text":"print createUser.response"},"stepLog":"15:37:51.716 [print] {\n  \"id\": 6,\n  \"token\": \"QpwL5tke4Pnpja7X6\"\n}\n \n"},{"result":{"nanos":20590200,"millis":20.5902,"status":"passed"},"step":{"line":12,"prefix":"*","index":4,"text":"match response.data[5].email == 'tracey.ramos@reqres.in'"}}],"line":7,"description":"","durationMillis":2413.951,"failed":false,"tags":["justCreateUser"],"executorName":"pool-1-thread-2","name":"Get all users","startTime":1681709868813,"refId":"[1:7]","endTime":1681709871736,"exampleIndex":-1}],"callDepth":0,"name":"Test to get all the users","description":"","resultDate":"2023-04-17 03:37:54 PM","durationMillis":2413.951,"passedCount":1}