{"failedCount":0,"prefixedPath":"classpath:reqResApp\/feature\/getUsers.feature","packageQualifiedName":"reqResApp.feature.getUsers","loopIndex":-1,"relativePath":"reqResApp\/feature\/getUsers.feature","scenarioResults":[{"sectionIndex":0,"stepResults":[{"result":{"nanos":52069800,"millis":52.0698,"status":"passed"},"step":{"line":4,"prefix":"Given","index":0,"text":"url 'https:\/\/reqres.in\/api\/users'"},"stepLog":"17:49:44.516 karate.env system property was: null \n"},{"result":{"nanos":1429637200,"millis":1429.6372,"status":"passed"},"step":{"line":5,"prefix":"When","index":1,"text":"method get"},"stepLog":"17:49:45.390 request:\n1 > GET https:\/\/reqres.in\/api\/users\n1 > Host: reqres.in\n1 > Connection: Keep-Alive\n1 > User-Agent: Apache-HttpClient\/4.5.14 (Java\/20)\n1 > Accept-Encoding: gzip,deflate\n\n\n17:49:46.024 response time in milliseconds: 634\n1 < 200\n1 < Date: Fri, 14 Apr 2023 07:49:47 GMT\n1 < Content-Type: application\/json; charset=utf-8\n1 < Transfer-Encoding: chunked\n1 < Connection: keep-alive\n1 < X-Powered-By: Express\n1 < Access-Control-Allow-Origin: *\n1 < Etag: W\/\"3e4-2RLXvr5wTg9YQ6aH95CkYoFNuO8\"\n1 < Via: 1.1 vegur\n1 < Cache-Control: max-age=14400\n1 < CF-Cache-Status: HIT\n1 < Age: 3309\n1 < Report-To: {\"endpoints\":[{\"url\":\"https:\\\/\\\/a.nel.cloudflare.com\\\/report\\\/v3?s=%2FJwEH%2B0EVyv%2FfUy0FiFqktkNuERkYhWjTouhLXZdt2obvGc3uDs8RsKkwCQ65abieqN5KvU5NDRSFYjlmhZop11ILL8ZJCfAcAaFF1CgoYP0TXV9IaeGpjcd5g%3D%3D\"}],\"group\":\"cf-nel\",\"max_age\":604800}\n1 < NEL: {\"success_fraction\":0,\"report_to\":\"cf-nel\",\"max_age\":604800}\n1 < Vary: Accept-Encoding\n1 < Server: cloudflare\n1 < CF-RAY: 7b7a5aaafba5dfa1-MEL\n{\"page\":1,\"per_page\":6,\"total\":12,\"total_pages\":2,\"data\":[{\"id\":1,\"email\":\"george.bluth@reqres.in\",\"first_name\":\"George\",\"last_name\":\"Bluth\",\"avatar\":\"https:\/\/reqres.in\/img\/faces\/1-image.jpg\"},{\"id\":2,\"email\":\"janet.weaver@reqres.in\",\"first_name\":\"Janet\",\"last_name\":\"Weaver\",\"avatar\":\"https:\/\/reqres.in\/img\/faces\/2-image.jpg\"},{\"id\":3,\"email\":\"emma.wong@reqres.in\",\"first_name\":\"Emma\",\"last_name\":\"Wong\",\"avatar\":\"https:\/\/reqres.in\/img\/faces\/3-image.jpg\"},{\"id\":4,\"email\":\"eve.holt@reqres.in\",\"first_name\":\"Eve\",\"last_name\":\"Holt\",\"avatar\":\"https:\/\/reqres.in\/img\/faces\/4-image.jpg\"},{\"id\":5,\"email\":\"charles.morris@reqres.in\",\"first_name\":\"Charles\",\"last_name\":\"Morris\",\"avatar\":\"https:\/\/reqres.in\/img\/faces\/5-image.jpg\"},{\"id\":6,\"email\":\"tracey.ramos@reqres.in\",\"first_name\":\"Tracey\",\"last_name\":\"Ramos\",\"avatar\":\"https:\/\/reqres.in\/img\/faces\/6-image.jpg\"}],\"support\":{\"url\":\"https:\/\/reqres.in\/#support-heading\",\"text\":\"To keep ReqRes free, contributions towards server costs are appreciated!\"}}\n\n"},{"result":{"nanos":9763900,"millis":9.7639,"status":"passed"},"step":{"line":6,"prefix":"Then","index":2,"text":"status 200"}}],"executorName":"pool-1-thread-2","line":3,"name":"Get all users","description":"","durationMillis":1491.4709,"startTime":1681458584124,"failed":false,"refId":"[1:3]","endTime":1681458586046,"exampleIndex":-1},{"sectionIndex":1,"stepResults":[{"result":{"nanos":52118100,"millis":52.1181,"status":"passed"},"step":{"line":9,"prefix":"Given","index":0,"text":"url 'https:\/\/reqres.in\/api\/users?page=1'"},"stepLog":"17:49:44.525 karate.env system property was: null \n"},{"result":{"nanos":1600741500,"millis":1600.7415,"status":"passed"},"step":{"line":10,"prefix":"When","index":1,"text":"method get"},"stepLog":"17:49:45.391 request:\n1 > GET https:\/\/reqres.in\/api\/users?page=1\n1 > Host: reqres.in\n1 > Connection: Keep-Alive\n1 > User-Agent: Apache-HttpClient\/4.5.14 (Java\/20)\n1 > Accept-Encoding: gzip,deflate\n\n\n17:49:46.208 response time in milliseconds: 815\n1 < 200\n1 < Date: Fri, 14 Apr 2023 07:49:47 GMT\n1 < Content-Type: application\/json; charset=utf-8\n1 < Transfer-Encoding: chunked\n1 < Connection: keep-alive\n1 < X-Powered-By: Express\n1 < Access-Control-Allow-Origin: *\n1 < Etag: W\/\"3e4-2RLXvr5wTg9YQ6aH95CkYoFNuO8\"\n1 < Via: 1.1 vegur\n1 < Cache-Control: max-age=14400\n1 < CF-Cache-Status: HIT\n1 < Age: 6542\n1 < Report-To: {\"endpoints\":[{\"url\":\"https:\\\/\\\/a.nel.cloudflare.com\\\/report\\\/v3?s=AKMSfEu4EQc99Dfr7pzvVpiCagap8vVQwr248udshL6%2BjqhJNA7%2FT7gzCBbFK8MMLsI9w1jZVtTsf6DOjwOJuEiBeSbjAJOYOGMG53JP5KDcZ95X9%2BYbUBJ19g%3D%3D\"}],\"group\":\"cf-nel\",\"max_age\":604800}\n1 < NEL: {\"success_fraction\":0,\"report_to\":\"cf-nel\",\"max_age\":604800}\n1 < Vary: Accept-Encoding\n1 < Server: cloudflare\n1 < CF-RAY: 7b7a5aac4fb42b32-MEL\n{\"page\":1,\"per_page\":6,\"total\":12,\"total_pages\":2,\"data\":[{\"id\":1,\"email\":\"george.bluth@reqres.in\",\"first_name\":\"George\",\"last_name\":\"Bluth\",\"avatar\":\"https:\/\/reqres.in\/img\/faces\/1-image.jpg\"},{\"id\":2,\"email\":\"janet.weaver@reqres.in\",\"first_name\":\"Janet\",\"last_name\":\"Weaver\",\"avatar\":\"https:\/\/reqres.in\/img\/faces\/2-image.jpg\"},{\"id\":3,\"email\":\"emma.wong@reqres.in\",\"first_name\":\"Emma\",\"last_name\":\"Wong\",\"avatar\":\"https:\/\/reqres.in\/img\/faces\/3-image.jpg\"},{\"id\":4,\"email\":\"eve.holt@reqres.in\",\"first_name\":\"Eve\",\"last_name\":\"Holt\",\"avatar\":\"https:\/\/reqres.in\/img\/faces\/4-image.jpg\"},{\"id\":5,\"email\":\"charles.morris@reqres.in\",\"first_name\":\"Charles\",\"last_name\":\"Morris\",\"avatar\":\"https:\/\/reqres.in\/img\/faces\/5-image.jpg\"},{\"id\":6,\"email\":\"tracey.ramos@reqres.in\",\"first_name\":\"Tracey\",\"last_name\":\"Ramos\",\"avatar\":\"https:\/\/reqres.in\/img\/faces\/6-image.jpg\"}],\"support\":{\"url\":\"https:\/\/reqres.in\/#support-heading\",\"text\":\"To keep ReqRes free, contributions towards server costs are appreciated!\"}}\n\n"},{"result":{"nanos":50000,"millis":0.05,"status":"passed"},"step":{"line":11,"prefix":"Then","index":2,"text":"status 200"}},{"result":{"nanos":2918600,"millis":2.9186,"status":"passed"},"step":{"line":12,"prefix":"*","index":3,"text":"print response.page"},"stepLog":"17:49:46.214 [print] 1 \n"},{"result":{"nanos":177297800,"millis":177.2978,"status":"passed"},"step":{"line":13,"prefix":"*","index":4,"text":"match response.page == 1"}}],"line":17,"description":"","durationMillis":1833.126,"failed":false,"executorName":"pool-1-thread-3","name":"Get users using by page = 1","startTime":1681458584124,"refId":"[2.1:17]","endTime":1681458586392,"exampleData":{"pageNo":"1"},"exampleIndex":0},{"sectionIndex":1,"stepResults":[{"result":{"nanos":52933400,"millis":52.9334,"status":"passed"},"step":{"line":9,"prefix":"Given","index":0,"text":"url 'https:\/\/reqres.in\/api\/users?page=2'"},"stepLog":"17:49:44.415 karate.env system property was: null \n"},{"result":{"nanos":1357244700,"millis":1357.2447,"status":"passed"},"step":{"line":10,"prefix":"When","index":1,"text":"method get"},"stepLog":"17:49:45.391 request:\n1 > GET https:\/\/reqres.in\/api\/users?page=2\n1 > Host: reqres.in\n1 > Connection: Keep-Alive\n1 > User-Agent: Apache-HttpClient\/4.5.14 (Java\/20)\n1 > Accept-Encoding: gzip,deflate\n\n\n17:49:46.052 response time in milliseconds: 645\n1 < 200\n1 < Date: Fri, 14 Apr 2023 07:49:47 GMT\n1 < Content-Type: application\/json; charset=utf-8\n1 < Transfer-Encoding: chunked\n1 < Connection: keep-alive\n1 < X-Powered-By: Express\n1 < Access-Control-Allow-Origin: *\n1 < Etag: W\/\"406-ut0vzoCuidvyMf8arZpMpJ6ZRDw\"\n1 < Via: 1.1 vegur\n1 < Cache-Control: max-age=14400\n1 < CF-Cache-Status: HIT\n1 < Age: 3390\n1 < Report-To: {\"endpoints\":[{\"url\":\"https:\\\/\\\/a.nel.cloudflare.com\\\/report\\\/v3?s=PF1Z4QtLY1yL%2BU9QRpkhZ2sRwZKWATeESMV5e6bPtZ9utotjCiTSoj%2FGyGwnabOPzW6bng3uRdI4EuVPZTcIACSnbdXzVmVxfVIpuRclMU9ONttLZ6P6zvGprA%3D%3D\"}],\"group\":\"cf-nel\",\"max_age\":604800}\n1 < NEL: {\"success_fraction\":0,\"report_to\":\"cf-nel\",\"max_age\":604800}\n1 < Vary: Accept-Encoding\n1 < Server: cloudflare\n1 < CF-RAY: 7b7a5aaafb453779-MEL\n{\"page\":2,\"per_page\":6,\"total\":12,\"total_pages\":2,\"data\":[{\"id\":7,\"email\":\"michael.lawson@reqres.in\",\"first_name\":\"Michael\",\"last_name\":\"Lawson\",\"avatar\":\"https:\/\/reqres.in\/img\/faces\/7-image.jpg\"},{\"id\":8,\"email\":\"lindsay.ferguson@reqres.in\",\"first_name\":\"Lindsay\",\"last_name\":\"Ferguson\",\"avatar\":\"https:\/\/reqres.in\/img\/faces\/8-image.jpg\"},{\"id\":9,\"email\":\"tobias.funke@reqres.in\",\"first_name\":\"Tobias\",\"last_name\":\"Funke\",\"avatar\":\"https:\/\/reqres.in\/img\/faces\/9-image.jpg\"},{\"id\":10,\"email\":\"byron.fields@reqres.in\",\"first_name\":\"Byron\",\"last_name\":\"Fields\",\"avatar\":\"https:\/\/reqres.in\/img\/faces\/10-image.jpg\"},{\"id\":11,\"email\":\"george.edwards@reqres.in\",\"first_name\":\"George\",\"last_name\":\"Edwards\",\"avatar\":\"https:\/\/reqres.in\/img\/faces\/11-image.jpg\"},{\"id\":12,\"email\":\"rachel.howell@reqres.in\",\"first_name\":\"Rachel\",\"last_name\":\"Howell\",\"avatar\":\"https:\/\/reqres.in\/img\/faces\/12-image.jpg\"}],\"support\":{\"url\":\"https:\/\/reqres.in\/#support-heading\",\"text\":\"To keep ReqRes free, contributions towards server costs are appreciated!\"}}\n\n"},{"result":{"nanos":87900,"millis":0.0879,"status":"passed"},"step":{"line":11,"prefix":"Then","index":2,"text":"status 200"}},{"result":{"nanos":96612200,"millis":96.6122,"status":"passed"},"step":{"line":12,"prefix":"*","index":3,"text":"print response.page"},"stepLog":"17:49:46.151 [print] 2 \n"},{"result":{"nanos":238523200,"millis":238.5232,"status":"passed"},"step":{"line":13,"prefix":"*","index":4,"text":"match response.page == 2"}}],"line":18,"description":"","durationMillis":1745.4014,"failed":false,"executorName":"pool-1-thread-4","name":"Get users using by page = 2","startTime":1681458584124,"refId":"[2.2:18]","endTime":1681458586392,"exampleData":{"pageNo":"2"},"exampleIndex":1},{"sectionIndex":1,"stepResults":[{"result":{"nanos":50696000,"millis":50.696,"status":"passed"},"step":{"line":9,"prefix":"Given","index":0,"text":"url 'https:\/\/reqres.in\/api\/users?page=3'"},"stepLog":"17:49:44.508 karate.env system property was: null \n"},{"result":{"nanos":1481539700,"millis":1481.5397,"status":"passed"},"step":{"line":10,"prefix":"When","index":1,"text":"method get"},"stepLog":"17:49:45.390 request:\n1 > GET https:\/\/reqres.in\/api\/users?page=3\n1 > Host: reqres.in\n1 > Connection: Keep-Alive\n1 > User-Agent: Apache-HttpClient\/4.5.14 (Java\/20)\n1 > Accept-Encoding: gzip,deflate\n\n\n17:49:46.068 response time in milliseconds: 673\n1 < 200\n1 < Date: Fri, 14 Apr 2023 07:49:47 GMT\n1 < Content-Type: application\/json; charset=utf-8\n1 < Transfer-Encoding: chunked\n1 < Connection: keep-alive\n1 < X-Powered-By: Express\n1 < Access-Control-Allow-Origin: *\n1 < Etag: W\/\"c5-hJoimgtl6KhaZadfgKS3TQ7g00U\"\n1 < Via: 1.1 vegur\n1 < Cache-Control: max-age=14400\n1 < CF-Cache-Status: HIT\n1 < Age: 1545\n1 < Report-To: {\"endpoints\":[{\"url\":\"https:\\\/\\\/a.nel.cloudflare.com\\\/report\\\/v3?s=FaglnSHPGYKHMZ%2FNz23RtLAAQ4f1ZfPCI4zIVBGoLoGMHBfdyC0Ws%2BsZI7RYOVmUA8pSC11aVZKfcwrSgcoZjMsfUb82jHAvNWbdMqwrBFPtuYdkgQuoCLKUbA%3D%3D\"}],\"group\":\"cf-nel\",\"max_age\":604800}\n1 < NEL: {\"success_fraction\":0,\"report_to\":\"cf-nel\",\"max_age\":604800}\n1 < Vary: Accept-Encoding\n1 < Server: cloudflare\n1 < CF-RAY: 7b7a5aaafd785a4f-MEL\n{\"page\":3,\"per_page\":6,\"total\":12,\"total_pages\":2,\"data\":[],\"support\":{\"url\":\"https:\/\/reqres.in\/#support-heading\",\"text\":\"To keep ReqRes free, contributions towards server costs are appreciated!\"}}\n\n"},{"result":{"nanos":25900,"millis":0.0259,"status":"passed"},"step":{"line":11,"prefix":"Then","index":2,"text":"status 200"}},{"result":{"nanos":63631800,"millis":63.6318,"status":"passed"},"step":{"line":12,"prefix":"*","index":3,"text":"print response.page"},"stepLog":"17:49:46.150 [print] 3 \n"},{"result":{"nanos":240837600,"millis":240.8376,"status":"passed"},"step":{"line":13,"prefix":"*","index":4,"text":"match response.page == 3"}}],"line":19,"description":"","durationMillis":1836.731,"failed":false,"executorName":"pool-1-thread-5","name":"Get users using by page = 3","startTime":1681458584124,"refId":"[2.3:19]","endTime":1681458586392,"exampleData":{"pageNo":"3"},"exampleIndex":2}],"callDepth":0,"name":"Test to get all the users","description":"","resultDate":"2023-04-14 05:49:48 PM","durationMillis":6906.7293,"passedCount":4}