{"failedCount":0,"prefixedPath":"classpath:reqResApp\/feature\/02_getUsers.feature","packageQualifiedName":"reqResApp.feature.02_getUsers","loopIndex":-1,"relativePath":"reqResApp\/feature\/02_getUsers.feature","scenarioResults":[{"sectionIndex":0,"stepResults":[{"result":{"nanos":1957641600,"millis":1957.6416,"status":"passed"},"step":{"background":true,"line":4,"prefix":"*","index":0,"text":"def createUser = call read('classpath:reqResApp\/feature\/01_createUser.feature')"},"callResults":[{"failedCount":0,"prefixedPath":"classpath:reqResApp\/feature\/01_createUser.feature","packageQualifiedName":"reqResApp.feature.01_createUser","loopIndex":-1,"relativePath":"reqResApp\/feature\/01_createUser.feature","scenarioResults":[{"sectionIndex":0,"stepResults":[{"result":{"nanos":1531100,"millis":1.5311,"status":"passed"},"step":{"background":true,"line":4,"prefix":"*","index":0,"text":"def baseURL = 'https:\/\/reqres.in\/api'"},"stepLog":"13:22:21.133 karate.env system property was: null \n"},{"result":{"nanos":59789700,"millis":59.7897,"status":"passed"},"step":{"background":true,"line":5,"prefix":"*","index":1,"text":"def createUserData = read('classpath:reqResApp\/testData\/createUserPayload.json')"}},{"result":{"nanos":11538200,"millis":11.5382,"status":"passed"},"step":{"line":9,"prefix":"Given","index":0,"text":"url baseURL +'\/register'"}},{"result":{"nanos":15117700,"millis":15.1177,"status":"passed"},"step":{"comments":["# And request {\"username\": \"eve.holt@reqres.in\", \"email\": \"eve.holt@reqres.in\", \"password\": \"cityslicka\"}","# And request","#\"\"\"","#    {","#        \"username\": \"eve.holt@reqres.in\",","#        \"email\": \"eve.holt@reqres.in\",","#        \"password\": \"cityslicka\"","#    }","#\"\"\""],"line":19,"prefix":"And","index":1,"text":"request createUserData.users[1]"}},{"result":{"nanos":1274000,"millis":1.274,"status":"passed"},"step":{"line":20,"prefix":"And","index":2,"text":"header Accept = 'application\/json'"}},{"result":{"nanos":1689321800,"millis":1689.3218,"status":"passed"},"step":{"line":21,"prefix":"When","index":3,"text":"method post"},"stepLog":"13:22:21.868 request:\n1 > POST https:\/\/reqres.in\/api\/register\n1 > Accept: application\/json\n1 > Content-Type: application\/json; charset=UTF-8\n1 > Content-Length: 94\n1 > Host: reqres.in\n1 > Connection: Keep-Alive\n1 > User-Agent: Apache-HttpClient\/4.5.14 (Java\/20)\n1 > Accept-Encoding: gzip,deflate\n{\"username\":\"tracey.ramos@reqres.in\",\"email\":\"tracey.ramos@reqres.in\",\"password\":\"cityslicka\"}\n\n13:22:23.063 response time in milliseconds: 1189\n1 < 200\n1 < Date: Mon, 17 Apr 2023 03:22:23 GMT\n1 < Content-Type: application\/json; charset=utf-8\n1 < Content-Length: 36\n1 < Connection: keep-alive\n1 < X-Powered-By: Express\n1 < Access-Control-Allow-Origin: *\n1 < Etag: W\/\"24-qkmwtZYcaqJ\/9W5ty0Q1n1B5zOE\"\n1 < Via: 1.1 vegur\n1 < CF-Cache-Status: DYNAMIC\n1 < Report-To: {\"endpoints\":[{\"url\":\"https:\\\/\\\/a.nel.cloudflare.com\\\/report\\\/v3?s=CQ9eVzhaZEdp99GxsJ05uXU5uHLf0bXn2FDIcvljI8sC4K8CaSvM6OlyUDI7jeLzJWKNV5D%2FRPCe3z1WHdyEXgwgzp6JMFDg3YU22d7NLA0SPgV8ORLYSGfX2Q%3D%3D\"}],\"group\":\"cf-nel\",\"max_age\":604800}\n1 < NEL: {\"success_fraction\":0,\"report_to\":\"cf-nel\",\"max_age\":604800}\n1 < Server: cloudflare\n1 < CF-RAY: 7b918b151db32b3a-MEL\n{\"id\":6,\"token\":\"QpwL5tke4Pnpja7X6\"}\n\n"},{"result":{"nanos":5406900,"millis":5.4069,"status":"passed"},"step":{"line":22,"prefix":"Then","index":4,"text":"status 200"}},{"result":{"nanos":85839600,"millis":85.8396,"status":"passed"},"step":{"line":23,"prefix":"*","index":5,"text":"match response.id == '#notnull'"}},{"result":{"nanos":1473000,"millis":1.473,"status":"passed"},"step":{"line":24,"prefix":"*","index":6,"text":"match response.token == '#notnull'"}},{"result":{"nanos":1124600,"millis":1.1246,"status":"passed"},"step":{"line":25,"prefix":"*","index":7,"text":"match response == {\"id\": \"#number\", \"token\": \"#string\"}"}},{"result":{"nanos":30237700,"millis":30.2377,"status":"passed"},"step":{"line":26,"prefix":"*","index":8,"text":"def myToken = response.token"}},{"result":{"nanos":9566300,"millis":9.5663,"status":"passed"},"step":{"line":27,"prefix":"*","index":9,"text":"print 'My token is: ' + myToken"},"stepLog":"13:22:23.204 [print] My token is: QpwL5tke4Pnpja7X6 \n"}],"line":8,"description":"","durationMillis":1912.2206,"failed":false,"tags":["shakeout","tokenGeneration"],"executorName":"pool-1-thread-1","name":"Token generation","startTime":1681701741273,"refId":"[1:8]","endTime":1681701743204,"exampleIndex":-1}],"callDepth":1,"name":"Creating user","description":"","resultDate":"2023-04-17 01:22:23 PM","durationMillis":1912.2206,"passedCount":1}]},{"result":{"nanos":985500,"millis":0.9855,"status":"passed"},"step":{"line":8,"prefix":"Given","index":0,"text":"url 'https:\/\/reqres.in\/api\/users'"}},{"result":{"nanos":92971900,"millis":92.9719,"status":"passed"},"step":{"line":9,"prefix":"When","index":1,"text":"method get"},"stepLog":"13:22:23.211 request:\n1 > GET https:\/\/reqres.in\/api\/users\n1 > Host: reqres.in\n1 > Connection: Keep-Alive\n1 > User-Agent: Apache-HttpClient\/4.5.14 (Java\/20)\n1 > Accept-Encoding: gzip,deflate\n\n\n13:22:23.298 response time in milliseconds: 85\n1 < 200\n1 < Date: Mon, 17 Apr 2023 03:22:23 GMT\n1 < Content-Type: application\/json; charset=utf-8\n1 < Transfer-Encoding: chunked\n1 < Connection: keep-alive\n1 < X-Powered-By: Express\n1 < Access-Control-Allow-Origin: *\n1 < Etag: W\/\"3e4-2RLXvr5wTg9YQ6aH95CkYoFNuO8\"\n1 < Via: 1.1 vegur\n1 < Cache-Control: max-age=14400\n1 < CF-Cache-Status: HIT\n1 < Age: 1572\n1 < Report-To: {\"endpoints\":[{\"url\":\"https:\\\/\\\/a.nel.cloudflare.com\\\/report\\\/v3?s=uD0K4YSSQSfBE6Eo5v2XsK3hUUXjKrUa56sgF3z3%2FvBWpJZGN51QTqYeZtGVb7bpBly74hD5Lp8TZ2%2FGj%2BGS%2ByfOjMHYmcW9Qoafjp1ii%2BNmiy7ONbHGwP8KrA%3D%3D\"}],\"group\":\"cf-nel\",\"max_age\":604800}\n1 < NEL: {\"success_fraction\":0,\"report_to\":\"cf-nel\",\"max_age\":604800}\n1 < Vary: Accept-Encoding\n1 < Server: cloudflare\n1 < CF-RAY: 7b918b1a8b0e5ac0-MEL\n{\"page\":1,\"per_page\":6,\"total\":12,\"total_pages\":2,\"data\":[{\"id\":1,\"email\":\"george.bluth@reqres.in\",\"first_name\":\"George\",\"last_name\":\"Bluth\",\"avatar\":\"https:\/\/reqres.in\/img\/faces\/1-image.jpg\"},{\"id\":2,\"email\":\"janet.weaver@reqres.in\",\"first_name\":\"Janet\",\"last_name\":\"Weaver\",\"avatar\":\"https:\/\/reqres.in\/img\/faces\/2-image.jpg\"},{\"id\":3,\"email\":\"emma.wong@reqres.in\",\"first_name\":\"Emma\",\"last_name\":\"Wong\",\"avatar\":\"https:\/\/reqres.in\/img\/faces\/3-image.jpg\"},{\"id\":4,\"email\":\"eve.holt@reqres.in\",\"first_name\":\"Eve\",\"last_name\":\"Holt\",\"avatar\":\"https:\/\/reqres.in\/img\/faces\/4-image.jpg\"},{\"id\":5,\"email\":\"charles.morris@reqres.in\",\"first_name\":\"Charles\",\"last_name\":\"Morris\",\"avatar\":\"https:\/\/reqres.in\/img\/faces\/5-image.jpg\"},{\"id\":6,\"email\":\"tracey.ramos@reqres.in\",\"first_name\":\"Tracey\",\"last_name\":\"Ramos\",\"avatar\":\"https:\/\/reqres.in\/img\/faces\/6-image.jpg\"}],\"support\":{\"url\":\"https:\/\/reqres.in\/#support-heading\",\"text\":\"To keep ReqRes free, contributions towards server costs are appreciated!\"}}\n\n"},{"result":{"nanos":27800,"millis":0.0278,"status":"passed"},"step":{"line":10,"prefix":"Then","index":2,"text":"status 200"}},{"result":{"nanos":3979600,"millis":3.9796,"status":"passed"},"step":{"line":11,"prefix":"*","index":3,"text":"print createUser.response"},"stepLog":"13:22:23.305 [print] {\n  \"id\": 6,\n  \"token\": \"QpwL5tke4Pnpja7X6\"\n}\n \n"},{"result":{"nanos":3100800,"millis":3.1008,"status":"passed"},"step":{"line":12,"prefix":"*","index":4,"text":"match response.data[5].email == 'tracey.ramos@reqres.in'"}}],"line":7,"description":"","durationMillis":2058.7072,"failed":false,"tags":["justCreateUser"],"executorName":"pool-1-thread-1","name":"Get all users","startTime":1681701740922,"refId":"[1:7]","endTime":1681701743308,"exampleIndex":-1}],"callDepth":0,"name":"Test to get all the users","description":"","resultDate":"2023-04-17 01:22:23 PM","durationMillis":2058.7072,"passedCount":1}