{"failedCount":0,"prefixedPath":"classpath:reqResApp\/feature\/02_getUsers.feature","packageQualifiedName":"reqResApp.feature.02_getUsers","loopIndex":-1,"relativePath":"reqResApp\/feature\/02_getUsers.feature","scenarioResults":[{"sectionIndex":0,"stepResults":[{"result":{"nanos":2000905800,"millis":2000.9058,"status":"passed"},"step":{"background":true,"line":4,"prefix":"*","index":0,"text":"def createUser = call read('classpath:reqResApp\/feature\/01_createUser.feature')"},"callResults":[{"failedCount":0,"prefixedPath":"classpath:reqResApp\/feature\/01_createUser.feature","packageQualifiedName":"reqResApp.feature.01_createUser","loopIndex":-1,"relativePath":"reqResApp\/feature\/01_createUser.feature","scenarioResults":[{"sectionIndex":0,"stepResults":[{"result":{"nanos":3149100,"millis":3.1491,"status":"passed"},"step":{"background":true,"line":4,"prefix":"*","index":0,"text":"def baseURL = 'https:\/\/reqres.in\/api'"},"stepLog":"12:29:09.757 karate.env system property was: null \n"},{"result":{"nanos":53259800,"millis":53.2598,"status":"passed"},"step":{"background":true,"line":5,"prefix":"*","index":1,"text":"def createUser = read('classpath:reqResApp\/testData\/createUserPayload.json')"}},{"result":{"nanos":12083200,"millis":12.0832,"status":"passed"},"step":{"line":8,"prefix":"Given","index":0,"text":"url baseURL +'\/register'"}},{"result":{"nanos":5860200,"millis":5.8602,"status":"passed"},"step":{"comments":["#And request {\"username\": \"eve.holt@reqres.in\", \"email\": \"eve.holt@reqres.in\", \"password\": \"cityslicka\"}","#And request","#\"\"\"","#    {","#        \"username\": \"eve.holt@reqres.in\",","#        \"email\": \"eve.holt@reqres.in\",","#        \"password\": \"cityslicka\"","#    }","#\"\"\""],"line":18,"prefix":"And","index":1,"text":"request createUser.users[1]"}},{"result":{"nanos":1826300,"millis":1.8263,"status":"passed"},"step":{"line":19,"prefix":"And","index":2,"text":"header Accept = 'application\/json'"}},{"result":{"nanos":1786831100,"millis":1786.8311,"status":"passed"},"step":{"line":20,"prefix":"When","index":3,"text":"method post"},"stepLog":"12:29:10.788 request:\n1 > POST https:\/\/reqres.in\/api\/register\n1 > Accept: application\/json\n1 > Content-Type: application\/json; charset=UTF-8\n1 > Content-Length: 94\n1 > Host: reqres.in\n1 > Connection: Keep-Alive\n1 > User-Agent: Apache-HttpClient\/4.5.14 (Java\/20)\n1 > Accept-Encoding: gzip,deflate\n{\"username\":\"tracey.ramos@reqres.in\",\"email\":\"tracey.ramos@reqres.in\",\"password\":\"cityslicka\"}\n\n12:29:11.790 response time in milliseconds: 1002\n1 < 200\n1 < Date: Mon, 17 Apr 2023 02:29:12 GMT\n1 < Content-Type: application\/json; charset=utf-8\n1 < Content-Length: 36\n1 < Connection: keep-alive\n1 < X-Powered-By: Express\n1 < Access-Control-Allow-Origin: *\n1 < Etag: W\/\"24-qkmwtZYcaqJ\/9W5ty0Q1n1B5zOE\"\n1 < Via: 1.1 vegur\n1 < CF-Cache-Status: DYNAMIC\n1 < Report-To: {\"endpoints\":[{\"url\":\"https:\\\/\\\/a.nel.cloudflare.com\\\/report\\\/v3?s=fB8EjeDnGlw%2F1F6U5TbjCviH%2B0yj7408YdCLa%2BWhoTrFyB1rEwhOVYfXYQZcPiBCjmDpXTMqjUGU%2Fr0f%2F%2BtycEyPyePqKe%2ByHeUBgL1CR8%2Bl6YpmFjGikQkHAw%3D%3D\"}],\"group\":\"cf-nel\",\"max_age\":604800}\n1 < NEL: {\"success_fraction\":0,\"report_to\":\"cf-nel\",\"max_age\":604800}\n1 < Server: cloudflare\n1 < CF-RAY: 7b913d2b6e542b31-MEL\n{\"id\":6,\"token\":\"QpwL5tke4Pnpja7X6\"}\n\n"},{"result":{"nanos":4871100,"millis":4.8711,"status":"passed"},"step":{"line":21,"prefix":"Then","index":4,"text":"status 200"}},{"result":{"nanos":73887200,"millis":73.8872,"status":"passed"},"step":{"line":22,"prefix":"*","index":5,"text":"match response.id == '#notnull'"}},{"result":{"nanos":1624800,"millis":1.6248,"status":"passed"},"step":{"line":23,"prefix":"*","index":6,"text":"match response.token == '#notnull'"}},{"result":{"nanos":1159900,"millis":1.1599,"status":"passed"},"step":{"line":24,"prefix":"*","index":7,"text":"match response == {\"id\": \"#number\", \"token\": \"#string\"}"}},{"result":{"nanos":1486500,"millis":1.4865,"status":"passed"},"step":{"line":25,"prefix":"*","index":8,"text":"def myToken = response.token"}},{"result":{"nanos":5334600,"millis":5.3346,"status":"passed"},"step":{"line":26,"prefix":"*","index":9,"text":"print 'My token is: ' + myToken"},"stepLog":"12:29:11.887 [print] My token is: QpwL5tke4Pnpja7X6 \n"}],"executorName":"pool-1-thread-1","line":7,"name":"Token generation","description":"","durationMillis":1951.3738,"startTime":1681698549913,"failed":false,"refId":"[1:7]","endTime":1681698551888,"exampleIndex":-1}],"callDepth":1,"name":"Creating user","description":"","resultDate":"2023-04-17 12:29:12 PM","durationMillis":1951.3738,"passedCount":1}]},{"result":{"nanos":22555400,"millis":22.5554,"status":"passed"},"step":{"line":8,"prefix":"Given","index":0,"text":"url 'https:\/\/reqres.in\/api\/users'"}},{"result":{"nanos":92696400,"millis":92.6964,"status":"passed"},"step":{"line":9,"prefix":"When","index":1,"text":"method get"},"stepLog":"12:29:11.926 request:\n1 > GET https:\/\/reqres.in\/api\/users\n1 > Host: reqres.in\n1 > Connection: Keep-Alive\n1 > User-Agent: Apache-HttpClient\/4.5.14 (Java\/20)\n1 > Accept-Encoding: gzip,deflate\n\n\n12:29:11.996 response time in milliseconds: 66\n1 < 200\n1 < Date: Mon, 17 Apr 2023 02:29:12 GMT\n1 < Content-Type: application\/json; charset=utf-8\n1 < Transfer-Encoding: chunked\n1 < Connection: keep-alive\n1 < X-Powered-By: Express\n1 < Access-Control-Allow-Origin: *\n1 < Etag: W\/\"3e4-2RLXvr5wTg9YQ6aH95CkYoFNuO8\"\n1 < Via: 1.1 vegur\n1 < Cache-Control: max-age=14400\n1 < CF-Cache-Status: HIT\n1 < Age: 5585\n1 < Report-To: {\"endpoints\":[{\"url\":\"https:\\\/\\\/a.nel.cloudflare.com\\\/report\\\/v3?s=QasVdZB1oxKzIBOG5uhBQVqtzjMInpPjwC139Rodd7fgLGRsOYmvWZl6ehqnsJiq5dwT%2BWspRKi6T1JMYeRPRZ9G6GHTVIhHxF2ei%2FBlQndqAVIVxeBYvF7Z5A%3D%3D\"}],\"group\":\"cf-nel\",\"max_age\":604800}\n1 < NEL: {\"success_fraction\":0,\"report_to\":\"cf-nel\",\"max_age\":604800}\n1 < Vary: Accept-Encoding\n1 < Server: cloudflare\n1 < CF-RAY: 7b913d308c68fe99-MEL\n{\"page\":1,\"per_page\":6,\"total\":12,\"total_pages\":2,\"data\":[{\"id\":1,\"email\":\"george.bluth@reqres.in\",\"first_name\":\"George\",\"last_name\":\"Bluth\",\"avatar\":\"https:\/\/reqres.in\/img\/faces\/1-image.jpg\"},{\"id\":2,\"email\":\"janet.weaver@reqres.in\",\"first_name\":\"Janet\",\"last_name\":\"Weaver\",\"avatar\":\"https:\/\/reqres.in\/img\/faces\/2-image.jpg\"},{\"id\":3,\"email\":\"emma.wong@reqres.in\",\"first_name\":\"Emma\",\"last_name\":\"Wong\",\"avatar\":\"https:\/\/reqres.in\/img\/faces\/3-image.jpg\"},{\"id\":4,\"email\":\"eve.holt@reqres.in\",\"first_name\":\"Eve\",\"last_name\":\"Holt\",\"avatar\":\"https:\/\/reqres.in\/img\/faces\/4-image.jpg\"},{\"id\":5,\"email\":\"charles.morris@reqres.in\",\"first_name\":\"Charles\",\"last_name\":\"Morris\",\"avatar\":\"https:\/\/reqres.in\/img\/faces\/5-image.jpg\"},{\"id\":6,\"email\":\"tracey.ramos@reqres.in\",\"first_name\":\"Tracey\",\"last_name\":\"Ramos\",\"avatar\":\"https:\/\/reqres.in\/img\/faces\/6-image.jpg\"}],\"support\":{\"url\":\"https:\/\/reqres.in\/#support-heading\",\"text\":\"To keep ReqRes free, contributions towards server costs are appreciated!\"}}\n\n"},{"result":{"nanos":24800,"millis":0.0248,"status":"passed"},"step":{"line":10,"prefix":"Then","index":2,"text":"status 200"}},{"result":{"nanos":3591300,"millis":3.5913,"status":"passed"},"step":{"line":11,"prefix":"*","index":3,"text":"match response.data[5].email == 'tracey.ramos@reqres.in'"}}],"line":7,"description":"","durationMillis":2119.7737,"failed":false,"tags":["justCreateUser"],"executorName":"pool-1-thread-1","name":"Get all users","startTime":1681698549664,"refId":"[1:7]","endTime":1681698552017,"exampleIndex":-1}],"callDepth":0,"name":"Test to get all the users","description":"","resultDate":"2023-04-17 12:29:12 PM","durationMillis":2119.7737,"passedCount":1}