{"failedCount":1,"prefixedPath":"classpath:reqResApp\/feature\/02_getUsers.feature","packageQualifiedName":"reqResApp.feature.02_getUsers","loopIndex":-1,"relativePath":"reqResApp\/feature\/02_getUsers.feature","scenarioResults":[{"sectionIndex":0,"stepResults":[{"result":{"nanos":1768492300,"millis":1768.4923,"status":"passed"},"step":{"background":true,"line":4,"prefix":"*","index":0,"text":"def createUser = call read('classpath:reqResApp\/feature\/01_createUser.feature')"},"callResults":[{"failedCount":0,"prefixedPath":"classpath:reqResApp\/feature\/01_createUser.feature","packageQualifiedName":"reqResApp.feature.01_createUser","loopIndex":-1,"relativePath":"reqResApp\/feature\/01_createUser.feature","scenarioResults":[{"sectionIndex":0,"stepResults":[{"result":{"nanos":1719500,"millis":1.7195,"status":"passed"},"step":{"background":true,"line":4,"prefix":"*","index":0,"text":"def baseURL = 'https:\/\/reqres.in\/api'"},"stepLog":"12:26:14.720 karate.env system property was: null \n"},{"result":{"nanos":46836400,"millis":46.8364,"status":"passed"},"step":{"background":true,"line":5,"prefix":"*","index":1,"text":"def createUser = read('classpath:reqResApp\/testData\/createUserPayload.json')"}},{"result":{"nanos":12436200,"millis":12.4362,"status":"passed"},"step":{"line":8,"prefix":"Given","index":0,"text":"url baseURL +'\/register'"}},{"result":{"nanos":4701200,"millis":4.7012,"status":"passed"},"step":{"comments":["#And request {\"username\": \"eve.holt@reqres.in\", \"email\": \"eve.holt@reqres.in\", \"password\": \"cityslicka\"}","#And request","#\"\"\"","#    {","#        \"username\": \"eve.holt@reqres.in\",","#        \"email\": \"eve.holt@reqres.in\",","#        \"password\": \"cityslicka\"","#    }","#\"\"\""],"line":18,"prefix":"And","index":1,"text":"request createUser.users[1]"}},{"result":{"nanos":1011100,"millis":1.0111,"status":"passed"},"step":{"line":19,"prefix":"And","index":2,"text":"header Accept = 'application\/json'"}},{"result":{"nanos":1534357000,"millis":1534.357,"status":"passed"},"step":{"line":20,"prefix":"When","index":3,"text":"method post"},"stepLog":"12:26:15.425 request:\n1 > POST https:\/\/reqres.in\/api\/register\n1 > Accept: application\/json\n1 > Content-Type: application\/json; charset=UTF-8\n1 > Content-Length: 94\n1 > Host: reqres.in\n1 > Connection: Keep-Alive\n1 > User-Agent: Apache-HttpClient\/4.5.14 (Java\/20)\n1 > Accept-Encoding: gzip,deflate\n{\"username\":\"tracey.ramos@reqres.in\",\"email\":\"tracey.ramos@reqres.in\",\"password\":\"cityslicka\"}\n\n12:26:16.477 response time in milliseconds: 1037\n1 < 200\n1 < Date: Mon, 17 Apr 2023 02:26:16 GMT\n1 < Content-Type: application\/json; charset=utf-8\n1 < Content-Length: 36\n1 < Connection: keep-alive\n1 < X-Powered-By: Express\n1 < Access-Control-Allow-Origin: *\n1 < Etag: W\/\"24-qkmwtZYcaqJ\/9W5ty0Q1n1B5zOE\"\n1 < Via: 1.1 vegur\n1 < CF-Cache-Status: DYNAMIC\n1 < Report-To: {\"endpoints\":[{\"url\":\"https:\\\/\\\/a.nel.cloudflare.com\\\/report\\\/v3?s=8Hywh8fZeuVBhnpAF2t%2B2oaV%2FQr5BOAQgo1Gzou%2BAvWtMBmI3cLeFbQV6R%2F8YTEIguo7ZT0akjOVZdtJ%2F0fegaR8zc29I%2BQThpjS4UKPMzTryI1A1bx7rd9rFQ%3D%3D\"}],\"group\":\"cf-nel\",\"max_age\":604800}\n1 < NEL: {\"success_fraction\":0,\"report_to\":\"cf-nel\",\"max_age\":604800}\n1 < Server: cloudflare\n1 < CF-RAY: 7b9138e38b445a4f-MEL\n{\"id\":6,\"token\":\"QpwL5tke4Pnpja7X6\"}\n\n"},{"result":{"nanos":4943700,"millis":4.9437,"status":"passed"},"step":{"line":21,"prefix":"Then","index":4,"text":"status 200"}},{"result":{"nanos":52849200,"millis":52.8492,"status":"passed"},"step":{"line":22,"prefix":"*","index":5,"text":"match response.id == '#notnull'"}},{"result":{"nanos":22268900,"millis":22.2689,"status":"passed"},"step":{"line":23,"prefix":"*","index":6,"text":"match response.token == '#notnull'"}},{"result":{"nanos":25417900,"millis":25.4179,"status":"passed"},"step":{"line":24,"prefix":"*","index":7,"text":"match response == {\"id\": \"#number\", \"token\": \"#string\"}"}},{"result":{"nanos":5327700,"millis":5.3277,"status":"passed"},"step":{"line":25,"prefix":"*","index":8,"text":"def myToken = response.token"}},{"result":{"nanos":4568000,"millis":4.568,"status":"passed"},"step":{"line":26,"prefix":"*","index":9,"text":"print 'My token is: ' + myToken"},"stepLog":"12:26:16.597 [print] My token is: QpwL5tke4Pnpja7X6 \n"}],"executorName":"pool-1-thread-1","line":7,"name":"Token generation","description":"","durationMillis":1716.4368,"startTime":1681698374875,"failed":false,"refId":"[1:7]","endTime":1681698376598,"exampleIndex":-1}],"callDepth":1,"name":"Creating user","description":"","resultDate":"2023-04-17 12:26:16 PM","durationMillis":1716.4368,"passedCount":1}]},{"result":{"nanos":919000,"millis":0.919,"status":"passed"},"step":{"line":8,"prefix":"Given","index":0,"text":"url 'https:\/\/reqres.in\/api\/users'"}},{"result":{"nanos":296398200,"millis":296.3982,"status":"passed"},"step":{"line":9,"prefix":"When","index":1,"text":"method get"},"stepLog":"12:26:16.607 request:\n1 > GET https:\/\/reqres.in\/api\/users\n1 > Host: reqres.in\n1 > Connection: Keep-Alive\n1 > User-Agent: Apache-HttpClient\/4.5.14 (Java\/20)\n1 > Accept-Encoding: gzip,deflate\n\n\n12:26:16.898 response time in milliseconds: 63\n1 < 200\n1 < Date: Mon, 17 Apr 2023 02:26:17 GMT\n1 < Content-Type: application\/json; charset=utf-8\n1 < Transfer-Encoding: chunked\n1 < Connection: keep-alive\n1 < X-Powered-By: Express\n1 < Access-Control-Allow-Origin: *\n1 < Etag: W\/\"3e4-2RLXvr5wTg9YQ6aH95CkYoFNuO8\"\n1 < Via: 1.1 vegur\n1 < Cache-Control: max-age=14400\n1 < CF-Cache-Status: HIT\n1 < Age: 5410\n1 < Report-To: {\"endpoints\":[{\"url\":\"https:\\\/\\\/a.nel.cloudflare.com\\\/report\\\/v3?s=boF1StwCtL39jvjoDTMWI32EQn34m8t%2BDCda8LcJgJy%2BqH49UYlotguR3t42K%2BNX4Ph7ISkT4bMmd9ZUItFzdsGEyCd4ZxuQdTamux5I13o2CqoqG3VfaH1tiw%3D%3D\"}],\"group\":\"cf-nel\",\"max_age\":604800}\n1 < NEL: {\"success_fraction\":0,\"report_to\":\"cf-nel\",\"max_age\":604800}\n1 < Vary: Accept-Encoding\n1 < Server: cloudflare\n1 < CF-RAY: 7b9138e8bfd2fe89-MEL\n{\"page\":1,\"per_page\":6,\"total\":12,\"total_pages\":2,\"data\":[{\"id\":1,\"email\":\"george.bluth@reqres.in\",\"first_name\":\"George\",\"last_name\":\"Bluth\",\"avatar\":\"https:\/\/reqres.in\/img\/faces\/1-image.jpg\"},{\"id\":2,\"email\":\"janet.weaver@reqres.in\",\"first_name\":\"Janet\",\"last_name\":\"Weaver\",\"avatar\":\"https:\/\/reqres.in\/img\/faces\/2-image.jpg\"},{\"id\":3,\"email\":\"emma.wong@reqres.in\",\"first_name\":\"Emma\",\"last_name\":\"Wong\",\"avatar\":\"https:\/\/reqres.in\/img\/faces\/3-image.jpg\"},{\"id\":4,\"email\":\"eve.holt@reqres.in\",\"first_name\":\"Eve\",\"last_name\":\"Holt\",\"avatar\":\"https:\/\/reqres.in\/img\/faces\/4-image.jpg\"},{\"id\":5,\"email\":\"charles.morris@reqres.in\",\"first_name\":\"Charles\",\"last_name\":\"Morris\",\"avatar\":\"https:\/\/reqres.in\/img\/faces\/5-image.jpg\"},{\"id\":6,\"email\":\"tracey.ramos@reqres.in\",\"first_name\":\"Tracey\",\"last_name\":\"Ramos\",\"avatar\":\"https:\/\/reqres.in\/img\/faces\/6-image.jpg\"}],\"support\":{\"url\":\"https:\/\/reqres.in\/#support-heading\",\"text\":\"To keep ReqRes free, contributions towards server costs are appreciated!\"}}\n\n"},{"result":{"nanos":21600,"millis":0.0216,"status":"passed"},"step":{"line":10,"prefix":"Then","index":2,"text":"status 200"}},{"result":{"nanos":2973700,"millis":2.9737,"status":"passed"},"step":{"line":11,"prefix":"*","index":3,"text":"print createUser.response"},"stepLog":"12:26:16.905 [print] {\n  \"id\": 6,\n  \"token\": \"QpwL5tke4Pnpja7X6\"\n}\n \n"},{"result":{"nanos":3115300,"errorMessage":"match failed: CONTAINS\n  $ | data types don't match (MAP:STRING)\n  {\"id\":6,\"token\":\"QpwL5tke4Pnpja7X6\"}\n  'tracey.ramos@reqres.in'\n\n\nclasspath:reqResApp\/feature\/02_getUsers.feature:12","millis":3.1153,"status":"failed"},"step":{"line":12,"prefix":"*","index":4,"text":"match createUser.response contains 'tracey.ramos@reqres.in'"},"stepLog":"12:26:16.914 classpath:reqResApp\/feature\/02_getUsers.feature:12\n* match createUser.response contains 'tracey.ramos@reqres.in'\nmatch failed: CONTAINS\n  $ | data types don't match (MAP:STRING)\n  {\"id\":6,\"token\":\"QpwL5tke4Pnpja7X6\"}\n  'tracey.ramos@reqres.in'\n\n\nclasspath:reqResApp\/feature\/02_getUsers.feature:12\n"},{"result":{"nanos":0,"millis":0.0,"status":"skipped"},"step":{"line":13,"prefix":"*","index":5,"text":"def firstIDemail = response.data[0].email"}},{"result":{"nanos":0,"millis":0.0,"status":"skipped"},"step":{"line":14,"prefix":"*","index":6,"text":"print firstIDemail"}}],"line":7,"description":"","durationMillis":2071.9201,"failed":true,"error":"match failed: CONTAINS\n  $ | data types don't match (MAP:STRING)\n  {\"id\":6,\"token\":\"QpwL5tke4Pnpja7X6\"}\n  'tracey.ramos@reqres.in'\n\n\nclasspath:reqResApp\/feature\/02_getUsers.feature:12","tags":["justCreateUser"],"executorName":"pool-1-thread-1","name":"Get all users","startTime":1681698374642,"refId":"[1:7]","endTime":1681698376914,"exampleIndex":-1}],"callDepth":0,"name":"Test to get all the users","description":"","resultDate":"2023-04-17 12:26:16 PM","durationMillis":2071.9201,"passedCount":0}