{"failedCount":0,"prefixedPath":"classpath:reqResApp\/feature\/02_getUsers.feature","packageQualifiedName":"reqResApp.feature.02_getUsers","loopIndex":-1,"relativePath":"reqResApp\/feature\/02_getUsers.feature","scenarioResults":[{"sectionIndex":0,"stepResults":[{"result":{"nanos":2952906100,"millis":2952.9061,"status":"passed"},"step":{"background":true,"line":4,"prefix":"*","index":0,"text":"def createUser = call read('classpath:reqResApp\/feature\/01_createUser.feature')"},"callResults":[{"failedCount":0,"prefixedPath":"classpath:reqResApp\/feature\/01_createUser.feature","packageQualifiedName":"reqResApp.feature.01_createUser","loopIndex":-1,"relativePath":"reqResApp\/feature\/01_createUser.feature","scenarioResults":[{"sectionIndex":0,"stepResults":[{"result":{"nanos":1127800,"millis":1.1278,"status":"passed"},"step":{"background":true,"line":4,"prefix":"*","index":0,"text":"def baseURL = 'https:\/\/reqres.in\/api'"},"stepLog":"16:17:07.595 karate.env system property was: null \n"},{"result":{"nanos":81864300,"millis":81.8643,"status":"passed"},"step":{"background":true,"line":5,"prefix":"*","index":1,"text":"def createUserData = read('classpath:reqResApp\/testData\/createUserPayload.json')"}},{"result":{"nanos":10706500,"millis":10.7065,"status":"passed"},"step":{"line":9,"prefix":"Given","index":0,"text":"url baseURL +'\/register'"}},{"result":{"nanos":8064300,"millis":8.0643,"status":"passed"},"step":{"line":10,"prefix":"And","index":1,"text":"request createUserData.users[1]"}},{"result":{"nanos":684100,"millis":0.6841,"status":"passed"},"step":{"line":11,"prefix":"And","index":2,"text":"header Accept = 'application\/json'"}},{"result":{"nanos":2661361100,"millis":2661.3611,"status":"passed"},"step":{"line":12,"prefix":"When","index":3,"text":"method post"},"stepLog":"16:17:09.067 request:\n1 > POST https:\/\/reqres.in\/api\/register\n1 > Accept: application\/json\n1 > Content-Type: application\/json; charset=UTF-8\n1 > Content-Length: 94\n1 > Host: reqres.in\n1 > Connection: Keep-Alive\n1 > User-Agent: Apache-HttpClient\/4.5.14 (Java\/20)\n1 > Accept-Encoding: gzip,deflate\n{\"username\":\"tracey.ramos@reqres.in\",\"email\":\"tracey.ramos@reqres.in\",\"password\":\"cityslicka\"}\n\n16:17:10.728 response time in milliseconds: 1659\n1 < 200\n1 < Date: Mon, 17 Apr 2023 06:17:11 GMT\n1 < Content-Type: application\/json; charset=utf-8\n1 < Content-Length: 36\n1 < Connection: keep-alive\n1 < X-Powered-By: Express\n1 < Access-Control-Allow-Origin: *\n1 < Etag: W\/\"24-qkmwtZYcaqJ\/9W5ty0Q1n1B5zOE\"\n1 < Via: 1.1 vegur\n1 < CF-Cache-Status: DYNAMIC\n1 < Report-To: {\"endpoints\":[{\"url\":\"https:\\\/\\\/a.nel.cloudflare.com\\\/report\\\/v3?s=yoeza5syX0T8EqD0%2F1cA1xBsm9UkvyIU9b9WyI9hpOHkAnP%2Bz6Xuyx0PwFO6%2Fz9Eexl2kppVcpUhQWcT7hlC%2FtfFh6rzjEooJG3Z%2B0GbkgRB%2Bx4H2xBs5WdgjQ%3D%3D\"}],\"group\":\"cf-nel\",\"max_age\":604800}\n1 < NEL: {\"success_fraction\":0,\"report_to\":\"cf-nel\",\"max_age\":604800}\n1 < Server: cloudflare\n1 < CF-RAY: 7b928b20edab29ba-MEL\n{\"id\":6,\"token\":\"QpwL5tke4Pnpja7X6\"}\n\n"},{"result":{"nanos":22000,"millis":0.022,"status":"passed"},"step":{"line":13,"prefix":"Then","index":4,"text":"status 200"}},{"result":{"nanos":1397300,"millis":1.3973,"status":"passed"},"step":{"line":14,"prefix":"*","index":5,"text":"match response.id == '#notnull'"}},{"result":{"nanos":1003400,"millis":1.0034,"status":"passed"},"step":{"line":15,"prefix":"*","index":6,"text":"match response.token == '#notnull'"}},{"result":{"nanos":994600,"millis":0.9946,"status":"passed"},"step":{"line":16,"prefix":"*","index":7,"text":"match response == {\"id\": \"#number\", \"token\": \"#string\"}"}},{"result":{"nanos":1114100,"millis":1.1141,"status":"passed"},"step":{"line":17,"prefix":"*","index":8,"text":"def myToken = response.token"}},{"result":{"nanos":1713800,"millis":1.7138,"status":"passed"},"step":{"line":18,"prefix":"*","index":9,"text":"print 'My token is: ' + myToken"},"stepLog":"16:17:10.736 [print] My token is: QpwL5tke4Pnpja7X6 \n"}],"line":8,"description":"","durationMillis":2770.0533,"failed":false,"tags":["Regression","Shakeout","tokenGeneration"],"executorName":"pool-1-thread-2","name":"Create user and retrieve a dummy token","startTime":1681712227965,"refId":"[1:8]","endTime":1681712230736,"exampleIndex":-1}],"callDepth":1,"name":"Creating user","description":"","resultDate":"2023-04-17 04:17:13 PM","durationMillis":2770.0533,"passedCount":1}]},{"result":{"nanos":1496600,"millis":1.4966,"status":"passed"},"step":{"line":8,"prefix":"Given","index":0,"text":"url 'https:\/\/reqres.in\/api\/users'"}},{"result":{"nanos":317964700,"millis":317.9647,"status":"passed"},"step":{"line":9,"prefix":"When","index":1,"text":"method get"},"stepLog":"16:17:10.742 request:\n1 > GET https:\/\/reqres.in\/api\/users\n1 > Host: reqres.in\n1 > Connection: Keep-Alive\n1 > User-Agent: Apache-HttpClient\/4.5.14 (Java\/20)\n1 > Accept-Encoding: gzip,deflate\n\n\n16:17:11.054 response time in milliseconds: 84\n1 < 200\n1 < Date: Mon, 17 Apr 2023 06:17:11 GMT\n1 < Content-Type: application\/json; charset=utf-8\n1 < Transfer-Encoding: chunked\n1 < Connection: keep-alive\n1 < X-Powered-By: Express\n1 < Access-Control-Allow-Origin: *\n1 < Etag: W\/\"3e4-2RLXvr5wTg9YQ6aH95CkYoFNuO8\"\n1 < Via: 1.1 vegur\n1 < Cache-Control: max-age=14400\n1 < CF-Cache-Status: HIT\n1 < Age: 4858\n1 < Report-To: {\"endpoints\":[{\"url\":\"https:\\\/\\\/a.nel.cloudflare.com\\\/report\\\/v3?s=bhqutYKEy%2FyXk%2BniXlWZ6syZ2DHtdAfhq1LX5EEUGpFVQ2PoOy63q4gl95dGd9yFydpakT7O7dEmElfi79wUUL%2BqWTk4pa2Z4BMZY4RnsRBRkkIdkyMGnrLgRw%3D%3D\"}],\"group\":\"cf-nel\",\"max_age\":604800}\n1 < NEL: {\"success_fraction\":0,\"report_to\":\"cf-nel\",\"max_age\":604800}\n1 < Vary: Accept-Encoding\n1 < Server: cloudflare\n1 < CF-RAY: 7b928b268ec52b3a-MEL\n{\"page\":1,\"per_page\":6,\"total\":12,\"total_pages\":2,\"data\":[{\"id\":1,\"email\":\"george.bluth@reqres.in\",\"first_name\":\"George\",\"last_name\":\"Bluth\",\"avatar\":\"https:\/\/reqres.in\/img\/faces\/1-image.jpg\"},{\"id\":2,\"email\":\"janet.weaver@reqres.in\",\"first_name\":\"Janet\",\"last_name\":\"Weaver\",\"avatar\":\"https:\/\/reqres.in\/img\/faces\/2-image.jpg\"},{\"id\":3,\"email\":\"emma.wong@reqres.in\",\"first_name\":\"Emma\",\"last_name\":\"Wong\",\"avatar\":\"https:\/\/reqres.in\/img\/faces\/3-image.jpg\"},{\"id\":4,\"email\":\"eve.holt@reqres.in\",\"first_name\":\"Eve\",\"last_name\":\"Holt\",\"avatar\":\"https:\/\/reqres.in\/img\/faces\/4-image.jpg\"},{\"id\":5,\"email\":\"charles.morris@reqres.in\",\"first_name\":\"Charles\",\"last_name\":\"Morris\",\"avatar\":\"https:\/\/reqres.in\/img\/faces\/5-image.jpg\"},{\"id\":6,\"email\":\"tracey.ramos@reqres.in\",\"first_name\":\"Tracey\",\"last_name\":\"Ramos\",\"avatar\":\"https:\/\/reqres.in\/img\/faces\/6-image.jpg\"}],\"support\":{\"url\":\"https:\/\/reqres.in\/#support-heading\",\"text\":\"To keep ReqRes free, contributions towards server costs are appreciated!\"}}\n\n"},{"result":{"nanos":23900,"millis":0.0239,"status":"passed"},"step":{"line":10,"prefix":"Then","index":2,"text":"status 200"}},{"result":{"nanos":2231900,"millis":2.2319,"status":"passed"},"step":{"line":11,"prefix":"*","index":3,"text":"print createUser.response"},"stepLog":"16:17:11.061 [print] {\n  \"id\": 6,\n  \"token\": \"QpwL5tke4Pnpja7X6\"\n}\n \n"},{"result":{"nanos":2268300,"millis":2.2683,"status":"passed"},"step":{"line":12,"prefix":"*","index":4,"text":"match response.data[5].email == 'tracey.ramos@reqres.in'"}}],"line":7,"description":"","durationMillis":3276.8915,"failed":false,"tags":["justCreateUser","Regression"],"executorName":"pool-1-thread-2","name":"Get all users","startTime":1681712227162,"refId":"[1:7]","endTime":1681712231063,"exampleIndex":-1}],"callDepth":0,"name":"Test to get all the users","description":"","resultDate":"2023-04-17 04:17:13 PM","durationMillis":3276.8915,"passedCount":1}