{"failedCount":0,"prefixedPath":"classpath:reqResApp\/feature\/getUsers.feature","packageQualifiedName":"reqResApp.feature.getUsers","loopIndex":-1,"relativePath":"reqResApp\/feature\/getUsers.feature","scenarioResults":[{"sectionIndex":0,"stepResults":[{"result":{"nanos":15889300,"millis":15.8893,"status":"passed"},"step":{"line":4,"prefix":"Given","index":0,"text":"url 'https:\/\/reqres.in\/api\/useres'"},"stepLog":"16:04:57.415 karate.env system property was: null \n"},{"result":{"nanos":1978210500,"millis":1978.2105,"status":"passed"},"step":{"line":5,"prefix":"When","index":1,"text":"method get"},"stepLog":"16:04:58.512 request:\n1 > GET https:\/\/reqres.in\/api\/useres\n1 > Host: reqres.in\n1 > Connection: Keep-Alive\n1 > User-Agent: Apache-HttpClient\/4.5.14 (Java\/20)\n1 > Accept-Encoding: gzip,deflate\n\n\n16:04:59.380 response time in milliseconds: 624\n1 < 200\n1 < Date: Fri, 14 Apr 2023 06:05:00 GMT\n1 < Content-Type: application\/json; charset=utf-8\n1 < Transfer-Encoding: chunked\n1 < Connection: keep-alive\n1 < X-Powered-By: Express\n1 < Access-Control-Allow-Origin: *\n1 < Etag: W\/\"2c1-N6Rqerxquq2kgQhL51EiSg4x0R8\"\n1 < Via: 1.1 vegur\n1 < Cache-Control: max-age=14400\n1 < CF-Cache-Status: HIT\n1 < Age: 871\n1 < Report-To: {\"endpoints\":[{\"url\":\"https:\\\/\\\/a.nel.cloudflare.com\\\/report\\\/v3?s=fqmECKyAdKcPO39axHdomcrO2UO6bB%2B3ut7FBvVn5MrkPPU8P9GcP8NLOgyLKpPUvNV9I8sl1lw%2BaAcHAdHihcBt98F5Hdmkw4hLN4Wcm41f0EU59NBQDvO0yA%3D%3D\"}],\"group\":\"cf-nel\",\"max_age\":604800}\n1 < NEL: {\"success_fraction\":0,\"report_to\":\"cf-nel\",\"max_age\":604800}\n1 < Vary: Accept-Encoding\n1 < Server: cloudflare\n1 < CF-RAY: 7b79c12d5e765aac-MEL\n{\"page\":1,\"per_page\":6,\"total\":12,\"total_pages\":2,\"data\":[{\"id\":1,\"name\":\"cerulean\",\"year\":2000,\"color\":\"#98B2D1\",\"pantone_value\":\"15-4020\"},{\"id\":2,\"name\":\"fuchsia rose\",\"year\":2001,\"color\":\"#C74375\",\"pantone_value\":\"17-2031\"},{\"id\":3,\"name\":\"true red\",\"year\":2002,\"color\":\"#BF1932\",\"pantone_value\":\"19-1664\"},{\"id\":4,\"name\":\"aqua sky\",\"year\":2003,\"color\":\"#7BC4C4\",\"pantone_value\":\"14-4811\"},{\"id\":5,\"name\":\"tigerlily\",\"year\":2004,\"color\":\"#E2583E\",\"pantone_value\":\"17-1456\"},{\"id\":6,\"name\":\"blue turquoise\",\"year\":2005,\"color\":\"#53B0AE\",\"pantone_value\":\"15-5217\"}],\"support\":{\"url\":\"https:\/\/reqres.in\/#support-heading\",\"text\":\"To keep ReqRes free, contributions towards server costs are appreciated!\"}}\n\n"},{"result":{"nanos":6174800,"millis":6.1748,"status":"passed"},"step":{"line":6,"prefix":"Then","index":2,"text":"status 200"}}],"executorName":"pool-1-thread-1","line":3,"name":"Get all users","description":"","durationMillis":2000.2746,"startTime":1681452296923,"failed":false,"refId":"[1:3]","endTime":1681452299579,"exampleIndex":-1},{"sectionIndex":1,"stepResults":[{"result":{"nanos":3531000,"millis":3.531,"status":"passed"},"step":{"line":9,"prefix":"Given","index":0,"text":"url 'https:\/\/reqres.in\/api\/useres?page1'"},"stepLog":"16:04:57.243 karate.env system property was: null \n"},{"result":{"nanos":2129002900,"millis":2129.0029,"status":"passed"},"step":{"line":10,"prefix":"When","index":1,"text":"method get"},"stepLog":"16:04:58.514 request:\n1 > GET https:\/\/reqres.in\/api\/useres?page1\n1 > Host: reqres.in\n1 > Connection: Keep-Alive\n1 > User-Agent: Apache-HttpClient\/4.5.14 (Java\/20)\n1 > Accept-Encoding: gzip,deflate\n\n\n16:04:59.722 response time in milliseconds: 1207\n1 < 200\n1 < Date: Fri, 14 Apr 2023 06:05:01 GMT\n1 < Content-Type: application\/json; charset=utf-8\n1 < Transfer-Encoding: chunked\n1 < Connection: keep-alive\n1 < X-Powered-By: Express\n1 < Access-Control-Allow-Origin: *\n1 < Etag: W\/\"2c1-N6Rqerxquq2kgQhL51EiSg4x0R8\"\n1 < Via: 1.1 vegur\n1 < Cache-Control: max-age=14400\n1 < CF-Cache-Status: MISS\n1 < Report-To: {\"endpoints\":[{\"url\":\"https:\\\/\\\/a.nel.cloudflare.com\\\/report\\\/v3?s=L51DFrmwuuQiiggE4HmdaLlhbj8hFLQGWaD%2BcuZuPDrOAizzG99gtGA%2B1CIJQ68rLKezWbwqncBhzOccc%2Fwkv7PZYA4%2FE0RzU9Xfr5iPVtIsHE%2BQ6CCl6G9Yeg%3D%3D\"}],\"group\":\"cf-nel\",\"max_age\":604800}\n1 < NEL: {\"success_fraction\":0,\"report_to\":\"cf-nel\",\"max_age\":604800}\n1 < Vary: Accept-Encoding\n1 < Server: cloudflare\n1 < CF-RAY: 7b79c12d5853299f-MEL\n{\"page\":1,\"per_page\":6,\"total\":12,\"total_pages\":2,\"data\":[{\"id\":1,\"name\":\"cerulean\",\"year\":2000,\"color\":\"#98B2D1\",\"pantone_value\":\"15-4020\"},{\"id\":2,\"name\":\"fuchsia rose\",\"year\":2001,\"color\":\"#C74375\",\"pantone_value\":\"17-2031\"},{\"id\":3,\"name\":\"true red\",\"year\":2002,\"color\":\"#BF1932\",\"pantone_value\":\"19-1664\"},{\"id\":4,\"name\":\"aqua sky\",\"year\":2003,\"color\":\"#7BC4C4\",\"pantone_value\":\"14-4811\"},{\"id\":5,\"name\":\"tigerlily\",\"year\":2004,\"color\":\"#E2583E\",\"pantone_value\":\"17-1456\"},{\"id\":6,\"name\":\"blue turquoise\",\"year\":2005,\"color\":\"#53B0AE\",\"pantone_value\":\"15-5217\"}],\"support\":{\"url\":\"https:\/\/reqres.in\/#support-heading\",\"text\":\"To keep ReqRes free, contributions towards server costs are appreciated!\"}}\n\n"},{"result":{"nanos":26600,"millis":0.0266,"status":"passed"},"step":{"line":11,"prefix":"Then","index":2,"text":"status 200"}}],"line":15,"description":"","durationMillis":2132.5605,"failed":false,"executorName":"pool-1-thread-2","name":"Get users using by page = 1","startTime":1681452296923,"refId":"[2.1:15]","endTime":1681452299724,"exampleData":{"pageNo":"1"},"exampleIndex":0},{"sectionIndex":1,"stepResults":[{"result":{"nanos":29648700,"millis":29.6487,"status":"passed"},"step":{"line":9,"prefix":"Given","index":0,"text":"url 'https:\/\/reqres.in\/api\/useres?page2'"},"stepLog":"16:04:57.536 karate.env system property was: null \n"},{"result":{"nanos":2144642900,"millis":2144.6429,"status":"passed"},"step":{"line":10,"prefix":"When","index":1,"text":"method get"},"stepLog":"16:04:58.514 request:\n1 > GET https:\/\/reqres.in\/api\/useres?page2\n1 > Host: reqres.in\n1 > Connection: Keep-Alive\n1 > User-Agent: Apache-HttpClient\/4.5.14 (Java\/20)\n1 > Accept-Encoding: gzip,deflate\n\n\n16:04:59.728 response time in milliseconds: 1213\n1 < 200\n1 < Date: Fri, 14 Apr 2023 06:05:01 GMT\n1 < Content-Type: application\/json; charset=utf-8\n1 < Transfer-Encoding: chunked\n1 < Connection: keep-alive\n1 < X-Powered-By: Express\n1 < Access-Control-Allow-Origin: *\n1 < Etag: W\/\"2c1-N6Rqerxquq2kgQhL51EiSg4x0R8\"\n1 < Via: 1.1 vegur\n1 < Cache-Control: max-age=14400\n1 < CF-Cache-Status: MISS\n1 < Report-To: {\"endpoints\":[{\"url\":\"https:\\\/\\\/a.nel.cloudflare.com\\\/report\\\/v3?s=cPLVVlUdwZaZGseqiWlThwGSBAfnK5crGbZbHj4GK3D14yLecZGB9%2BpCD0sH8Vlnta5tZll72BN9XPrYPrAVufAPULblRfQvQsybouZZKlEFsTDXzsDgBH4zlw%3D%3D\"}],\"group\":\"cf-nel\",\"max_age\":604800}\n1 < NEL: {\"success_fraction\":0,\"report_to\":\"cf-nel\",\"max_age\":604800}\n1 < Vary: Accept-Encoding\n1 < Server: cloudflare\n1 < CF-RAY: 7b79c12d5fd55ac0-MEL\n{\"page\":1,\"per_page\":6,\"total\":12,\"total_pages\":2,\"data\":[{\"id\":1,\"name\":\"cerulean\",\"year\":2000,\"color\":\"#98B2D1\",\"pantone_value\":\"15-4020\"},{\"id\":2,\"name\":\"fuchsia rose\",\"year\":2001,\"color\":\"#C74375\",\"pantone_value\":\"17-2031\"},{\"id\":3,\"name\":\"true red\",\"year\":2002,\"color\":\"#BF1932\",\"pantone_value\":\"19-1664\"},{\"id\":4,\"name\":\"aqua sky\",\"year\":2003,\"color\":\"#7BC4C4\",\"pantone_value\":\"14-4811\"},{\"id\":5,\"name\":\"tigerlily\",\"year\":2004,\"color\":\"#E2583E\",\"pantone_value\":\"17-1456\"},{\"id\":6,\"name\":\"blue turquoise\",\"year\":2005,\"color\":\"#53B0AE\",\"pantone_value\":\"15-5217\"}],\"support\":{\"url\":\"https:\/\/reqres.in\/#support-heading\",\"text\":\"To keep ReqRes free, contributions towards server costs are appreciated!\"}}\n\n"},{"result":{"nanos":31900,"millis":0.0319,"status":"passed"},"step":{"line":11,"prefix":"Then","index":2,"text":"status 200"}}],"line":16,"description":"","durationMillis":2174.3235,"failed":false,"executorName":"pool-1-thread-3","name":"Get users using by page = 2","startTime":1681452296924,"refId":"[2.2:16]","endTime":1681452299739,"exampleData":{"pageNo":"2"},"exampleIndex":1},{"sectionIndex":1,"stepResults":[{"result":{"nanos":1488100,"millis":1.4881,"status":"passed"},"step":{"line":9,"prefix":"Given","index":0,"text":"url 'https:\/\/reqres.in\/api\/useres?page3'"},"stepLog":"16:04:57.431 karate.env system property was: null \n"},{"result":{"nanos":2362098100,"millis":2362.0981,"status":"passed"},"step":{"line":10,"prefix":"When","index":1,"text":"method get"},"stepLog":"16:04:58.514 request:\n1 > GET https:\/\/reqres.in\/api\/useres?page3\n1 > Host: reqres.in\n1 > Connection: Keep-Alive\n1 > User-Agent: Apache-HttpClient\/4.5.14 (Java\/20)\n1 > Accept-Encoding: gzip,deflate\n\n\n16:04:59.954 response time in milliseconds: 1206\n1 < 200\n1 < Date: Fri, 14 Apr 2023 06:05:00 GMT\n1 < Content-Type: application\/json; charset=utf-8\n1 < Transfer-Encoding: chunked\n1 < Connection: keep-alive\n1 < X-Powered-By: Express\n1 < Access-Control-Allow-Origin: *\n1 < Etag: W\/\"2c1-N6Rqerxquq2kgQhL51EiSg4x0R8\"\n1 < Via: 1.1 vegur\n1 < Cache-Control: max-age=14400\n1 < CF-Cache-Status: MISS\n1 < Report-To: {\"endpoints\":[{\"url\":\"https:\\\/\\\/a.nel.cloudflare.com\\\/report\\\/v3?s=y0wLopx%2FwUlCHMEgpLLNg%2BsNh9GMnVMciXEZSJkCMHrBd7MrazUvI0xLLJbigIRBVEjgxzMebgEiA6R5nhBfdKy7XzUXucYfR4mSuJ54Jy0tN6DlzOzOYBcBGg%3D%3D\"}],\"group\":\"cf-nel\",\"max_age\":604800}\n1 < NEL: {\"success_fraction\":0,\"report_to\":\"cf-nel\",\"max_age\":604800}\n1 < Vary: Accept-Encoding\n1 < Server: cloudflare\n1 < CF-RAY: 7b79c12d5d1629a3-MEL\n{\"page\":1,\"per_page\":6,\"total\":12,\"total_pages\":2,\"data\":[{\"id\":1,\"name\":\"cerulean\",\"year\":2000,\"color\":\"#98B2D1\",\"pantone_value\":\"15-4020\"},{\"id\":2,\"name\":\"fuchsia rose\",\"year\":2001,\"color\":\"#C74375\",\"pantone_value\":\"17-2031\"},{\"id\":3,\"name\":\"true red\",\"year\":2002,\"color\":\"#BF1932\",\"pantone_value\":\"19-1664\"},{\"id\":4,\"name\":\"aqua sky\",\"year\":2003,\"color\":\"#7BC4C4\",\"pantone_value\":\"14-4811\"},{\"id\":5,\"name\":\"tigerlily\",\"year\":2004,\"color\":\"#E2583E\",\"pantone_value\":\"17-1456\"},{\"id\":6,\"name\":\"blue turquoise\",\"year\":2005,\"color\":\"#53B0AE\",\"pantone_value\":\"15-5217\"}],\"support\":{\"url\":\"https:\/\/reqres.in\/#support-heading\",\"text\":\"To keep ReqRes free, contributions towards server costs are appreciated!\"}}\n\n"},{"result":{"nanos":22000,"millis":0.022,"status":"passed"},"step":{"line":11,"prefix":"Then","index":2,"text":"status 200"}}],"line":17,"description":"","durationMillis":2363.6082,"failed":false,"executorName":"pool-1-thread-4","name":"Get users using by page = 3","startTime":1681452296924,"refId":"[2.3:17]","endTime":1681452299956,"exampleData":{"pageNo":"3"},"exampleIndex":2}],"callDepth":0,"name":"Test to get all the users","description":"","resultDate":"2023-04-14 04:04:59 PM","durationMillis":8670.7668,"passedCount":4}