{"failedCount":0,"prefixedPath":"classpath:reqResApp\/feature\/02_getUsers.feature","packageQualifiedName":"reqResApp.feature.02_getUsers","loopIndex":-1,"relativePath":"reqResApp\/feature\/02_getUsers.feature","scenarioResults":[{"sectionIndex":0,"stepResults":[{"result":{"nanos":2493154900,"millis":2493.1549,"status":"passed"},"step":{"background":true,"line":4,"prefix":"*","index":0,"text":"def createUser = call read('classpath:reqResApp\/feature\/01_createUser.feature')"},"callResults":[{"failedCount":0,"prefixedPath":"classpath:reqResApp\/feature\/01_createUser.feature","packageQualifiedName":"reqResApp.feature.01_createUser","loopIndex":-1,"relativePath":"reqResApp\/feature\/01_createUser.feature","scenarioResults":[{"sectionIndex":0,"stepResults":[{"result":{"nanos":7528600,"millis":7.5286,"status":"passed"},"step":{"background":true,"line":4,"prefix":"*","index":0,"text":"def baseURL = 'https:\/\/reqres.in\/api'"},"stepLog":"16:09:52.747 karate.env system property was: null \n"},{"result":{"nanos":78832100,"millis":78.8321,"status":"passed"},"step":{"background":true,"line":5,"prefix":"*","index":1,"text":"def createUserData = read('classpath:reqResApp\/testData\/createUserPayload.json')"}},{"result":{"nanos":88114500,"millis":88.1145,"status":"passed"},"step":{"line":9,"prefix":"Given","index":0,"text":"url baseURL +'\/register'"}},{"result":{"nanos":10418400,"millis":10.4184,"status":"passed"},"step":{"line":10,"prefix":"And","index":1,"text":"request createUserData.users[1]"}},{"result":{"nanos":883800,"millis":0.8838,"status":"passed"},"step":{"line":11,"prefix":"And","index":2,"text":"header Accept = 'application\/json'"}},{"result":{"nanos":1989099700,"millis":1989.0997,"status":"passed"},"step":{"line":12,"prefix":"When","index":3,"text":"method post"},"stepLog":"16:09:53.779 request:\n1 > POST https:\/\/reqres.in\/api\/register\n1 > Accept: application\/json\n1 > Content-Type: application\/json; charset=UTF-8\n1 > Content-Length: 94\n1 > Host: reqres.in\n1 > Connection: Keep-Alive\n1 > User-Agent: Apache-HttpClient\/4.5.14 (Java\/20)\n1 > Accept-Encoding: gzip,deflate\n{\"username\":\"tracey.ramos@reqres.in\",\"email\":\"tracey.ramos@reqres.in\",\"password\":\"cityslicka\"}\n\n16:09:55.269 response time in milliseconds: 1483\n1 < 200\n1 < Date: Mon, 17 Apr 2023 06:09:55 GMT\n1 < Content-Type: application\/json; charset=utf-8\n1 < Content-Length: 36\n1 < Connection: keep-alive\n1 < X-Powered-By: Express\n1 < Access-Control-Allow-Origin: *\n1 < Etag: W\/\"24-qkmwtZYcaqJ\/9W5ty0Q1n1B5zOE\"\n1 < Via: 1.1 vegur\n1 < CF-Cache-Status: DYNAMIC\n1 < Report-To: {\"endpoints\":[{\"url\":\"https:\\\/\\\/a.nel.cloudflare.com\\\/report\\\/v3?s=vPfPd1DTI6d1PTknYhRLFz1kCikWb3FaFZwFfGv9WjZO%2BBmcw71axtRzhlbOHm8CvOOdwNibPxppOtpuOhQ9HdHGC8AFKefaQ%2FQ5lCuI3z2KHguEJd%2FIrpyC8A%3D%3D\"}],\"group\":\"cf-nel\",\"max_age\":604800}\n1 < NEL: {\"success_fraction\":0,\"report_to\":\"cf-nel\",\"max_age\":604800}\n1 < Server: cloudflare\n1 < CF-RAY: 7b9280807a05df24-MEL\n{\"id\":6,\"token\":\"QpwL5tke4Pnpja7X6\"}\n\n"},{"result":{"nanos":6451800,"millis":6.4518,"status":"passed"},"step":{"line":13,"prefix":"Then","index":4,"text":"status 200"}},{"result":{"nanos":68599800,"millis":68.5998,"status":"passed"},"step":{"line":14,"prefix":"*","index":5,"text":"match response.id == '#notnull'"}},{"result":{"nanos":1081900,"millis":1.0819,"status":"passed"},"step":{"line":15,"prefix":"*","index":6,"text":"match response.token == '#notnull'"}},{"result":{"nanos":755700,"millis":0.7557,"status":"passed"},"step":{"line":16,"prefix":"*","index":7,"text":"match response == {\"id\": \"#number\", \"token\": \"#string\"}"}},{"result":{"nanos":32688000,"millis":32.688,"status":"passed"},"step":{"line":17,"prefix":"*","index":8,"text":"def myToken = response.token"}},{"result":{"nanos":5677300,"millis":5.6773,"status":"passed"},"step":{"line":18,"prefix":"*","index":9,"text":"print 'My token is: ' + myToken"},"stepLog":"16:09:55.395 [print] My token is: QpwL5tke4Pnpja7X6 \n"}],"line":8,"description":"","durationMillis":2290.1316,"failed":false,"tags":["Regression","Shakeout","tokenGeneration"],"executorName":"pool-1-thread-2","name":"Create user and retrieve a dummy token","startTime":1681711793103,"refId":"[1:8]","endTime":1681711795395,"exampleIndex":-1}],"callDepth":1,"name":"Creating user","description":"","resultDate":"2023-04-17 04:09:57 PM","durationMillis":2290.1316,"passedCount":1}]},{"result":{"nanos":7243700,"millis":7.2437,"status":"passed"},"step":{"line":8,"prefix":"Given","index":0,"text":"url 'https:\/\/reqres.in\/api\/users'"}},{"result":{"nanos":113751700,"millis":113.7517,"status":"passed"},"step":{"line":9,"prefix":"When","index":1,"text":"method get"},"stepLog":"16:09:55.425 request:\n1 > GET https:\/\/reqres.in\/api\/users\n1 > Host: reqres.in\n1 > Connection: Keep-Alive\n1 > User-Agent: Apache-HttpClient\/4.5.14 (Java\/20)\n1 > Accept-Encoding: gzip,deflate\n\n\n16:09:55.518 response time in milliseconds: 91\n1 < 200\n1 < Date: Mon, 17 Apr 2023 06:09:56 GMT\n1 < Content-Type: application\/json; charset=utf-8\n1 < Transfer-Encoding: chunked\n1 < Connection: keep-alive\n1 < X-Powered-By: Express\n1 < Access-Control-Allow-Origin: *\n1 < Etag: W\/\"3e4-2RLXvr5wTg9YQ6aH95CkYoFNuO8\"\n1 < Via: 1.1 vegur\n1 < Cache-Control: max-age=14400\n1 < CF-Cache-Status: HIT\n1 < Age: 4423\n1 < Report-To: {\"endpoints\":[{\"url\":\"https:\\\/\\\/a.nel.cloudflare.com\\\/report\\\/v3?s=Dyd0zCNxdprMDM83gC4jumd0CdsaeBMGgSnoRRGRF3ea3vw%2FTM8ri0z8p6W1xCX%2FWG0UAycCpeGBZJ%2F0ci%2FFlmNs5BO5Fvcbq%2Bx8hATMmRfaYQUE8WzzdAcpKg%3D%3D\"}],\"group\":\"cf-nel\",\"max_age\":604800}\n1 < NEL: {\"success_fraction\":0,\"report_to\":\"cf-nel\",\"max_age\":604800}\n1 < Vary: Accept-Encoding\n1 < Server: cloudflare\n1 < CF-RAY: 7b928085b9afdf81-MEL\n{\"page\":1,\"per_page\":6,\"total\":12,\"total_pages\":2,\"data\":[{\"id\":1,\"email\":\"george.bluth@reqres.in\",\"first_name\":\"George\",\"last_name\":\"Bluth\",\"avatar\":\"https:\/\/reqres.in\/img\/faces\/1-image.jpg\"},{\"id\":2,\"email\":\"janet.weaver@reqres.in\",\"first_name\":\"Janet\",\"last_name\":\"Weaver\",\"avatar\":\"https:\/\/reqres.in\/img\/faces\/2-image.jpg\"},{\"id\":3,\"email\":\"emma.wong@reqres.in\",\"first_name\":\"Emma\",\"last_name\":\"Wong\",\"avatar\":\"https:\/\/reqres.in\/img\/faces\/3-image.jpg\"},{\"id\":4,\"email\":\"eve.holt@reqres.in\",\"first_name\":\"Eve\",\"last_name\":\"Holt\",\"avatar\":\"https:\/\/reqres.in\/img\/faces\/4-image.jpg\"},{\"id\":5,\"email\":\"charles.morris@reqres.in\",\"first_name\":\"Charles\",\"last_name\":\"Morris\",\"avatar\":\"https:\/\/reqres.in\/img\/faces\/5-image.jpg\"},{\"id\":6,\"email\":\"tracey.ramos@reqres.in\",\"first_name\":\"Tracey\",\"last_name\":\"Ramos\",\"avatar\":\"https:\/\/reqres.in\/img\/faces\/6-image.jpg\"}],\"support\":{\"url\":\"https:\/\/reqres.in\/#support-heading\",\"text\":\"To keep ReqRes free, contributions towards server costs are appreciated!\"}}\n\n"},{"result":{"nanos":31300,"millis":0.0313,"status":"passed"},"step":{"line":10,"prefix":"Then","index":2,"text":"status 200"}},{"result":{"nanos":2718600,"millis":2.7186,"status":"passed"},"step":{"line":11,"prefix":"*","index":3,"text":"print createUser.response"},"stepLog":"16:09:55.526 [print] {\n  \"id\": 6,\n  \"token\": \"QpwL5tke4Pnpja7X6\"\n}\n \n"},{"result":{"nanos":3427500,"millis":3.4275,"status":"passed"},"step":{"line":12,"prefix":"*","index":4,"text":"match response.data[5].email == 'tracey.ramos@reqres.in'"}}],"line":7,"description":"","durationMillis":2620.3277,"failed":false,"tags":["justCreateUser","Regression"],"executorName":"pool-1-thread-2","name":"Get all users","startTime":1681711792445,"refId":"[1:7]","endTime":1681711795530,"exampleIndex":-1}],"callDepth":0,"name":"Test to get all the users","description":"","resultDate":"2023-04-17 04:09:57 PM","durationMillis":2620.3277,"passedCount":1}